digraph fsa{
rankdir=LR
graph [bgcolor=white];
start [shape=none]
node [shape = doublecircle]; 0 1 4 7 13 19 12 43 69 92 12 18 43 147 171 195 219 281 271 3 6 2 5 8 6 12 18 26 38 63 1 4 89 114 139 53 75 71 9 0 134 63 1 4 9 0 271 2 5 8 6 10 16 23 71 9 0 1 4 9 0 2 5 8 6 10 16 23 1 4 9 0 134 3 6 10 16 23 1 4 73 96 121 25 8 43 74 97 122 1 4 11 17 24 8 43 74 97 122 147 171 195 219 243 264 283 299 315 139 30 74 97 122 1 4 11 17 25 13 53 75 71 9 0 134 158 1 4 9 0 1 4 89 3 6 12 18 26 38 1 4 55 5 149 8 43 74 3 6 10 16 27 38 55 5 8 6 12 18 61 16 27 38 55 5 8 6 12 18 61 16 27 1 4 73 1 4 9 0 1 4 11 17 24 43 1 4 9 0 2 5 8 6 10 16 27 38 2 5 8 6 12 18 26 38 55 5 8 6 10 16 27 38 1 4 2 5 8 6 10 16 27 38 63 89 114 139 97 122 147 171 195 219 256 1 4 89 3 6 12 18 26 38 55 5 8 6 10 16 23 71 1 4 9 0 3 6 12 18 26 38 1 4 11 17 25 8 43 74 69 97 25 8 43 69 92 269 288 75 71 9 0 134 55 5 8 6 12 18 61 16 2 5 8 6 12 18 61 16 27 1 4 73 96 121 1 4 11 17 25 13 19 12 43 69 92 12 18 43 249 73 96 121 213 237 258 6 3 6 10 16 23 1 4 9 0 134 158 4 205 9 0 271 3 6 10 16 23 71 3 6 10 16 23 1 4 73 63 89 114 139 53 75 71 73 3 6 12 18 26 38 63 1 4 89 11 17 25 8 43 74 3 6 12 18 26 38 55 5 8 6 12 18 61 16 27 1 4 9 0 134 63 1 4 89 114 139 97 122 1 4 11 17 24 43 44 69 92 6 2 5 8 6 12 18 26 38 55 5 8 6 12 18 26 38 55 5 8 6 10 16 27 38 63 89 1 4 7 13 30 44 30 74 69 92 12 43 147 171 195 219 281 271 3 6 10 16 27 38 63 89 114 139 97 122 147 171 256 1 4 9 0 1 4 73 3 6 10 16 23 1 4 9 0 134 2 5 8 6 12 18 61 16 27 38 63 89 1 4 7 13 1 4 7 13 19 43 53 75 71 73 96 121 213 237 258 6 12 18 3 6 10 16 27 1 4 73 96 121 19 44 122 237 258 19 283 74 97 122 237 258;
start->0
0 -> 134[label = "refuel-end( plane1 city0 fl0 fl1)"]
0 -> 2[label = "zoom-start( plane1 city0 city1 fl2 fl1 fl0)"]
0 -> 3[label = "fly-start( plane1 city0 city1 fl2 fl1)"]
0 -> 271[label = "refuel-end( plane1 city0 fl1 fl2)"]
0 -> 1[label = "board-start( person1 plane1 city0)"]
256 -> 1[label = "refuel-start( plane1 city0 fl1 fl2)"]
256 -> 1[label = "refuel-start( plane1 city0 fl0 fl1)"]
1 -> 4[label = "board-end( person1 plane1 city0)"]
2 -> 5[label = "zoom-end( plane1 city0 city1 fl2 fl1 fl0)"]
258 -> 6[label = "refuel-end( plane1 city1 fl0 fl1)"]
258 -> 19[label = "debark-start( person1 plane1 city1)"]
3 -> 6[label = "fly-end( plane1 city0 city1 fl2 fl1)"]
4 -> 73[label = "refuel-end( plane1 city0 fl0 fl1)"]
4 -> 205[label = "refuel-start( plane1 city0 fl1 fl2)"]
4 -> 11[label = "zoom-start( plane1 city0 city1 fl2 fl1 fl0)"]
4 -> 7[label = "fly-start( plane1 city0 city1 fl2 fl1)"]
4 -> 89[label = "refuel-end( plane1 city0 fl1 fl2)"]
4 -> 9[label = "debark-start( person1 plane1 city0)"]
4 -> 55[label = "fly-start( plane1 city0 city1 fl1 fl0)"]
5 -> 8[label = "refuel-start( plane1 city1 fl0 fl1)"]
5 -> 149[label = "debark-start( person1 plane1 city1)"]
6 -> 12[label = "refuel-start( plane1 city1 fl1 fl2)"]
6 -> 10[label = "fly-start( plane1 city1 city0 fl1 fl0)"]
134 -> 63[label = "refuel-start( plane1 city0 fl1 fl2)"]
134 -> 158[label = "board-start( person1 plane1 city0)"]
134 -> 55[label = "fly-start( plane1 city0 city1 fl1 fl0)"]
7 -> 13[label = "fly-end( plane1 city0 city1 fl2 fl1)"]
8 -> 43[label = "debark-end( person1 plane1 city1)"]
8 -> 6[label = "refuel-end( plane1 city1 fl0 fl1)"]
264 -> 283[label = "refuel-start( plane1 city1 fl0 fl1)"]
9 -> 0[label = "debark-end( person1 plane1 city0)"]
10 -> 16[label = "fly-end( plane1 city1 city0 fl1 fl0)"]
11 -> 17[label = "zoom-end( plane1 city0 city1 fl2 fl1 fl0)"]
139 -> 97[label = "refuel-start( plane1 city1 fl1 fl2)"]
139 -> 30[label = "debark-start( person1 plane1 city1)"]
139 -> 53[label = "fly-start( plane1 city1 city0 fl1 fl0)"]
12 -> 18[label = "refuel-end( plane1 city1 fl1 fl2)"]
12 -> 43[label = "debark-end( person1 plane1 city1)"]
13 -> 30[label = "refuel-start( plane1 city1 fl1 fl2)"]
13 -> 19[label = "debark-start( person1 plane1 city1)"]
13 -> 53[label = "fly-start( plane1 city1 city0 fl1 fl0)"]
269 -> 288[label = "zoom-start( plane1 city1 city0 fl2 fl1 fl0)"]
271 -> 3[label = "fly-start( plane1 city0 city1 fl2 fl1)"]
16 -> 27[label = "refuel-start( plane1 city0 fl0 fl1)"]
16 -> 23[label = "board-start( person1 plane1 city0)"]
17 -> 25[label = "refuel-start( plane1 city1 fl0 fl1)"]
17 -> 24[label = "debark-start( person1 plane1 city1)"]
18 -> 43[label = "debark-end( person1 plane1 city1)"]
18 -> 61[label = "zoom-start( plane1 city1 city0 fl2 fl1 fl0)"]
18 -> 26[label = "fly-start( plane1 city1 city0 fl2 fl1)"]
19 -> 12[label = "refuel-start( plane1 city1 fl1 fl2)"]
19 -> 43[label = "debark-end( person1 plane1 city1)"]
19 -> 44[label = "refuel-start( plane1 city1 fl0 fl1)"]
19 -> 283[label = "refuel-end( plane1 city1 fl0 fl1)"]
147 -> 171[label = "zoom-end( plane1 city1 city0 fl2 fl1 fl0)"]
149 -> 8[label = "refuel-start( plane1 city1 fl0 fl1)"]
23 -> 1[label = "refuel-start( plane1 city0 fl0 fl1)"]
23 -> 71[label = "board-end( person1 plane1 city0)"]
24 -> 43[label = "debark-end( person1 plane1 city1)"]
24 -> 8[label = "refuel-start( plane1 city1 fl0 fl1)"]
25 -> 13[label = "refuel-end( plane1 city1 fl0 fl1)"]
25 -> 8[label = "debark-start( person1 plane1 city1)"]
281 -> 271[label = "refuel-end( plane1 city0 fl1 fl2)"]
26 -> 38[label = "fly-end( plane1 city1 city0 fl2 fl1)"]
27 -> 38[label = "refuel-end( plane1 city0 fl0 fl1)"]
27 -> 1[label = "board-start( person1 plane1 city0)"]
283 -> 74[label = "debark-end( person1 plane1 city1)"]
283 -> 299[label = "board-start( person1 plane1 city1)"]
30 -> 44[label = "refuel-end( plane1 city1 fl1 fl2)"]
30 -> 74[label = "debark-end( person1 plane1 city1)"]
158 -> 1[label = "refuel-start( plane1 city0 fl1 fl2)"]
158 -> 4[label = "board-end( person1 plane1 city0)"]
288 -> 75[label = "zoom-end( plane1 city1 city0 fl2 fl1 fl0)"]
38 -> 63[label = "refuel-start( plane1 city0 fl1 fl2)"]
38 -> 1[label = "board-start( person1 plane1 city0)"]
38 -> 55[label = "fly-start( plane1 city0 city1 fl1 fl0)"]
43 -> 44[label = "refuel-start( plane1 city1 fl0 fl1)"]
43 -> 69[label = "board-start( person1 plane1 city1)"]
43 -> 74[label = "refuel-end( plane1 city1 fl0 fl1)"]
43 -> 147[label = "zoom-start( plane1 city1 city0 fl2 fl1 fl0)"]
43 -> 53[label = "fly-start( plane1 city1 city0 fl1 fl0)"]
43 -> 249[label = "fly-start( plane1 city1 city0 fl2 fl1)"]
171 -> 195[label = "refuel-start( plane1 city0 fl0 fl1)"]
171 -> 256[label = "board-start( person1 plane1 city0)"]
299 -> 315[label = "board-end( person1 plane1 city1)"]
44 -> 122[label = "debark-end( person1 plane1 city1)"]
44 -> 69[label = "board-start( person1 plane1 city1)"]
44 -> 30[label = "debark-start( person1 plane1 city1)"]
53 -> 75[label = "fly-end( plane1 city1 city0 fl1 fl0)"]
55 -> 5[label = "fly-end( plane1 city0 city1 fl1 fl0)"]
315 -> 139[label = "refuel-end( plane1 city1 fl0 fl1)"]
61 -> 16[label = "zoom-end( plane1 city1 city0 fl2 fl1 fl0)"]
63 -> 89[label = "refuel-end( plane1 city0 fl1 fl2)"]
63 -> 1[label = "board-start( person1 plane1 city0)"]
195 -> 219[label = "refuel-end( plane1 city0 fl0 fl1)"]
69 -> 97[label = "refuel-start( plane1 city1 fl1 fl2)"]
69 -> 92[label = "board-end( person1 plane1 city1)"]
71 -> 73[label = "refuel-end( plane1 city0 fl0 fl1)"]
71 -> 9[label = "debark-start( person1 plane1 city0)"]
73 -> 63[label = "refuel-start( plane1 city0 fl1 fl2)"]
73 -> 96[label = "fly-start( plane1 city0 city1 fl1 fl0)"]
74 -> 97[label = "refuel-start( plane1 city1 fl1 fl2)"]
74 -> 69[label = "board-start( person1 plane1 city1)"]
75 -> 71[label = "refuel-start( plane1 city0 fl0 fl1)"]
205 -> 9[label = "debark-start( person1 plane1 city0)"]
213 -> 237[label = "refuel-start( plane1 city1 fl0 fl1)"]
89 -> 11[label = "zoom-start( plane1 city0 city1 fl2 fl1 fl0)"]
89 -> 114[label = "fly-start( plane1 city0 city1 fl2 fl1)"]
89 -> 1[label = "board-start( person1 plane1 city0)"]
219 -> 281[label = "refuel-start( plane1 city0 fl1 fl2)"]
219 -> 256[label = "board-start( person1 plane1 city0)"]
219 -> 243[label = "fly-start( plane1 city0 city1 fl1 fl0)"]
92 -> 269[label = "refuel-end( plane1 city1 fl1 fl2)"]
92 -> 6[label = "refuel-end( plane1 city1 fl0 fl1)"]
92 -> 12[label = "debark-start( person1 plane1 city1)"]
96 -> 121[label = "fly-end( plane1 city0 city1 fl1 fl0)"]
97 -> 122[label = "refuel-end( plane1 city1 fl1 fl2)"]
97 -> 25[label = "board-end( person1 plane1 city1)"]
237 -> 258[label = "board-end( person1 plane1 city1)"]
114 -> 139[label = "fly-end( plane1 city0 city1 fl2 fl1)"]
243 -> 264[label = "fly-end( plane1 city0 city1 fl1 fl0)"]
121 -> 25[label = "refuel-start( plane1 city1 fl0 fl1)"]
121 -> 213[label = "board-start( person1 plane1 city1)"]
121 -> 19[label = "debark-start( person1 plane1 city1)"]
249 -> 73[label = "fly-end( plane1 city1 city0 fl2 fl1)"]
122 -> 237[label = "board-start( person1 plane1 city1)"]
122 -> 147[label = "zoom-start( plane1 city1 city0 fl2 fl1 fl0)"]
}
