digraph fsa{
rankdir=LR
graph [bgcolor=white];
start [shape=none]
node [shape = doublecircle]; 0 1 4 7 5 8 14 25 3 6 11 0 3 6 11 75 179 2 5 8 14 20 3 6 66 89 114 3 6 9 15 21 23 30 53 10 16 22 35 180 99 179 251 287 309 12 18 4 7 30 45 10 16 1 4 7 5 8 14 20 35 51 4 7 5 10 16 22 35 110 94 287 309 12 18 1 4 7 5 8 14 20 3 6 11 0 3 6 11 75 179 51 4 7 5 8 14 25 39 2 5 10 16 22 35 51 4 7 5 10 16 22 35 51 4 7 5 3 6 9 15 21 36 52 71 94 11 0 3 6 66 154 179 99 110 135 154 179 327 3 6 12 18 30 45 10 16 2 5 8 14 20 3 6 11 0 3 6 66 89 114 220 245 7 53 10 23 30 45 3 6 9 15 23 30 53 10 23 30 53 21 114 220 245 269 293 315 336 357 378 4 7 5 3 6 11 0 2 5 8 14 25 3 6 66 89 114 220 245 4 7 247 271 379 21 85 36 52 71 1 4 7 5 8 14 25 3 6 11 0 75 197 222 247 271 295 317 338 66 3 6 11 0 2 5 8 14 20 35 110 135 2 5 8 14 25 39 11 75 99 11 0 3 6 135 9 15 26 39 56 14 25 3 6 66 89 114 3 6 9 15 26 39 56 11 0 75 99 110 135 154 179 251 287 309 11 0 1 4 7 5 2 5 8 14 20 35 51 4 7 5 10 16 28 14 25 3 6 11 0 3 6 66 3 6 9 15 26 39 56 14 20 3 6 66 154 179 251 3 6 11 0 3 6 135 3 6 11 0 3 6 11 0 1 4 7 5 8 14 20 35 51 4 7 5 2 5 10 16 28 14 20 35 51 4 1 4 7 5 10 16 22 35 51 4 7 5 10 16 22 35 51 4 7 5 10 16 28 14 25 39 2 5 10 16 28 14 20 3 6 66 154 179 51 4 7 5 3 6 12 18 30 45 61 21 85 36 155 180 99 230 2 5 10 16 22 35 51 4 7 5 10 16 22 35 110 135 154 179 51 4 7 5 8 14 3 6 12 18 30 45 26 39 56 14 25 3 6 11 0 75 197 222 247 271 295 317 338 66 94 251 287 309 2 5 8 14 20 3 6 11 0 3 6 11 75 179 51 4 3 6 12 18 30 45 61 85 10 16 28 14 20 35 99 230 259 222 247 271 295 317 338 66 1 4 7 5 8 14 25 3 6 11 0 3 6 11 75 99 179 327 2 5 8 14 20 35 110 135 1 4 7 5 10 16 22 35 110 135 154 179 99 230 259 222 247 271 295 317 338 3 6 11 0 75 2 5 10 16 28 14 20 35 51 4 7 5 10 16 22 35 110 94 287 309 2 5 2 5 8 14 25 39 56 11 0 3 6 66 89 114 3 6 12 18 4 7 30 45 26 39 11 75 99 230 261 286 308 330 11 75 99 230 261 286 10 16;
start->0
0 -> 75[label = "refuel-end( plane1 city0 fl0 fl1)"]
0 -> 1[label = "zoom-start( plane1 city0 city1 fl2 fl1 fl0)"]
0 -> 2[label = "fly-start( plane1 city0 city1 fl2 fl1)"]
0 -> 3[label = "board-start( person1 plane1 city0)"]
1 -> 4[label = "zoom-end( plane1 city0 city1 fl2 fl1 fl0)"]
2 -> 5[label = "fly-end( plane1 city0 city1 fl2 fl1)"]
3 -> 6[label = "board-end( person1 plane1 city0)"]
259 -> 222[label = "zoom-end( plane1 city0 city1 fl2 fl1 fl0)"]
4 -> 7[label = "refuel-start( plane1 city1 fl0 fl1)"]
5 -> 10[label = "refuel-start( plane1 city1 fl1 fl2)"]
5 -> 8[label = "fly-start( plane1 city1 city0 fl1 fl0)"]
261 -> 286[label = "fly-end( plane1 city0 city1 fl2 fl1)"]
6 -> 66[label = "refuel-end( plane1 city0 fl0 fl1)"]
6 -> 12[label = "zoom-start( plane1 city0 city1 fl2 fl1 fl0)"]
6 -> 9[label = "fly-start( plane1 city0 city1 fl2 fl1)"]
6 -> 135[label = "refuel-end( plane1 city0 fl1 fl2)"]
6 -> 11[label = "debark-start( person1 plane1 city0)"]
7 -> 30[label = "debark-end( person1 plane1 city1)"]
7 -> 53[label = "board-start( person1 plane1 city1)"]
7 -> 5[label = "refuel-end( plane1 city1 fl0 fl1)"]
7 -> 247[label = "board-end( person1 plane1 city1)"]
135 -> 9[label = "fly-start( plane1 city0 city1 fl2 fl1)"]
135 -> 154[label = "debark-start( person1 plane1 city0)"]
8 -> 14[label = "fly-end( plane1 city1 city0 fl1 fl0)"]
9 -> 15[label = "fly-end( plane1 city0 city1 fl2 fl1)"]
10 -> 16[label = "refuel-end( plane1 city1 fl1 fl2)"]
10 -> 23[label = "debark-start( person1 plane1 city1)"]
11 -> 75[label = "refuel-end( plane1 city0 fl0 fl1)"]
11 -> 0[label = "debark-end( person1 plane1 city0)"]
12 -> 18[label = "zoom-end( plane1 city0 city1 fl2 fl1 fl0)"]
269 -> 293[label = "fly-start( plane1 city1 city0 fl2 fl1)"]
14 -> 20[label = "refuel-start( plane1 city0 fl0 fl1)"]
14 -> 25[label = "board-start( person1 plane1 city0)"]
15 -> 21[label = "refuel-start( plane1 city1 fl1 fl2)"]
15 -> 23[label = "debark-start( person1 plane1 city1)"]
15 -> 26[label = "fly-start( plane1 city1 city0 fl1 fl0)"]
271 -> 379[label = "debark-start( person1 plane1 city1)"]
271 -> 295[label = "fly-start( plane1 city1 city0 fl1 fl0)"]
16 -> 28[label = "zoom-start( plane1 city1 city0 fl2 fl1 fl0)"]
16 -> 22[label = "fly-start( plane1 city1 city0 fl2 fl1)"]
18 -> 30[label = "refuel-start( plane1 city1 fl0 fl1)"]
18 -> 4[label = "debark-start( person1 plane1 city1)"]
20 -> 35[label = "refuel-end( plane1 city0 fl0 fl1)"]
20 -> 3[label = "board-start( person1 plane1 city0)"]
21 -> 36[label = "refuel-end( plane1 city1 fl1 fl2)"]
21 -> 85[label = "debark-end( person1 plane1 city1)"]
21 -> 23[label = "debark-start( person1 plane1 city1)"]
21 -> 114[label = "board-end( person1 plane1 city1)"]
22 -> 35[label = "fly-end( plane1 city1 city0 fl2 fl1)"]
23 -> 30[label = "debark-end( person1 plane1 city1)"]
25 -> 3[label = "refuel-start( plane1 city0 fl0 fl1)"]
25 -> 39[label = "board-end( person1 plane1 city0)"]
26 -> 39[label = "fly-end( plane1 city1 city0 fl1 fl0)"]
154 -> 179[label = "debark-end( person1 plane1 city0)"]
155 -> 180[label = "fly-end( plane1 city1 city0 fl2 fl1)"]
28 -> 14[label = "zoom-end( plane1 city1 city0 fl2 fl1 fl0)"]
30 -> 53[label = "board-start( person1 plane1 city1)"]
30 -> 45[label = "refuel-end( plane1 city1 fl0 fl1)"]
286 -> 10[label = "refuel-start( plane1 city1 fl1 fl2)"]
286 -> 308[label = "fly-start( plane1 city1 city0 fl1 fl0)"]
287 -> 309[label = "refuel-end( plane1 city0 fl1 fl2)"]
35 -> 99[label = "refuel-start( plane1 city0 fl1 fl2)"]
35 -> 110[label = "board-start( person1 plane1 city0)"]
35 -> 51[label = "fly-start( plane1 city0 city1 fl1 fl0)"]
35 -> 180[label = "debark-start( person1 plane1 city0)"]
36 -> 52[label = "zoom-start( plane1 city1 city0 fl2 fl1 fl0)"]
36 -> 155[label = "fly-start( plane1 city1 city0 fl2 fl1)"]
293 -> 315[label = "fly-end( plane1 city1 city0 fl2 fl1)"]
39 -> 11[label = "refuel-start( plane1 city0 fl0 fl1)"]
39 -> 56[label = "debark-start( person1 plane1 city0)"]
295 -> 317[label = "fly-end( plane1 city1 city0 fl1 fl0)"]
45 -> 10[label = "refuel-start( plane1 city1 fl1 fl2)"]
45 -> 61[label = "debark-start( person1 plane1 city1)"]
45 -> 26[label = "fly-start( plane1 city1 city0 fl1 fl0)"]
51 -> 4[label = "fly-end( plane1 city0 city1 fl1 fl0)"]
179 -> 99[label = "refuel-start( plane1 city0 fl1 fl2)"]
179 -> 327[label = "refuel-end( plane1 city0 fl1 fl2)"]
179 -> 251[label = "board-start( person1 plane1 city0)"]
179 -> 51[label = "fly-start( plane1 city0 city1 fl1 fl0)"]
52 -> 71[label = "zoom-end( plane1 city1 city0 fl2 fl1 fl0)"]
180 -> 99[label = "refuel-start( plane1 city0 fl1 fl2)"]
308 -> 330[label = "fly-end( plane1 city1 city0 fl1 fl0)"]
53 -> 21[label = "refuel-start( plane1 city1 fl1 fl2)"]
53 -> 10[label = "board-end( person1 plane1 city1)"]
309 -> 12[label = "zoom-start( plane1 city0 city1 fl2 fl1 fl0)"]
309 -> 2[label = "fly-start( plane1 city0 city1 fl2 fl1)"]
309 -> 11[label = "debark-start( person1 plane1 city0)"]
56 -> 14[label = "debark-end( person1 plane1 city0)"]
56 -> 11[label = "refuel-start( plane1 city0 fl0 fl1)"]
315 -> 336[label = "fly-start( plane1 city0 city1 fl1 fl0)"]
61 -> 21[label = "refuel-start( plane1 city1 fl1 fl2)"]
61 -> 85[label = "debark-end( person1 plane1 city1)"]
317 -> 338[label = "refuel-start( plane1 city0 fl0 fl1)"]
66 -> 94[label = "refuel-start( plane1 city0 fl1 fl2)"]
66 -> 89[label = "fly-start( plane1 city0 city1 fl1 fl0)"]
66 -> 154[label = "debark-start( person1 plane1 city0)"]
197 -> 222[label = "fly-end( plane1 city0 city1 fl1 fl0)"]
71 -> 94[label = "refuel-start( plane1 city0 fl0 fl1)"]
327 -> 2[label = "fly-start( plane1 city0 city1 fl2 fl1)"]
327 -> 3[label = "board-start( person1 plane1 city0)"]
330 -> 11[label = "refuel-start( plane1 city0 fl0 fl1)"]
75 -> 179[label = "debark-end( person1 plane1 city0)"]
75 -> 99[label = "refuel-start( plane1 city0 fl1 fl2)"]
75 -> 197[label = "fly-start( plane1 city0 city1 fl1 fl0)"]
336 -> 357[label = "fly-end( plane1 city0 city1 fl1 fl0)"]
338 -> 66[label = "refuel-end( plane1 city0 fl0 fl1)"]
338 -> 3[label = "board-start( person1 plane1 city0)"]
85 -> 36[label = "refuel-end( plane1 city1 fl1 fl2)"]
85 -> 10[label = "refuel-start( plane1 city1 fl1 fl2)"]
89 -> 114[label = "fly-end( plane1 city0 city1 fl1 fl0)"]
220 -> 245[label = "debark-end( person1 plane1 city1)"]
94 -> 251[label = "board-start( person1 plane1 city0)"]
94 -> 11[label = "debark-start( person1 plane1 city0)"]
94 -> 287[label = "board-end( person1 plane1 city0)"]
222 -> 247[label = "refuel-start( plane1 city1 fl0 fl1)"]
99 -> 179[label = "debark-end( person1 plane1 city0)"]
99 -> 230[label = "refuel-end( plane1 city0 fl1 fl2)"]
99 -> 110[label = "board-start( person1 plane1 city0)"]
99 -> 11[label = "debark-start( person1 plane1 city0)"]
357 -> 378[label = "board-start( person1 plane1 city1)"]
230 -> 259[label = "zoom-start( plane1 city0 city1 fl2 fl1 fl0)"]
230 -> 261[label = "fly-start( plane1 city0 city1 fl2 fl1)"]
110 -> 94[label = "refuel-start( plane1 city0 fl1 fl2)"]
110 -> 135[label = "board-end( person1 plane1 city0)"]
114 -> 220[label = "debark-start( person1 plane1 city1)"]
245 -> 269[label = "refuel-end( plane1 city1 fl1 fl2)"]
245 -> 7[label = "refuel-start( plane1 city1 fl0 fl1)"]
245 -> 4[label = "board-start( person1 plane1 city1)"]
247 -> 271[label = "refuel-end( plane1 city1 fl0 fl1)"]
378 -> 4[label = "board-end( person1 plane1 city1)"]
251 -> 3[label = "refuel-start( plane1 city0 fl1 fl2)"]
251 -> 287[label = "board-end( person1 plane1 city0)"]
379 -> 21[label = "refuel-start( plane1 city1 fl1 fl2)"]
}
