digraph fsa{
rankdir=LR
graph [bgcolor=white];
start [shape=none]
node [shape = doublecircle]; 0 1 4 7 11 17 0 3 6 10 14 20 0 2 5 2 5 19 25 34 45 62 77 95 113 132 45 62 77 95 113 132 45 62 77 95 113 132 45 62 77 95 113 132 45 60 75 93 1 4 7 11 17 0 3 6 10 14 20 0 3 6 10 14 20 0 1 4 7 11 17 0 2 5 0 1 4 7 11 17 0 2 5 2 5 19 25 34 45 56 71 215 240 264 14 20 77 62 77 95 113 132 45 60 75 93 111 130 11 17 77 62 77 95 113 132 45 2 5 0 3 6 10 14 20 0 2 5 2 5 19 25 34 45 56 71 215 1 4 7 11 17 0 1 4 7 11 17 0 2 5 2 5 19 25 34 45 60 75 93 111 130 45 60 75 1 4 77 7 201 226 250 274 93 111 130 45 56 71 3 6 77 10 169 193 1 4 7 11 17 0 3 6 10 14 20 0 3 6 10 14 20 0 2 5 2 5 19 25 34 45 60 75 93 177 201 226 250 274 93 111 130 45 62 77 95 113 132 45 2 5 2 5 19 25 34 45 56 71 3 6 77 10 169 193 218 243 95 113 132 45 60 75 1 4 77 7 201 226 250 274 93 177 201 226 250 274 93 177 201 226 374 394 413 3 6 10 14 20 0 2 5 2 5 19 25 34 45 56 71 215 3 6 10 14 20 0 2 5 0 1 4 7 11 17 0 1 4 7 11 17 0 2 5 2 5 19 25 34 45 60 75 93 1 4 7 11 17 0 3 6 10 14 20 0 3 6 10 14 20 0 2 5 2 5 19 25 34 45 62 77 95 113 132 45 2 5 0 2 5 0 1 4 7 11 17 0 2 5 2 5 19 25 34 45 60 75 93 2 5 2 5 19 25 34 45 60 75 93 111 130 45 56 71 215 240 264 14 20 77 62 77 95 113 132 45 60 75 93 177 201 226 250 274 93 111 130 11 17 77 62 77 95 113 132 45 60 75 93 3 6 10 14 20 0 3 6 10 14 20 0 2 5 0 1 4 7 2 5 2 5 19 25 34 45 62 77 95 113 132 45 56 71 215 248 169 193 218 243 95 113 132 45 60 75 1 4 77 7 201 226 374 394 413 600 611 113 250 274 250 274 93 111 130 11 17 77 62 77 95 3 6 10 14 20 0 3 6 10 14 20 0 3 6 10 14 20 0 3 6 10 14 20 0 3 6 10 14 20 0 1 4 7 11 17 0 3 6 10 14 20 0 1 4 7 2 5 0 2 5 2 5 19 25 34 45 60 75 93 177 201 226 250 274 93 111 130 11 17 77 62 77 95 113 132 45 2 5 0 3 6 10 14 20 0 3 6 10 14 20 0 3 6 10 14 20 0 1 4 7 11 17 0 2 5 0 1 4 7 1 4 7 11 17 0 2 5 2 5 19 25 34 45 62 77 95 113 132 45 3 6 10 14 20 0 1 4 7 11 17 0 1 4 7 11 17 0 3 6 10 14 20 0 2 5 0 1 4 7 11 17 0 1 4 7 11 17 0 3 6 10 14 20 0 3 6 10 14 20 0 1 4 7 11 17 0 1 4 7 11 17 0 3 6 10 14 20 0 2 5 0 3 6 10 14 20 0 2 5 0 1 4 7 11 17 0 2 5 0 3 6 10 14 20 0 3 6 10 14 20 0 2 5 0 1 4 7 11 17 0 3 6 10 14 20 0 3 6 10 14 20 0 3 6 10 14 20 0 2 5 0 3 6 10 1 4 7 11 17 0 3 6 10 14 20 0 3 6 10 14 20 0 1 4 7 3 6 10 14 20 0 1 4 7 11 17 0 2 5 0 1 4 7 11 17 0 2 5 2 5 19 25 34 45 60 75 1 4 77 7 201 226 374 394 413 600 611 250 2 5 0 1 4 7 11 17 0 2 5 2 5 19 25 34 45 60 75 93 111 130 45 1 4 7 11 17 0 2 5 2 5 19 25 34 45 60 75 1 4 77 7 201 226 374 394 413 113 132 45 62 77 95 113 132 45 2 5 0 3 6 10 14 20 0 3 6 10 14 20 0 2 5 0 1 4 7 11 17 0 2 5 0 1 4 7 11 17 0 3 6 10 14 20 0 3 6 10 14 20 0 1 4 7 11 17 0 2 5 0 1 4 7 11 17 0 2 5 2 5 19 25 34 45 62 77 95 2 5 2 5 19 25 34 45 60 75 93 111 130 11 17 77 62 77 95;
start->0
0 -> 2[label = "turn-doorknob-start( robot1 room1 room2 door1 grip)"]
0 -> 1[label = "pick-start( robot1 ball1 room1 grip)"]
0 -> 3[label = "pick-start( robot1 ball2 room1 grip)"]
1 -> 4[label = "pick-inv( robot1 ball1 room1 grip)"]
193 -> 218[label = "drop-start( robot1 ball2 room2 grip)"]
2 -> 5[label = "turn-doorknob-inv( robot1 room1 room2 door1 grip)"]
130 -> 11[label = "move-start( robot1 room1 room2 door1)"]
130 -> 45[label = "drop-end( robot1 ball1 room1 grip)"]
3 -> 6[label = "pick-inv( robot1 ball2 room1 grip)"]
4 -> 7[label = "pick-end( robot1 ball1 room1 grip)"]
4 -> 77[label = "move-inv( robot1 room1 room2 door1)"]
132 -> 45[label = "move-end( robot1 room2 room1 door1)"]
5 -> 0[label = "turn-doorknob-end( robot1 room1 room2 door1 grip)"]
5 -> 2[label = "open-door-start( robot1 room1 room2 door1 grip)"]
5 -> 19[label = "open-door-inv( robot1 room1 room2 door1 grip)"]
6 -> 10[label = "pick-end( robot1 ball2 room1 grip)"]
6 -> 77[label = "move-inv( robot1 room1 room2 door1)"]
7 -> 11[label = "drop-start( robot1 ball1 room1 grip)"]
7 -> 201[label = "move-inv( robot1 room1 room2 door1)"]
71 -> 3[label = "move-start( robot1 room1 room2 door1)"]
71 -> 215[label = "pick-end( robot1 ball2 room1 grip)"]
264 -> 14[label = "move-start( robot1 room1 room2 door1)"]
201 -> 226[label = "move-end( robot1 room1 room2 door1)"]
10 -> 14[label = "drop-start( robot1 ball2 room1 grip)"]
10 -> 169[label = "move-inv( robot1 room1 room2 door1)"]
394 -> 413[label = "drop-end( robot1 ball1 room2 grip)"]
11 -> 17[label = "drop-inv( robot1 ball1 room1 grip)"]
75 -> 1[label = "move-start( robot1 room1 room2 door1)"]
75 -> 93[label = "pick-end( robot1 ball1 room1 grip)"]
77 -> 62[label = "drop-end( robot1 ball2 room1 grip)"]
77 -> 10[label = "pick-end( robot1 ball2 room1 grip)"]
77 -> 62[label = "drop-end( robot1 ball1 room1 grip)"]
77 -> 7[label = "pick-end( robot1 ball1 room1 grip)"]
77 -> 95[label = "move-end( robot1 room1 room2 door1)"]
14 -> 20[label = "drop-inv( robot1 ball2 room1 grip)"]
17 -> 0[label = "drop-end( robot1 ball1 room1 grip)"]
17 -> 77[label = "move-inv( robot1 room1 room2 door1)"]
274 -> 250[label = "pick-end( robot1 ball1 room2 grip)"]
274 -> 93[label = "move-end( robot1 room2 room1 door1)"]
19 -> 25[label = "open-door-end( robot1 room1 room2 door1 grip)"]
20 -> 0[label = "drop-end( robot1 ball2 room1 grip)"]
20 -> 77[label = "move-inv( robot1 room1 room2 door1)"]
215 -> 240[label = "drop-start( robot1 ball2 room1 grip)"]
215 -> 248[label = "move-start( robot1 room1 room2 door1)"]
600 -> 611[label = "pick-inv( robot1 ball1 room2 grip)"]
25 -> 34[label = "turn-doorknob-inv( robot1 room1 room2 door1 grip)"]
218 -> 243[label = "drop-inv( robot1 ball2 room2 grip)"]
93 -> 111[label = "drop-start( robot1 ball1 room1 grip)"]
93 -> 177[label = "move-start( robot1 room1 room2 door1)"]
413 -> 600[label = "pick-start( robot1 ball1 room2 grip)"]
413 -> 113[label = "move-start( robot1 room2 room1 door1)"]
95 -> 113[label = "move-start( robot1 room2 room1 door1)"]
34 -> 45[label = "turn-doorknob-end( robot1 room1 room2 door1 grip)"]
226 -> 374[label = "drop-start( robot1 ball1 room2 grip)"]
226 -> 250[label = "move-start( robot1 room2 room1 door1)"]
611 -> 250[label = "pick-end( robot1 ball1 room2 grip)"]
611 -> 113[label = "move-start( robot1 room2 room1 door1)"]
169 -> 193[label = "move-end( robot1 room1 room2 door1)"]
45 -> 62[label = "move-start( robot1 room1 room2 door1)"]
45 -> 60[label = "pick-start( robot1 ball1 room1 grip)"]
45 -> 56[label = "pick-start( robot1 ball2 room1 grip)"]
111 -> 130[label = "drop-inv( robot1 ball1 room1 grip)"]
240 -> 264[label = "drop-inv( robot1 ball2 room1 grip)"]
113 -> 250[label = "pick-inv( robot1 ball1 room2 grip)"]
113 -> 132[label = "move-inv( robot1 room2 room1 door1)"]
177 -> 201[label = "move-inv( robot1 room1 room2 door1)"]
243 -> 95[label = "drop-end( robot1 ball2 room2 grip)"]
374 -> 394[label = "drop-inv( robot1 ball1 room2 grip)"]
56 -> 71[label = "pick-inv( robot1 ball2 room1 grip)"]
248 -> 169[label = "move-inv( robot1 room1 room2 door1)"]
250 -> 274[label = "move-inv( robot1 room2 room1 door1)"]
60 -> 75[label = "pick-inv( robot1 ball1 room1 grip)"]
62 -> 77[label = "move-inv( robot1 room1 room2 door1)"]
}
