digraph fsa{
rankdir=LR
graph [bgcolor=white];
start [shape=none]
node [shape = doublecircle]; 0 1 4 7 11 16 0 3 6 3 6 18 23 30 40 50 63 77 91 106 40 94 109 192 382 409 0 2 5 8 2 5 8 12 17 0 3 6 3 6 18 23 30 40 94 109 192 219 246 273 280 308 336 382 409 11 16 63 50 63 77 91 106 40 56 69 83 97 113 132 280 308 336 2 5 8 12 17 0 1 4 7 11 16 0 3 6 0 2 5 8 12 17 0 2 5 8 12 17 0 2 5 8 12 17 0 3 6 3 6 18 23 30 40 50 63 77 91 106 40 56 69 2 5 63 8 113 132 280 308 336 439 466 12 17 63 50 63 77 91 106 40 50 63 77 91 106 40 2 5 8 12 17 0 2 5 8 12 17 0 3 6 3 6 18 23 30 40 50 63 77 91 106 40 50 63 77 91 106 40 50 63 77 91 106 40 50 63 77 91 106 40 3 6 0 3 6 0 1 4 7 11 16 0 2 5 8 12 17 0 3 6 0 3 6 3 6 18 23 30 40 3 6 3 6 18 23 30 40 50 63 77 91 106 40 50 63 77 91 106 40 56 69 83 232 258 12 17 63 50 63 77 91 106 40 50 63 77 91 106 40 2 5 8 12 17 0 3 6 3 6 18 23 30 40 50 63 77 91 106 40 94 109 192 219 246 273 293 321 349 3 6 0 3 6 3 6 18 23 30 40 94 109 1 4 63 7 113 132 280 308 336 219 246 273 293 321 349 1 4 7 11 16 0 3 6 0 1 4 7 11 16 0 3 6 0 3 6 3 6 18 23 30 40 50 63 77 91 106 40 94 109 1 4 63 7 113 132 280 308 336 382 409 11 16 63 50 63 77 91 106 40 50 63 77 91 106 40 56 69 2 5 63 8 113 132 280 308 336 2 5 8 12 17 0 2 5 8 12 17 0 2 5 8 12 17 0 2 5 8 12 17 0 2 5 8 12 17 0 1 4 7 11 16 0 3 6 0 1 4 7 11 16 0 2 5 8 12 17 0 2 5 8 1 4 7 11 16 0 2 5 8 12 17 0 2 5 8 12 17 0 3 6 3 6 18 23 30 40 94 109 1 4 63 7 113 132 280 308 336 219 246 273 293 321 91 280 308 349 653 668 3 6 3 6 18 23 30 40 50 63 77 91 106 40 56 69 83 232 258 285 94 109 1 4 63 7 113 132 280 308 336 382 409 11 16 63 50 63 77 91 106 40 56 69 2 5 63 8 113 132 3 6 3 6 18 23 30 40 56 69 83 97 113 132 154 179 206 233 259 286 314 342 83 232 258 285 94 109 192 382 409 11 16 63 50 63 77 1 4 7 11 16 0 2 5 8 12 17 0 1 4 7 11 16 0 2 5 8 12 17 0 3 6 0 2 5 8 12 17 0 3 6 0 1 4 7 11 16 0 3 6 0 3 6 0 3 6 3 6 18 23 30 40 94 109 192 2 5 8 12 17 0 1 4 7 11 16 0 3 6 3 6 18 23 30 40 56 69 2 5 63 8 113 132 154 179 206 233 259 286 3 6 0 3 6 3 6 18 23 30 40 50 63 77 91 106 40 56 69 83 232 258 285 56 69 2 5 63 8 113 132 2 5 8 12 17 0 1 4 7 11 16 0 1 4 7 11 16 0 1 4 7 11 16 0 2 5 8 12 17 0 3 6 0 1 4 7 11 16 0 3 6 0 2 5 8 12 17 0 2 5 8 12 17 0 3 6 0 1 4 7 11 16 0 2 5 8 12 17 0 3 6 0 3 6 3 6 18 23 30 40 94 109 1 4 63 7 113 132 293 321 349 376 77 91 280 308 280 308 336 219 246 273 293 321 91 280 308 349 653 668 1 4 7 11 16 0 3 6 0 1 4 7 11 16 0 1 4 7 11 16 0 1 4 7 11 16 0 1 4 7 11 16 0 3 6 0 3 6 0 3 6 0 2 5 8 2 5 8 12 17 0 2 5 8 12 17 0 2 5 8 12 17 0 3 6 0 3 6 0 1 4 7 11 16 0 2 5 8 12 17 0 1 4 7 11 16 0 1 4 7 1 4 7 11 16 0 1 4 7 11 16 0 2 5 8 12 17 0 1 4 7 11 16 0 1 4 7 11 16 0 1 4 7 11 16 0 1 4 7 3 6 0 2 5 8 12 17 0 3 6 0 1 4 7 11 16 0 3 6 0 2 5 8 12 17 0 3 6 0 3 6 0 1 4 7 11 16 0 1 4 7 11 16 0 3 6 0 2 5 8 12 17 0 2 5 8 12 17 0 1 4 7 11 16 0 1 4 7 11 16 0 1 4 7 11 16 0 1 4 7 11 16 0 1 4 7 11 16 0 1 4 7 11 16 0 1 4 7 11 16 0 3 6 3 6 18 23 30 40 94 109 1 4 63 7 113 132 280 308 336 219 246 273 293 321 91 280 308 349 653 668 682 695 708 720 731 280;
start->0
0 -> 3[label = "turn-doorknob-start( robot1 room1 room2 door1 grip)"]
0 -> 2[label = "pick-start( robot1 ball1 room1 grip)"]
0 -> 1[label = "pick-start( robot1 ball2 room1 grip)"]
1 -> 4[label = "pick-inv( robot1 ball2 room1 grip)"]
2 -> 5[label = "pick-inv( robot1 ball1 room1 grip)"]
258 -> 12[label = "move-start( robot1 room1 room2 door1)"]
258 -> 285[label = "drop-end( robot1 ball1 room1 grip)"]
3 -> 6[label = "turn-doorknob-inv( robot1 room1 room2 door1 grip)"]
259 -> 286[label = "pick-end( robot1 ball1 room2 grip)"]
4 -> 7[label = "pick-end( robot1 ball2 room1 grip)"]
4 -> 63[label = "move-inv( robot1 room1 room2 door1)"]
132 -> 154[label = "drop-start( robot1 ball1 room2 grip)"]
132 -> 293[label = "drop-start( robot1 ball2 room2 grip)"]
132 -> 280[label = "move-start( robot1 room2 room1 door1)"]
5 -> 8[label = "pick-end( robot1 ball1 room1 grip)"]
5 -> 63[label = "move-inv( robot1 room1 room2 door1)"]
6 -> 0[label = "turn-doorknob-end( robot1 room1 room2 door1 grip)"]
6 -> 3[label = "open-door-start( robot1 room1 room2 door1 grip)"]
6 -> 18[label = "open-door-inv( robot1 room1 room2 door1 grip)"]
7 -> 11[label = "drop-start( robot1 ball2 room1 grip)"]
7 -> 113[label = "move-inv( robot1 room1 room2 door1)"]
8 -> 12[label = "drop-start( robot1 ball1 room1 grip)"]
8 -> 113[label = "move-inv( robot1 room1 room2 door1)"]
11 -> 16[label = "drop-inv( robot1 ball2 room1 grip)"]
12 -> 17[label = "drop-inv( robot1 ball1 room1 grip)"]
653 -> 668[label = "move-end( robot1 room2 room1 door1)"]
16 -> 0[label = "drop-end( robot1 ball2 room1 grip)"]
16 -> 63[label = "move-inv( robot1 room1 room2 door1)"]
17 -> 0[label = "drop-end( robot1 ball1 room1 grip)"]
17 -> 63[label = "move-inv( robot1 room1 room2 door1)"]
273 -> 293[label = "drop-start( robot1 ball2 room2 grip)"]
273 -> 280[label = "move-start( robot1 room2 room1 door1)"]
18 -> 23[label = "open-door-end( robot1 room1 room2 door1 grip)"]
23 -> 30[label = "turn-doorknob-inv( robot1 room1 room2 door1 grip)"]
280 -> 308[label = "move-inv( robot1 room2 room1 door1)"]
409 -> 0[label = "drop-end( robot1 ball2 room1 grip)"]
409 -> 11[label = "move-start( robot1 room1 room2 door1)"]
154 -> 179[label = "drop-inv( robot1 ball1 room2 grip)"]
668 -> 682[label = "move-start( robot1 room1 room2 door1)"]
285 -> 56[label = "pick-start( robot1 ball1 room1 grip)"]
285 -> 94[label = "pick-start( robot1 ball2 room1 grip)"]
30 -> 40[label = "turn-doorknob-end( robot1 room1 room2 door1 grip)"]
286 -> 314[label = "move-start( robot1 room2 room1 door1)"]
293 -> 321[label = "drop-inv( robot1 ball2 room2 grip)"]
40 -> 50[label = "move-start( robot1 room1 room2 door1)"]
40 -> 56[label = "pick-start( robot1 ball1 room1 grip)"]
40 -> 94[label = "pick-start( robot1 ball2 room1 grip)"]
682 -> 695[label = "move-inv( robot1 room1 room2 door1)"]
50 -> 63[label = "move-inv( robot1 room1 room2 door1)"]
179 -> 206[label = "drop-end( robot1 ball1 room2 grip)"]
308 -> 280[label = "pick-end( robot1 ball2 room2 grip)"]
308 -> 336[label = "move-end( robot1 room2 room1 door1)"]
308 -> 349[label = "drop-end( robot1 ball2 room2 grip)"]
439 -> 466[label = "drop-inv( robot1 ball1 room1 grip)"]
695 -> 708[label = "move-end( robot1 room1 room2 door1)"]
56 -> 69[label = "pick-inv( robot1 ball1 room1 grip)"]
314 -> 342[label = "move-inv( robot1 room2 room1 door1)"]
63 -> 50[label = "drop-end( robot1 ball2 room1 grip)"]
63 -> 7[label = "pick-end( robot1 ball2 room1 grip)"]
63 -> 50[label = "drop-end( robot1 ball1 room1 grip)"]
63 -> 8[label = "pick-end( robot1 ball1 room1 grip)"]
63 -> 77[label = "move-end( robot1 room1 room2 door1)"]
192 -> 382[label = "drop-start( robot1 ball2 room1 grip)"]
192 -> 219[label = "move-start( robot1 room1 room2 door1)"]
321 -> 349[label = "drop-end( robot1 ball2 room2 grip)"]
321 -> 91[label = "move-start( robot1 room2 room1 door1)"]
708 -> 720[label = "pick-start( robot1 ball2 room2 grip)"]
69 -> 2[label = "move-start( robot1 room1 room2 door1)"]
69 -> 83[label = "pick-end( robot1 ball1 room1 grip)"]
77 -> 91[label = "move-start( robot1 room2 room1 door1)"]
206 -> 233[label = "pick-start( robot1 ball1 room2 grip)"]
336 -> 382[label = "drop-start( robot1 ball2 room1 grip)"]
336 -> 219[label = "move-start( robot1 room1 room2 door1)"]
336 -> 439[label = "drop-start( robot1 ball1 room1 grip)"]
720 -> 731[label = "pick-inv( robot1 ball2 room2 grip)"]
466 -> 12[label = "move-start( robot1 room1 room2 door1)"]
83 -> 97[label = "move-start( robot1 room1 room2 door1)"]
83 -> 232[label = "drop-start( robot1 ball1 room1 grip)"]
342 -> 83[label = "move-end( robot1 room2 room1 door1)"]
91 -> 280[label = "pick-inv( robot1 ball2 room2 grip)"]
91 -> 280[label = "drop-inv( robot1 ball2 room2 grip)"]
91 -> 106[label = "move-inv( robot1 room2 room1 door1)"]
219 -> 246[label = "move-inv( robot1 room1 room2 door1)"]
731 -> 280[label = "pick-end( robot1 ball2 room2 grip)"]
349 -> 376[label = "pick-start( robot1 ball2 room2 grip)"]
349 -> 653[label = "move-inv( robot1 room2 room1 door1)"]
94 -> 109[label = "pick-inv( robot1 ball2 room1 grip)"]
97 -> 113[label = "move-inv( robot1 room1 room2 door1)"]
232 -> 258[label = "drop-inv( robot1 ball1 room1 grip)"]
233 -> 259[label = "pick-inv( robot1 ball1 room2 grip)"]
106 -> 40[label = "move-end( robot1 room2 room1 door1)"]
109 -> 1[label = "move-start( robot1 room1 room2 door1)"]
109 -> 192[label = "pick-end( robot1 ball2 room1 grip)"]
113 -> 132[label = "move-end( robot1 room1 room2 door1)"]
246 -> 273[label = "move-end( robot1 room1 room2 door1)"]
376 -> 77[label = "pick-inv( robot1 ball2 room2 grip)"]
382 -> 409[label = "drop-inv( robot1 ball2 room1 grip)"]
}
