digraph fsa{
rankdir=LR
graph [bgcolor=white];
start [shape=none]
node [shape = doublecircle]; 0 1 4 1 4 17 23 29 39 49 63 79 96 113 133 153 176 79 221 207 241 18 69 334 358 380 200 223 245 462 207 241 63 113 207 526 545 600 609 617 12 18 0 2 5 8 12 18 0 2 5 8 12 18 0 1 4 0 1 4 1 4 17 23 29 39 51 65 3 6 69 9 155 178 343 366 450 1 4 1 4 17 23 29 39 51 65 3 6 69 9 155 178 200 223 245 268 291 39 49 63 2 5 69 8 69 85 216 238 102 153 176 200 223 245 55 69 85 642 238 102 153 176 153 176 79 96 113 133 153 176 79 2 5 8 12 18 0 2 5 8 12 18 0 3 6 9 13 19 0 1 4 1 4 17 23 29 39 51 65 3 6 69 9 155 178 200 223 245 268 291 39 55 69 85 3 6 9 13 19 0 1 4 1 4 17 23 29 39 55 69 85 102 120 39 55 69 85 2 5 8 12 18 0 1 4 0 2 5 8 12 18 0 3 6 9 13 19 0 2 5 8 12 18 0 2 5 8 12 18 0 1 4 0 1 4 0 2 5 8 12 18 0 1 4 1 4 17 23 29 39 49 63 79 96 113 133 363 385 153 1 4 1 4 17 23 29 39 55 69 85 102 120 39 49 63 79 221 207 241 18 69 334 358 380 200 223 245 55 69 85 102 120 39 1 4 0 1 4 1 4 17 23 29 39 55 69 85 102 120 39 55 69 85 102 120 39 49 63 2 5 69 8 69 85 216 238 102 153 176 200 223 245 55 69 85 3 6 9 13 19 0 1 4 1 4 17 23 29 39 51 65 207 2 5 8 12 18 0 1 4 1 4 17 23 29 39 51 65 3 6 69 9 155 178 343 366 102 153 176 450 469 488 507 526 545 564 579 593 343 366 102 153 176 450 469 488 2 5 8 1 4 1 4 17 23 29 39 51 65 3 6 69 9 155 178 200 223 245 268 291 39 55 69 85 2 5 8 12 18 0 2 5 8 12 18 0 2 5 8 12 18 0 2 5 8 12 18 0 1 4 1 4 17 23 29 39 55 69 85 102 120 39 55 69 85 102 120 39 55 69 85 102 120 39 51 65 207 1 4 0 3 6 9 13 19 0 2 5 8 12 18 0 2 5 8 12 18 0 3 6 9 13 19 0 3 6 9 13 19 0 1 4 0 1 4 0 2 5 8 12 18 0 1 4 0 3 6 9 13 19 0 1 4 1 4 17 23 29 39 3 6 9 13 19 0 2 5 8 12 18 0 3 6 9 13 19 0 2 5 8 12 18 0 2 5 8 2 5 8 12 18 0 1 4 0 1 4 0 3 6 9 13 19 0 3 6 9 13 19 0 2 5 8 12 18 0 1 4 0 1 4 0 2 5 8 12 18 0 2 5 8 12 18 0 2 5 8 12 18 0 2 5 8 12 18 0 3 6 9 13 19 0 2 5 8 12 18 0 3 6 9 13 19 0 2 5 8 12 18 0 2 5 8 12 18 0 2 5 8 12 18 0 1 4 0 1 4 0 1 4 0 2 5 8 12 18 0 2 5 8 12 18 0 3 6 9 13 19 0 3 6 9 13 19 0 3 6 9 1 4 1 4 17 23 29 39 49 63 2 5 69 8 69 85 216 238 102 153 176 200 223 245 396 207 241 6 69 9 155 178 200 223 245 3 6 9 13 19 0 1 4 1 4 17 23 29 39 51 65 3 6 69 9 155 178 343 366 102 153 176 450 469 488 507 526 545 564 579 593 3 6 9 13 19 0 3 6 9 13 19 0 3 6 9 13 19 0 1 4 1 4 17 23 29 39 51 65 207 241 155 178 343 366 450 564 579 593 343 366 450 3 6 9 13 19 0 1 4 1 4 17 23 29 39 51 65 3 6 69 9 155 178 200 223 245 268 291 39 49 63 79 96 113 133 153 176 79 1 4 1 4 17 23 29 39 55 69 85 102 120 39 51 65 207 241 155 178 3 6 9 13 19 0 1 4 0 1 4 1 4 17 23 29 39 49 63 79 96 113 133 3 6 9 13 19 0 1 4 1 4 17 23 29 39 51 65 3 6 69 9 155 178 3 6 9 13 19 0 1 4 1 4 17 23 29 39 55 69 85 102 120 39 49 63 79 96 113 133 363 385 102 153 176 200 223 245 3 6 9 13 19 0 3 6 9 13 19 0 3 6 9 13 19 0 3 6 9 13 19 0 3 6 9 13 19 0 3 6 9 13 19 0;
start->0
0 -> 1[label = "turn-doorknob-start( robot1 room1 room2 door1 grip)"]
0 -> 3[label = "pick-start( robot1 ball1 room1 grip)"]
0 -> 2[label = "pick-start( robot1 ball2 room1 grip)"]
1 -> 4[label = "turn-doorknob-inv( robot1 room1 room2 door1 grip)"]
385 -> 153[label = "drop-end( robot1 ball2 room2 grip)"]
385 -> 102[label = "move-start( robot1 room2 room1 door1)"]
2 -> 5[label = "pick-inv( robot1 ball2 room1 grip)"]
642 -> 238[label = "pick-inv( robot1 ball2 room2 grip)"]
3 -> 6[label = "pick-inv( robot1 ball1 room1 grip)"]
4 -> 0[label = "turn-doorknob-end( robot1 room1 room2 door1 grip)"]
4 -> 1[label = "open-door-start( robot1 room1 room2 door1 grip)"]
4 -> 17[label = "open-door-inv( robot1 room1 room2 door1 grip)"]
5 -> 8[label = "pick-end( robot1 ball2 room1 grip)"]
5 -> 69[label = "move-inv( robot1 room1 room2 door1)"]
133 -> 363[label = "drop-start( robot1 ball2 room2 grip)"]
133 -> 153[label = "move-start( robot1 room2 room1 door1)"]
6 -> 9[label = "pick-end( robot1 ball1 room1 grip)"]
6 -> 69[label = "move-inv( robot1 room1 room2 door1)"]
8 -> 12[label = "drop-start( robot1 ball2 room1 grip)"]
8 -> 69[label = "move-inv( robot1 room1 room2 door1)"]
9 -> 13[label = "drop-start( robot1 ball1 room1 grip)"]
9 -> 155[label = "move-inv( robot1 room1 room2 door1)"]
12 -> 18[label = "drop-inv( robot1 ball2 room1 grip)"]
268 -> 291[label = "drop-inv( robot1 ball1 room1 grip)"]
396 -> 207[label = "pick-inv( robot1 ball1 room1 grip)"]
13 -> 19[label = "drop-inv( robot1 ball1 room1 grip)"]
526 -> 545[label = "move-end( robot1 room1 room2 door1)"]
17 -> 23[label = "open-door-end( robot1 room1 room2 door1 grip)"]
18 -> 0[label = "drop-end( robot1 ball2 room1 grip)"]
18 -> 69[label = "move-inv( robot1 room1 room2 door1)"]
19 -> 0[label = "drop-end( robot1 ball1 room1 grip)"]
23 -> 29[label = "turn-doorknob-inv( robot1 room1 room2 door1 grip)"]
153 -> 176[label = "move-inv( robot1 room2 room1 door1)"]
155 -> 178[label = "move-end( robot1 room1 room2 door1)"]
29 -> 39[label = "turn-doorknob-end( robot1 room1 room2 door1 grip)"]
545 -> 564[label = "pick-start( robot1 ball1 room2 grip)"]
545 -> 600[label = "move-start( robot1 room2 room1 door1)"]
291 -> 39[label = "drop-end( robot1 ball1 room1 grip)"]
39 -> 55[label = "move-start( robot1 room1 room2 door1)"]
39 -> 51[label = "pick-start( robot1 ball1 room1 grip)"]
39 -> 49[label = "pick-start( robot1 ball2 room1 grip)"]
176 -> 153[label = "pick-end( robot1 ball2 room2 grip)"]
176 -> 79[label = "move-end( robot1 room2 room1 door1)"]
176 -> 200[label = "drop-end( robot1 ball2 room2 grip)"]
176 -> 450[label = "drop-end( robot1 ball1 room2 grip)"]
49 -> 63[label = "pick-inv( robot1 ball2 room1 grip)"]
178 -> 343[label = "drop-start( robot1 ball1 room2 grip)"]
178 -> 200[label = "move-start( robot1 room2 room1 door1)"]
51 -> 65[label = "pick-inv( robot1 ball1 room1 grip)"]
564 -> 579[label = "pick-inv( robot1 ball1 room2 grip)"]
55 -> 69[label = "move-inv( robot1 room1 room2 door1)"]
63 -> 79[label = "pick-end( robot1 ball2 room1 grip)"]
63 -> 2[label = "move-start( robot1 room1 room2 door1)"]
63 -> 113[label = "move-inv( robot1 room1 room2 door1)"]
65 -> 3[label = "move-start( robot1 room1 room2 door1)"]
65 -> 207[label = "pick-end( robot1 ball1 room1 grip)"]
450 -> 564[label = "pick-start( robot1 ball1 room2 grip)"]
450 -> 469[label = "move-inv( robot1 room2 room1 door1)"]
579 -> 593[label = "pick-end( robot1 ball1 room2 grip)"]
69 -> 334[label = "drop-end( robot1 ball2 room1 grip)"]
69 -> 8[label = "pick-end( robot1 ball2 room1 grip)"]
69 -> 9[label = "pick-end( robot1 ball1 room1 grip)"]
69 -> 85[label = "move-end( robot1 room1 room2 door1)"]
200 -> 223[label = "move-inv( robot1 room2 room1 door1)"]
334 -> 358[label = "move-inv( robot1 room1 room2 door1)"]
462 -> 207[label = "pick-inv( robot1 ball2 room1 grip)"]
79 -> 221[label = "drop-start( robot1 ball2 room1 grip)"]
79 -> 96[label = "move-start( robot1 room1 room2 door1)"]
207 -> 241[label = "move-start( robot1 room1 room2 door1)"]
207 -> 526[label = "move-inv( robot1 room1 room2 door1)"]
593 -> 343[label = "drop-start( robot1 ball1 room2 grip)"]
85 -> 642[label = "pick-start( robot1 ball2 room2 grip)"]
85 -> 216[label = "drop-start( robot1 ball2 room2 grip)"]
85 -> 102[label = "move-start( robot1 room2 room1 door1)"]
469 -> 488[label = "move-end( robot1 room2 room1 door1)"]
343 -> 366[label = "drop-inv( robot1 ball1 room2 grip)"]
216 -> 238[label = "drop-inv( robot1 ball2 room2 grip)"]
600 -> 609[label = "move-inv( robot1 room2 room1 door1)"]
221 -> 207[label = "drop-inv( robot1 ball2 room1 grip)"]
223 -> 245[label = "move-end( robot1 room2 room1 door1)"]
96 -> 113[label = "move-inv( robot1 room1 room2 door1)"]
609 -> 617[label = "move-end( robot1 room2 room1 door1)"]
102 -> 153[label = "pick-inv( robot1 ball2 room2 grip)"]
102 -> 153[label = "drop-inv( robot1 ball1 room2 grip)"]
102 -> 153[label = "drop-inv( robot1 ball2 room2 grip)"]
102 -> 120[label = "move-inv( robot1 room2 room1 door1)"]
358 -> 380[label = "move-end( robot1 room1 room2 door1)"]
488 -> 507[label = "move-start( robot1 room1 room2 door1)"]
488 -> 2[label = "pick-start( robot1 ball2 room1 grip)"]
617 -> 12[label = "drop-start( robot1 ball2 room1 grip)"]
363 -> 385[label = "drop-inv( robot1 ball2 room2 grip)"]
238 -> 102[label = "move-start( robot1 room2 room1 door1)"]
366 -> 102[label = "move-start( robot1 room2 room1 door1)"]
366 -> 450[label = "drop-end( robot1 ball1 room2 grip)"]
113 -> 207[label = "pick-end( robot1 ball2 room1 grip)"]
113 -> 133[label = "move-end( robot1 room1 room2 door1)"]
241 -> 18[label = "drop-inv( robot1 ball2 room1 grip)"]
241 -> 6[label = "pick-inv( robot1 ball1 room1 grip)"]
241 -> 155[label = "move-inv( robot1 room1 room2 door1)"]
241 -> 63[label = "pick-inv( robot1 ball2 room1 grip)"]
245 -> 268[label = "drop-start( robot1 ball1 room1 grip)"]
245 -> 55[label = "move-start( robot1 room1 room2 door1)"]
245 -> 396[label = "pick-start( robot1 ball1 room1 grip)"]
245 -> 462[label = "pick-start( robot1 ball2 room1 grip)"]
120 -> 39[label = "move-end( robot1 room2 room1 door1)"]
507 -> 526[label = "move-inv( robot1 room1 room2 door1)"]
380 -> 200[label = "move-start( robot1 room2 room1 door1)"]
}
