move-car-to-curb( car_01 car_00 curb_1)::move-curb-to-car( car_01 curb_1 car_00)::move-car-to-car( car_01 car_00 car_02)::move-car-to-car( car_01 car_02 car_00)::move-curb-to-curb( car_02 curb_2 curb_1)::move-car-to-car( car_01 car_00 car_02)::move-curb-to-curb( car_00 curb_0 curb_2)::move-car-to-curb( car_01 car_02 curb_0)::move-curb-to-car( car_00 curb_2 car_02)::move-car-to-car( car_00 car_02 car_01)::move-car-to-curb( car_00 car_01 curb_2)::move-curb-to-car( car_02 curb_1 car_01)::move-car-to-curb( car_02 car_01 curb_1)::move-curb-to-car( car_02 curb_1 car_01)
move-curb-to-curb( car_02 curb_2 curb_1)::move-curb-to-curb( car_02 curb_1 curb_2)::move-car-to-car( car_01 car_00 car_02)::move-car-to-curb( car_01 car_02 curb_1)
move-car-to-car( car_01 car_00 car_02)::move-curb-to-curb( car_00 curb_0 curb_1)::move-car-to-curb( car_01 car_02 curb_0)::move-curb-to-car( car_01 curb_0 car_00)::move-curb-to-curb( car_02 curb_2 curb_0)::move-curb-to-curb( car_02 curb_0 curb_2)::move-curb-to-curb( car_02 curb_2 curb_0)::move-car-to-curb( car_01 car_00 curb_2)::move-curb-to-car( car_01 curb_2 car_02)::move-car-to-curb( car_01 car_02 curb_2)::move-curb-to-car( car_00 curb_1 car_01)::move-car-to-curb( car_00 car_01 curb_1)::move-curb-to-car( car_01 curb_2 car_00)::move-curb-to-curb( car_02 curb_0 curb_2)
move-curb-to-curb( car_02 curb_2 curb_1)::move-car-to-car( car_01 car_00 car_02)::move-curb-to-curb( car_00 curb_0 curb_2)::move-car-to-car( car_01 car_02 car_00)::move-car-to-car( car_01 car_00 car_02)
move-car-to-curb( car_01 car_00 curb_1)
move-curb-to-curb( car_02 curb_2 curb_1)::move-car-to-curb( car_01 car_00 curb_2)::move-curb-to-car( car_01 curb_2 car_00)::move-car-to-car( car_01 car_00 car_02)::move-car-to-car( car_01 car_02 car_00)::move-car-to-car( car_01 car_00 car_02)::move-car-to-curb( car_01 car_02 curb_2)::move-curb-to-car( car_01 curb_2 car_00)::move-car-to-car( car_01 car_00 car_02)::move-car-to-curb( car_01 car_02 curb_2)::move-curb-to-car( car_02 curb_1 car_00)::move-car-to-curb( car_02 car_00 curb_1)::move-curb-to-car( car_01 curb_2 car_02)::move-curb-to-curb( car_00 curb_0 curb_2)::move-car-to-car( car_01 car_02 car_00)::move-curb-to-curb( car_02 curb_1 curb_0)::move-car-to-car( car_01 car_00 car_02)::move-curb-to-curb( car_00 curb_2 curb_1)::move-car-to-car( car_01 car_02 car_00)
move-car-to-curb( car_01 car_00 curb_1)::move-curb-to-car( car_02 curb_2 car_00)::move-car-to-curb( car_02 car_00 curb_2)::move-curb-to-car( car_01 curb_1 car_00)::move-car-to-car( car_01 car_00 car_02)
move-car-to-car( car_01 car_00 car_02)::move-car-to-car( car_01 car_02 car_00)::move-car-to-car( car_01 car_00 car_02)::move-car-to-curb( car_01 car_02 curb_1)::move-curb-to-car( car_02 curb_2 car_01)::move-car-to-car( car_02 car_01 car_00)::move-car-to-curb( car_02 car_00 curb_2)::move-curb-to-car( car_02 curb_2 car_00)::move-curb-to-curb( car_01 curb_1 curb_2)::move-car-to-car( car_02 car_00 car_01)::move-car-to-curb( car_02 car_01 curb_1)::move-curb-to-car( car_02 curb_1 car_00)::move-car-to-curb( car_02 car_00 curb_1)::move-curb-to-car( car_00 curb_0 car_02)::move-car-to-car( car_00 car_02 car_01)::move-car-to-car( car_00 car_01 car_02)::move-car-to-car( car_00 car_02 car_01)::move-car-to-curb( car_00 car_01 curb_0)::move-curb-to-car( car_02 curb_1 car_00)::move-car-to-curb( car_02 car_00 curb_1)
move-curb-to-curb( car_02 curb_2 curb_1)::move-car-to-car( car_01 car_00 car_02)::move-car-to-curb( car_01 car_02 curb_2)::move-curb-to-car( car_00 curb_0 car_02)::move-car-to-curb( car_00 car_02 curb_0)::move-curb-to-car( car_02 curb_1 car_00)::move-curb-to-curb( car_01 curb_2 curb_1)
move-car-to-car( car_01 car_00 car_02)::move-curb-to-curb( car_00 curb_0 curb_1)::move-car-to-car( car_01 car_02 car_00)::move-car-to-car( car_01 car_00 car_02)::move-curb-to-curb( car_00 curb_1 curb_0)::move-car-to-car( car_01 car_02 car_00)::move-curb-to-curb( car_02 curb_2 curb_1)::move-car-to-car( car_01 car_00 car_02)::move-car-to-curb( car_01 car_02 curb_2)::move-curb-to-car( car_00 curb_0 car_01)::move-car-to-car( car_00 car_01 car_02)::move-car-to-car( car_00 car_02 car_01)::move-car-to-curb( car_00 car_01 curb_0)
move-curb-to-curb( car_02 curb_2 curb_1)::move-car-to-curb( car_01 car_00 curb_2)::move-curb-to-car( car_01 curb_2 car_00)::move-car-to-curb( car_01 car_00 curb_2)::move-curb-to-car( car_02 curb_1 car_01)::move-car-to-car( car_02 car_01 car_00)::move-curb-to-curb( car_01 curb_2 curb_1)::move-car-to-car( car_02 car_00 car_01)::move-curb-to-curb( car_00 curb_0 curb_2)::move-car-to-car( car_02 car_01 car_00)::move-car-to-car( car_02 car_00 car_01)::move-car-to-curb( car_02 car_01 curb_0)::move-curb-to-car( car_01 curb_1 car_00)::move-car-to-car( car_01 car_00 car_02)::move-curb-to-curb( car_00 curb_2 curb_1)::move-car-to-curb( car_01 car_02 curb_2)::move-curb-to-car( car_01 curb_2 car_00)
move-curb-to-curb( car_02 curb_2 curb_1)::move-car-to-car( car_01 car_00 car_02)::move-car-to-car( car_01 car_02 car_00)::move-car-to-curb( car_01 car_00 curb_2)::move-curb-to-car( car_01 curb_2 car_02)::move-car-to-curb( car_01 car_02 curb_2)::move-curb-to-car( car_01 curb_2 car_02)::move-curb-to-curb( car_00 curb_0 curb_2)::move-car-to-car( car_01 car_02 car_00)::move-car-to-curb( car_01 car_00 curb_0)::move-curb-to-car( car_01 curb_0 car_00)::move-car-to-car( car_01 car_00 car_02)::move-curb-to-curb( car_00 curb_2 curb_0)
move-car-to-car( car_01 car_00 car_02)::move-car-to-car( car_01 car_02 car_00)::move-car-to-curb( car_01 car_00 curb_1)::move-curb-to-car( car_02 curb_2 car_01)::move-car-to-curb( car_02 car_01 curb_2)::move-curb-to-car( car_00 curb_0 car_01)::move-car-to-curb( car_00 car_01 curb_0)::move-curb-to-car( car_00 curb_0 car_01)::move-curb-to-curb( car_02 curb_2 curb_0)::move-car-to-curb( car_00 car_01 curb_2)::move-curb-to-car( car_01 curb_1 car_02)::move-curb-to-curb( car_00 curb_2 curb_1)::move-car-to-curb( car_01 car_02 curb_2)::move-curb-to-car( car_02 curb_0 car_00)::move-curb-to-curb( car_01 curb_2 curb_0)::move-car-to-car( car_02 car_00 car_01)
move-curb-to-curb( car_02 curb_2 curb_1)::move-car-to-car( car_01 car_00 car_02)::move-car-to-curb( car_01 car_02 curb_2)::move-curb-to-car( car_02 curb_1 car_01)::move-car-to-car( car_02 car_01 car_00)::move-car-to-car( car_02 car_00 car_01)::move-curb-to-curb( car_00 curb_0 curb_1)::move-car-to-curb( car_02 car_01 curb_0)::move-curb-to-car( car_01 curb_2 car_00)::move-car-to-curb( car_01 car_00 curb_2)::move-curb-to-car( car_01 curb_2 car_00)::move-car-to-car( car_01 car_00 car_02)::move-car-to-curb( car_01 car_02 curb_2)::move-curb-to-car( car_01 curb_2 car_00)::move-curb-to-curb( car_02 curb_0 curb_2)::move-curb-to-curb( car_02 curb_2 curb_0)
move-curb-to-curb( car_02 curb_2 curb_1)::move-curb-to-curb( car_02 curb_1 curb_2)::move-curb-to-curb( car_02 curb_2 curb_1)::move-car-to-curb( car_01 car_00 curb_2)::move-curb-to-car( car_00 curb_0 car_01)::move-car-to-curb( car_00 car_01 curb_0)::move-curb-to-car( car_01 curb_2 car_02)::move-car-to-curb( car_01 car_02 curb_2)::move-curb-to-car( car_00 curb_0 car_02)
move-car-to-curb( car_01 car_00 curb_1)::move-curb-to-car( car_02 curb_2 car_00)::move-car-to-car( car_02 car_00 car_01)::move-car-to-car( car_02 car_01 car_00)
move-car-to-curb( car_01 car_00 curb_1)::move-curb-to-car( car_02 curb_2 car_00)::move-car-to-car( car_02 car_00 car_01)::move-car-to-curb( car_02 car_01 curb_2)::move-curb-to-car( car_00 curb_0 car_02)::move-curb-to-curb( car_01 curb_1 curb_0)::move-car-to-curb( car_00 car_02 curb_1)::move-curb-to-car( car_00 curb_1 car_02)::move-curb-to-curb( car_01 curb_0 curb_1)::move-curb-to-curb( car_01 curb_1 curb_0)::move-curb-to-curb( car_01 curb_0 curb_1)::move-car-to-car( car_00 car_02 car_01)::move-car-to-curb( car_00 car_01 curb_0)::move-curb-to-car( car_00 curb_0 car_01)::move-curb-to-curb( car_02 curb_2 curb_0)::move-car-to-car( car_00 car_01 car_02)::move-curb-to-curb( car_01 curb_1 curb_2)::move-car-to-curb( car_00 car_02 curb_1)::move-curb-to-car( car_00 curb_1 car_02)
move-curb-to-curb( car_02 curb_2 curb_1)::move-car-to-car( car_01 car_00 car_02)::move-curb-to-curb( car_00 curb_0 curb_2)
move-car-to-car( car_01 car_00 car_02)::move-car-to-curb( car_01 car_02 curb_1)::move-curb-to-car( car_01 curb_1 car_02)::move-car-to-car( car_01 car_02 car_00)::move-curb-to-curb( car_02 curb_2 curb_1)
move-curb-to-curb( car_02 curb_2 curb_1)::move-car-to-car( car_01 car_00 car_02)::move-car-to-car( car_01 car_02 car_00)::move-car-to-curb( car_01 car_00 curb_2)::move-curb-to-car( car_00 curb_0 car_01)::move-curb-to-curb( car_02 curb_1 curb_0)
move-curb-to-curb( car_02 curb_2 curb_1)::move-car-to-curb( car_01 car_00 curb_2)::move-curb-to-car( car_02 curb_1 car_01)::move-curb-to-curb( car_00 curb_0 curb_1)::move-car-to-car( car_02 car_01 car_00)::move-car-to-curb( car_02 car_00 curb_0)::move-curb-to-car( car_02 curb_0 car_00)::move-curb-to-curb( car_01 curb_2 curb_0)::move-curb-to-curb( car_01 curb_0 curb_2)::move-curb-to-curb( car_01 curb_2 curb_0)
move-curb-to-curb( car_02 curb_2 curb_1)::move-car-to-car( car_01 car_00 car_02)::move-car-to-curb( car_01 car_02 curb_2)::move-curb-to-car( car_00 curb_0 car_02)::move-car-to-curb( car_00 car_02 curb_0)::move-curb-to-car( car_01 curb_2 car_02)::move-car-to-car( car_01 car_02 car_00)::move-car-to-car( car_01 car_00 car_02)::move-car-to-curb( car_01 car_02 curb_2)::move-curb-to-car( car_02 curb_1 car_01)::move-car-to-car( car_02 car_01 car_00)::move-car-to-car( car_02 car_00 car_01)::move-car-to-curb( car_02 car_01 curb_1)::move-curb-to-car( car_00 curb_0 car_01)
move-curb-to-curb( car_02 curb_2 curb_1)::move-car-to-curb( car_01 car_00 curb_2)::move-curb-to-car( car_01 curb_2 car_02)
move-car-to-curb( car_01 car_00 curb_1)::move-curb-to-car( car_00 curb_0 car_01)::move-car-to-car( car_00 car_01 car_02)::move-curb-to-curb( car_01 curb_1 curb_0)::move-car-to-curb( car_00 car_02 curb_1)::move-curb-to-car( car_00 curb_1 car_02)
move-car-to-car( car_01 car_00 car_02)::move-curb-to-curb( car_00 curb_0 curb_1)::move-curb-to-curb( car_00 curb_1 curb_0)
move-car-to-car( car_01 car_00 car_02)::move-curb-to-curb( car_00 curb_0 curb_1)::move-car-to-curb( car_01 car_02 curb_0)::move-curb-to-car( car_00 curb_1 car_01)::move-curb-to-curb( car_02 curb_2 curb_1)::move-car-to-curb( car_00 car_01 curb_2)::move-curb-to-car( car_02 curb_1 car_01)::move-car-to-car( car_02 car_01 car_00)::move-car-to-curb( car_02 car_00 curb_1)::move-curb-to-car( car_01 curb_0 car_02)::move-car-to-car( car_01 car_02 car_00)::move-car-to-curb( car_01 car_00 curb_0)::move-curb-to-car( car_01 curb_0 car_02)::move-car-to-curb( car_01 car_02 curb_0)::move-curb-to-car( car_01 curb_0 car_02)::move-car-to-curb( car_01 car_02 curb_0)
move-curb-to-curb( car_02 curb_2 curb_1)::move-curb-to-curb( car_02 curb_1 curb_2)::move-car-to-curb( car_01 car_00 curb_1)::move-curb-to-car( car_02 curb_2 car_01)::move-curb-to-curb( car_00 curb_0 curb_2)::move-car-to-curb( car_02 car_01 curb_0)::move-curb-to-car( car_02 curb_0 car_01)::move-car-to-car( car_02 car_01 car_00)::move-curb-to-curb( car_01 curb_1 curb_0)::move-car-to-curb( car_02 car_00 curb_1)::move-curb-to-car( car_01 curb_0 car_00)::move-car-to-curb( car_01 car_00 curb_0)::move-curb-to-car( car_01 curb_0 car_02)::move-curb-to-curb( car_00 curb_2 curb_0)::move-car-to-car( car_01 car_02 car_00)
move-car-to-car( car_01 car_00 car_02)::move-car-to-curb( car_01 car_02 curb_1)
move-curb-to-curb( car_02 curb_2 curb_1)::move-car-to-curb( car_01 car_00 curb_2)::move-curb-to-car( car_01 curb_2 car_02)::move-car-to-car( car_01 car_02 car_00)::move-car-to-curb( car_01 car_00 curb_2)::move-curb-to-car( car_02 curb_1 car_00)::move-curb-to-curb( car_01 curb_2 curb_1)::move-car-to-curb( car_02 car_00 curb_2)::move-curb-to-car( car_02 curb_2 car_01)::move-curb-to-curb( car_00 curb_0 curb_2)::move-car-to-car( car_02 car_01 car_00)::move-curb-to-curb( car_01 curb_1 curb_0)::move-car-to-car( car_02 car_00 car_01)::move-car-to-car( car_02 car_01 car_00)
move-car-to-curb( car_01 car_00 curb_1)::move-curb-to-car( car_02 curb_2 car_01)::move-car-to-curb( car_02 car_01 curb_2)::move-curb-to-car( car_02 curb_2 car_01)::move-car-to-curb( car_02 car_01 curb_2)::move-curb-to-car( car_01 curb_1 car_00)::move-car-to-curb( car_01 car_00 curb_1)::move-curb-to-car( car_01 curb_1 car_02)::move-car-to-curb( car_01 car_02 curb_1)::move-curb-to-car( car_02 curb_2 car_01)::move-car-to-car( car_02 car_01 car_00)::move-curb-to-curb( car_01 curb_1 curb_2)::move-car-to-car( car_02 car_00 car_01)::move-curb-to-curb( car_00 curb_0 curb_1)::move-car-to-curb( car_02 car_01 curb_0)::move-curb-to-car( car_00 curb_1 car_01)::move-curb-to-curb( car_02 curb_0 curb_1)::move-car-to-curb( car_00 car_01 curb_0)::move-curb-to-car( car_02 curb_1 car_01)
move-car-to-car( car_01 car_00 car_02)::move-car-to-car( car_01 car_02 car_00)::move-car-to-car( car_01 car_00 car_02)::move-car-to-curb( car_01 car_02 curb_1)::move-curb-to-car( car_00 curb_0 car_02)::move-car-to-car( car_00 car_02 car_01)::move-curb-to-curb( car_02 curb_2 curb_0)::move-curb-to-curb( car_02 curb_0 curb_2)::move-car-to-car( car_00 car_01 car_02)::move-curb-to-curb( car_01 curb_1 curb_0)::move-car-to-car( car_00 car_02 car_01)::move-car-to-curb( car_00 car_01 curb_1)::move-curb-to-car( car_00 curb_1 car_01)::move-car-to-curb( car_00 car_01 curb_1)::move-curb-to-car( car_02 curb_2 car_00)::move-car-to-car( car_02 car_00 car_01)::move-car-to-curb( car_02 car_01 curb_2)
move-car-to-car( car_01 car_00 car_02)::move-curb-to-curb( car_00 curb_0 curb_1)::move-car-to-curb( car_01 car_02 curb_0)::move-curb-to-car( car_01 curb_0 car_00)::move-car-to-curb( car_01 car_00 curb_0)::move-curb-to-car( car_02 curb_2 car_01)::move-car-to-car( car_02 car_01 car_00)::move-car-to-car( car_02 car_00 car_01)::move-car-to-curb( car_02 car_01 curb_2)::move-curb-to-car( car_01 curb_0 car_02)::move-car-to-curb( car_01 car_02 curb_0)::move-curb-to-car( car_01 curb_0 car_02)
move-car-to-car( car_01 car_00 car_02)::move-car-to-car( car_01 car_02 car_00)::move-curb-to-curb( car_02 curb_2 curb_1)::move-car-to-car( car_01 car_00 car_02)::move-curb-to-curb( car_00 curb_0 curb_2)::move-car-to-curb( car_01 car_02 curb_0)::move-curb-to-car( car_00 curb_2 car_01)::move-car-to-car( car_00 car_01 car_02)
move-car-to-curb( car_01 car_00 curb_1)::move-curb-to-car( car_00 curb_0 car_01)
move-car-to-car( car_01 car_00 car_02)::move-car-to-curb( car_01 car_02 curb_1)::move-curb-to-car( car_00 curb_0 car_02)::move-car-to-car( car_00 car_02 car_01)::move-curb-to-curb( car_02 curb_2 curb_0)::move-car-to-car( car_00 car_01 car_02)::move-car-to-curb( car_00 car_02 curb_2)::move-curb-to-car( car_01 curb_1 car_02)::move-car-to-car( car_01 car_02 car_00)::move-car-to-curb( car_01 car_00 curb_1)
move-car-to-curb( car_01 car_00 curb_1)::move-curb-to-car( car_00 curb_0 car_02)::move-car-to-curb( car_00 car_02 curb_0)::move-curb-to-car( car_00 curb_0 car_01)::move-curb-to-curb( car_02 curb_2 curb_0)
move-car-to-curb( car_01 car_00 curb_1)::move-curb-to-car( car_02 curb_2 car_00)::move-car-to-car( car_02 car_00 car_01)::move-curb-to-curb( car_00 curb_0 curb_2)::move-curb-to-curb( car_00 curb_2 curb_0)::move-car-to-curb( car_02 car_01 curb_2)::move-curb-to-car( car_02 curb_2 car_01)::move-car-to-curb( car_02 car_01 curb_2)
move-car-to-curb( car_01 car_00 curb_1)::move-curb-to-car( car_01 curb_1 car_00)::move-curb-to-curb( car_02 curb_2 curb_1)::move-car-to-car( car_01 car_00 car_02)::move-car-to-curb( car_01 car_02 curb_2)::move-curb-to-car( car_01 curb_2 car_00)::move-curb-to-curb( car_02 curb_1 curb_2)::move-car-to-car( car_01 car_00 car_02)::move-curb-to-curb( car_00 curb_0 curb_1)::move-car-to-car( car_01 car_02 car_00)::move-car-to-curb( car_01 car_00 curb_0)::move-curb-to-car( car_01 curb_0 car_00)::move-car-to-curb( car_01 car_00 curb_0)::move-curb-to-car( car_00 curb_1 car_01)::move-car-to-car( car_00 car_01 car_02)
move-curb-to-curb( car_02 curb_2 curb_1)::move-curb-to-curb( car_02 curb_1 curb_2)::move-car-to-car( car_01 car_00 car_02)::move-car-to-curb( car_01 car_02 curb_1)::move-curb-to-car( car_02 curb_2 car_01)::move-car-to-car( car_02 car_01 car_00)::move-car-to-curb( car_02 car_00 curb_2)::move-curb-to-car( car_02 curb_2 car_00)::move-curb-to-curb( car_01 curb_1 curb_2)::move-car-to-car( car_02 car_00 car_01)::move-car-to-car( car_02 car_01 car_00)::move-car-to-curb( car_02 car_00 curb_1)::move-curb-to-car( car_01 curb_2 car_02)::move-car-to-car( car_01 car_02 car_00)::move-car-to-curb( car_01 car_00 curb_2)::move-curb-to-car( car_00 curb_0 car_01)::move-curb-to-curb( car_02 curb_1 curb_0)::move-curb-to-curb( car_02 curb_0 curb_1)
move-car-to-car( car_01 car_00 car_02)::move-curb-to-curb( car_00 curb_0 curb_1)::move-curb-to-curb( car_00 curb_1 curb_0)::move-curb-to-curb( car_00 curb_0 curb_1)::move-car-to-curb( car_01 car_02 curb_0)::move-curb-to-car( car_00 curb_1 car_01)::move-car-to-curb( car_00 car_01 curb_1)::move-curb-to-car( car_01 curb_0 car_02)::move-curb-to-curb( car_00 curb_1 curb_0)::move-car-to-car( car_01 car_02 car_00)
move-car-to-curb( car_01 car_00 curb_1)::move-curb-to-car( car_01 curb_1 car_00)::move-car-to-curb( car_01 car_00 curb_1)::move-curb-to-car( car_02 curb_2 car_00)::move-car-to-curb( car_02 car_00 curb_2)::move-curb-to-car( car_00 curb_0 car_02)::move-car-to-curb( car_00 car_02 curb_0)::move-curb-to-car( car_00 curb_0 car_01)::move-curb-to-curb( car_02 curb_2 curb_0)::move-car-to-curb( car_00 car_01 curb_2)::move-curb-to-car( car_02 curb_0 car_00)::move-curb-to-curb( car_01 curb_1 curb_0)::move-car-to-car( car_02 car_00 car_01)::move-curb-to-curb( car_00 curb_2 curb_1)::move-car-to-curb( car_02 car_01 curb_2)::move-curb-to-car( car_01 curb_0 car_02)::move-car-to-curb( car_01 car_02 curb_0)::move-curb-to-car( car_01 curb_0 car_00)
move-car-to-car( car_01 car_00 car_02)::move-car-to-car( car_01 car_02 car_00)::move-car-to-curb( car_01 car_00 curb_1)::move-curb-to-car( car_01 curb_1 car_00)::move-car-to-curb( car_01 car_00 curb_1)::move-curb-to-car( car_01 curb_1 car_02)::move-car-to-curb( car_01 car_02 curb_1)::move-curb-to-car( car_02 curb_2 car_00)::move-car-to-car( car_02 car_00 car_01)::move-car-to-curb( car_02 car_01 curb_2)::move-curb-to-car( car_01 curb_1 car_00)::move-curb-to-curb( car_02 curb_2 curb_1)::move-curb-to-curb( car_02 curb_1 curb_2)::move-car-to-curb( car_01 car_00 curb_1)
move-car-to-car( car_01 car_00 car_02)::move-car-to-curb( car_01 car_02 curb_1)::move-curb-to-car( car_02 curb_2 car_01)::move-car-to-curb( car_02 car_01 curb_2)::move-curb-to-car( car_00 curb_0 car_02)::move-car-to-car( car_00 car_02 car_01)::move-car-to-car( car_00 car_01 car_02)::move-car-to-curb( car_00 car_02 curb_0)::move-curb-to-car( car_01 curb_1 car_00)::move-curb-to-curb( car_02 curb_2 curb_1)::move-curb-to-curb( car_02 curb_1 curb_2)::move-curb-to-curb( car_02 curb_2 curb_1)::move-curb-to-curb( car_02 curb_1 curb_2)::move-curb-to-curb( car_02 curb_2 curb_1)::move-car-to-curb( car_01 car_00 curb_2)
move-curb-to-curb( car_02 curb_2 curb_1)::move-curb-to-curb( car_02 curb_1 curb_2)::move-car-to-curb( car_01 car_00 curb_1)::move-curb-to-car( car_01 curb_1 car_00)::move-car-to-curb( car_01 car_00 curb_1)::move-curb-to-car( car_02 curb_2 car_01)::move-car-to-curb( car_02 car_01 curb_2)
move-curb-to-curb( car_02 curb_2 curb_1)::move-car-to-curb( car_01 car_00 curb_2)::move-curb-to-car( car_00 curb_0 car_01)::move-car-to-curb( car_00 car_01 curb_0)::move-curb-to-car( car_00 curb_0 car_02)::move-curb-to-curb( car_01 curb_2 curb_0)
move-curb-to-curb( car_02 curb_2 curb_1)::move-car-to-car( car_01 car_00 car_02)
move-car-to-car( car_01 car_00 car_02)::move-car-to-car( car_01 car_02 car_00)::move-car-to-car( car_01 car_00 car_02)::move-curb-to-curb( car_00 curb_0 curb_1)::move-car-to-car( car_01 car_02 car_00)::move-car-to-car( car_01 car_00 car_02)::move-car-to-curb( car_01 car_02 curb_0)::move-curb-to-car( car_02 curb_2 car_01)::move-curb-to-curb( car_00 curb_1 curb_2)::move-car-to-curb( car_02 car_01 curb_1)
move-curb-to-curb( car_02 curb_2 curb_1)::move-car-to-car( car_01 car_00 car_02)
move-curb-to-curb( car_02 curb_2 curb_1)::move-car-to-curb( car_01 car_00 curb_2)::move-curb-to-car( car_01 curb_2 car_00)::move-car-to-car( car_01 car_00 car_02)
move-car-to-curb( car_01 car_00 curb_1)::move-curb-to-car( car_01 curb_1 car_02)::move-car-to-curb( car_01 car_02 curb_1)::move-curb-to-car( car_00 curb_0 car_01)::move-car-to-curb( car_00 car_01 curb_0)::move-curb-to-car( car_00 curb_0 car_01)::move-car-to-curb( car_00 car_01 curb_0)::move-curb-to-car( car_01 curb_1 car_02)::move-curb-to-curb( car_00 curb_0 curb_1)::move-car-to-car( car_01 car_02 car_00)::move-car-to-curb( car_01 car_00 curb_0)::move-curb-to-car( car_00 curb_1 car_01)::move-curb-to-curb( car_02 curb_2 curb_1)
move-curb-to-curb( car_02 curb_2 curb_1)::move-curb-to-curb( car_02 curb_1 curb_2)::move-curb-to-curb( car_02 curb_2 curb_1)::move-car-to-car( car_01 car_00 car_02)::move-car-to-curb( car_01 car_02 curb_2)::move-curb-to-car( car_01 curb_2 car_00)::move-car-to-car( car_01 car_00 car_02)::move-car-to-curb( car_01 car_02 curb_2)::move-curb-to-car( car_01 curb_2 car_02)::move-car-to-curb( car_01 car_02 curb_2)::move-curb-to-car( car_00 curb_0 car_01)::move-curb-to-curb( car_02 curb_1 curb_0)
move-car-to-curb( car_01 car_00 curb_1)::move-curb-to-car( car_01 curb_1 car_02)::move-car-to-car( car_01 car_02 car_00)::move-car-to-car( car_01 car_00 car_02)
move-curb-to-curb( car_02 curb_2 curb_1)::move-curb-to-curb( car_02 curb_1 curb_2)::move-car-to-curb( car_01 car_00 curb_1)::move-curb-to-car( car_00 curb_0 car_01)::move-car-to-car( car_00 car_01 car_02)::move-car-to-car( car_00 car_02 car_01)::move-car-to-car( car_00 car_01 car_02)
move-car-to-car( car_01 car_00 car_02)::move-curb-to-curb( car_00 curb_0 curb_1)::move-car-to-car( car_01 car_02 car_00)::move-curb-to-curb( car_02 curb_2 curb_0)::move-car-to-car( car_01 car_00 car_02)::move-car-to-car( car_01 car_02 car_00)::move-curb-to-curb( car_02 curb_0 curb_2)::move-car-to-car( car_01 car_00 car_02)::move-curb-to-curb( car_00 curb_1 curb_0)::move-car-to-curb( car_01 car_02 curb_1)::move-curb-to-car( car_02 curb_2 car_00)::move-car-to-curb( car_02 car_00 curb_2)::move-curb-to-car( car_00 curb_0 car_02)::move-car-to-car( car_00 car_02 car_01)::move-curb-to-curb( car_02 curb_2 curb_0)::move-curb-to-curb( car_02 curb_0 curb_2)::move-curb-to-curb( car_02 curb_2 curb_0)::move-car-to-curb( car_00 car_01 curb_2)::move-curb-to-car( car_02 curb_0 car_00)
move-car-to-curb( car_01 car_00 curb_1)::move-curb-to-car( car_02 curb_2 car_00)::move-curb-to-curb( car_01 curb_1 curb_2)::move-curb-to-curb( car_01 curb_2 curb_1)::move-car-to-curb( car_02 car_00 curb_2)::move-curb-to-car( car_01 curb_1 car_02)
move-curb-to-curb( car_02 curb_2 curb_1)::move-car-to-car( car_01 car_00 car_02)::move-car-to-car( car_01 car_02 car_00)::move-curb-to-curb( car_02 curb_1 curb_2)::move-curb-to-curb( car_02 curb_2 curb_1)::move-curb-to-curb( car_02 curb_1 curb_2)
move-car-to-curb( car_01 car_00 curb_1)::move-curb-to-car( car_01 curb_1 car_02)::move-car-to-car( car_01 car_02 car_00)::move-car-to-curb( car_01 car_00 curb_1)::move-curb-to-car( car_02 curb_2 car_01)::move-car-to-car( car_02 car_01 car_00)::move-curb-to-curb( car_01 curb_1 curb_2)::move-curb-to-curb( car_01 curb_2 curb_1)::move-car-to-curb( car_02 car_00 curb_2)::move-curb-to-car( car_00 curb_0 car_01)::move-car-to-curb( car_00 car_01 curb_0)::move-curb-to-car( car_02 curb_2 car_00)::move-curb-to-curb( car_01 curb_1 curb_2)::move-curb-to-curb( car_01 curb_2 curb_1)::move-curb-to-curb( car_01 curb_1 curb_2)::move-curb-to-curb( car_01 curb_2 curb_1)
move-car-to-car( car_01 car_00 car_02)::move-car-to-curb( car_01 car_02 curb_1)::move-curb-to-car( car_00 curb_0 car_02)::move-car-to-curb( car_00 car_02 curb_0)::move-curb-to-car( car_02 curb_2 car_00)::move-car-to-car( car_02 car_00 car_01)::move-car-to-curb( car_02 car_01 curb_2)::move-curb-to-car( car_00 curb_0 car_02)::move-car-to-car( car_00 car_02 car_01)::move-curb-to-curb( car_02 curb_2 curb_0)::move-car-to-car( car_00 car_01 car_02)::move-curb-to-curb( car_01 curb_1 curb_2)::move-curb-to-curb( car_01 curb_2 curb_1)::move-curb-to-curb( car_01 curb_1 curb_2)::move-curb-to-curb( car_01 curb_2 curb_1)::move-car-to-curb( car_00 car_02 curb_2)::move-curb-to-car( car_00 curb_2 car_02)
move-car-to-curb( car_01 car_00 curb_1)::move-curb-to-car( car_00 curb_0 car_01)::move-car-to-curb( car_00 car_01 curb_0)::move-curb-to-car( car_02 curb_2 car_01)::move-curb-to-curb( car_00 curb_0 curb_2)::move-car-to-curb( car_02 car_01 curb_0)::move-curb-to-car( car_02 curb_0 car_00)::move-car-to-car( car_02 car_00 car_01)::move-curb-to-curb( car_00 curb_2 curb_0)::move-car-to-curb( car_02 car_01 curb_2)::move-curb-to-car( car_01 curb_1 car_00)::move-car-to-car( car_01 car_00 car_02)::move-car-to-curb( car_01 car_02 curb_1)::move-curb-to-car( car_00 curb_0 car_01)
move-car-to-car( car_01 car_00 car_02)::move-curb-to-curb( car_00 curb_0 curb_1)::move-car-to-car( car_01 car_02 car_00)::move-car-to-car( car_01 car_00 car_02)::move-car-to-car( car_01 car_02 car_00)::move-curb-to-curb( car_02 curb_2 curb_0)::move-car-to-curb( car_01 car_00 curb_2)::move-curb-to-car( car_00 curb_1 car_01)::move-curb-to-curb( car_02 curb_0 curb_1)::move-curb-to-curb( car_02 curb_1 curb_0)::move-car-to-car( car_00 car_01 car_02)::move-curb-to-curb( car_01 curb_2 curb_1)::move-car-to-curb( car_00 car_02 curb_2)::move-curb-to-car( car_00 curb_2 car_02)
move-curb-to-curb( car_02 curb_2 curb_1)::move-curb-to-curb( car_02 curb_1 curb_2)::move-car-to-car( car_01 car_00 car_02)::move-curb-to-curb( car_00 curb_0 curb_1)::move-car-to-curb( car_01 car_02 curb_0)::move-curb-to-car( car_00 curb_1 car_01)::move-car-to-curb( car_00 car_01 curb_1)::move-curb-to-car( car_02 curb_2 car_00)::move-car-to-curb( car_02 car_00 curb_2)::move-curb-to-car( car_02 curb_2 car_01)::move-car-to-car( car_02 car_01 car_00)::move-car-to-car( car_02 car_00 car_01)::move-car-to-curb( car_02 car_01 curb_2)::move-curb-to-car( car_02 curb_2 car_01)::move-curb-to-curb( car_00 curb_1 curb_2)::move-curb-to-curb( car_00 curb_2 curb_1)::move-car-to-car( car_02 car_01 car_00)::move-car-to-curb( car_02 car_00 curb_2)::move-curb-to-car( car_00 curb_1 car_01)::move-car-to-curb( car_00 car_01 curb_1)
move-car-to-curb( car_01 car_00 curb_1)::move-curb-to-car( car_01 curb_1 car_00)::move-car-to-curb( car_01 car_00 curb_1)
move-car-to-car( car_01 car_00 car_02)::move-car-to-car( car_01 car_02 car_00)::move-curb-to-curb( car_02 curb_2 curb_1)::move-curb-to-curb( car_02 curb_1 curb_2)::move-car-to-car( car_01 car_00 car_02)::move-curb-to-curb( car_00 curb_0 curb_1)::move-curb-to-curb( car_00 curb_1 curb_0)::move-curb-to-curb( car_00 curb_0 curb_1)::move-car-to-curb( car_01 car_02 curb_0)
move-car-to-curb( car_01 car_00 curb_1)::move-curb-to-car( car_01 curb_1 car_02)::move-curb-to-curb( car_00 curb_0 curb_1)::move-car-to-car( car_01 car_02 car_00)::move-car-to-curb( car_01 car_00 curb_0)::move-curb-to-car( car_01 curb_0 car_00)::move-car-to-car( car_01 car_00 car_02)::move-car-to-car( car_01 car_02 car_00)::move-car-to-curb( car_01 car_00 curb_0)::move-curb-to-car( car_00 curb_1 car_01)::move-curb-to-curb( car_02 curb_2 curb_1)::move-car-to-car( car_00 car_01 car_02)
move-car-to-curb( car_01 car_00 curb_1)::move-curb-to-car( car_02 curb_2 car_00)::move-car-to-car( car_02 car_00 car_01)::move-car-to-car( car_02 car_01 car_00)::move-car-to-curb( car_02 car_00 curb_2)::move-curb-to-car( car_00 curb_0 car_01)::move-car-to-car( car_00 car_01 car_02)::move-curb-to-curb( car_01 curb_1 curb_0)::move-car-to-curb( car_00 car_02 curb_1)::move-curb-to-car( car_02 curb_2 car_00)::move-car-to-curb( car_02 car_00 curb_2)::move-curb-to-car( car_00 curb_1 car_02)::move-car-to-curb( car_00 car_02 curb_1)::move-curb-to-car( car_01 curb_0 car_00)
move-car-to-curb( car_01 car_00 curb_1)::move-curb-to-car( car_01 curb_1 car_00)::move-curb-to-curb( car_02 curb_2 curb_1)::move-curb-to-curb( car_02 curb_1 curb_2)::move-curb-to-curb( car_02 curb_2 curb_1)::move-car-to-curb( car_01 car_00 curb_2)::move-curb-to-car( car_02 curb_1 car_01)::move-car-to-car( car_02 car_01 car_00)::move-curb-to-curb( car_01 curb_2 curb_1)::move-car-to-car( car_02 car_00 car_01)::move-car-to-car( car_02 car_01 car_00)::move-curb-to-curb( car_01 curb_1 curb_2)::move-car-to-car( car_02 car_00 car_01)::move-car-to-curb( car_02 car_01 curb_1)::move-curb-to-car( car_02 curb_1 car_01)::move-car-to-curb( car_02 car_01 curb_1)
move-car-to-car( car_01 car_00 car_02)::move-car-to-curb( car_01 car_02 curb_1)::move-curb-to-car( car_01 curb_1 car_02)::move-car-to-car( car_01 car_02 car_00)::move-car-to-curb( car_01 car_00 curb_1)::move-curb-to-car( car_02 curb_2 car_01)::move-car-to-curb( car_02 car_01 curb_2)::move-curb-to-car( car_02 curb_2 car_01)::move-car-to-curb( car_02 car_01 curb_2)::move-curb-to-car( car_01 curb_1 car_02)::move-car-to-curb( car_01 car_02 curb_1)::move-curb-to-car( car_02 curb_2 car_01)::move-car-to-car( car_02 car_01 car_00)::move-car-to-car( car_02 car_00 car_01)::move-car-to-car( car_02 car_01 car_00)
move-curb-to-curb( car_02 curb_2 curb_1)::move-curb-to-curb( car_02 curb_1 curb_2)::move-car-to-car( car_01 car_00 car_02)::move-curb-to-curb( car_00 curb_0 curb_1)::move-car-to-car( car_01 car_02 car_00)::move-car-to-curb( car_01 car_00 curb_0)::move-curb-to-car( car_00 curb_1 car_01)::move-car-to-curb( car_00 car_01 curb_1)::move-curb-to-car( car_01 curb_0 car_00)::move-car-to-curb( car_01 car_00 curb_0)::move-curb-to-car( car_01 curb_0 car_02)::move-car-to-car( car_01 car_02 car_00)::move-curb-to-curb( car_02 curb_2 curb_0)::move-car-to-car( car_01 car_00 car_02)::move-car-to-car( car_01 car_02 car_00)::move-car-to-car( car_01 car_00 car_02)::move-curb-to-curb( car_00 curb_1 curb_2)::move-curb-to-curb( car_00 curb_2 curb_1)::move-curb-to-curb( car_00 curb_1 curb_2)::move-car-to-car( car_01 car_02 car_00)
move-car-to-car( car_01 car_00 car_02)::move-car-to-car( car_01 car_02 car_00)::move-curb-to-curb( car_02 curb_2 curb_1)::move-curb-to-curb( car_02 curb_1 curb_2)::move-car-to-car( car_01 car_00 car_02)::move-curb-to-curb( car_00 curb_0 curb_1)::move-car-to-car( car_01 car_02 car_00)::move-car-to-car( car_01 car_00 car_02)::move-car-to-curb( car_01 car_02 curb_0)::move-curb-to-car( car_00 curb_1 car_02)
move-car-to-curb( car_01 car_00 curb_1)::move-curb-to-car( car_02 curb_2 car_01)::move-curb-to-curb( car_00 curb_0 curb_2)::move-car-to-car( car_02 car_01 car_00)::move-car-to-curb( car_02 car_00 curb_0)::move-curb-to-car( car_02 curb_0 car_01)::move-car-to-car( car_02 car_01 car_00)::move-car-to-car( car_02 car_00 car_01)::move-car-to-curb( car_02 car_01 curb_0)::move-curb-to-car( car_01 curb_1 car_02)::move-car-to-curb( car_01 car_02 curb_1)::move-curb-to-car( car_02 curb_0 car_01)
move-car-to-curb( car_01 car_00 curb_1)::move-curb-to-car( car_00 curb_0 car_02)::move-car-to-curb( car_00 car_02 curb_0)::move-curb-to-car( car_00 curb_0 car_01)::move-car-to-car( car_00 car_01 car_02)::move-car-to-car( car_00 car_02 car_01)::move-curb-to-curb( car_02 curb_2 curb_0)
move-car-to-car( car_01 car_00 car_02)::move-curb-to-curb( car_00 curb_0 curb_1)::move-car-to-car( car_01 car_02 car_00)::move-curb-to-curb( car_02 curb_2 curb_0)::move-car-to-car( car_01 car_00 car_02)::move-curb-to-curb( car_00 curb_1 curb_2)::move-curb-to-curb( car_00 curb_2 curb_1)::move-car-to-curb( car_01 car_02 curb_2)::move-curb-to-car( car_00 curb_1 car_01)::move-curb-to-curb( car_02 curb_0 curb_1)
move-car-to-car( car_01 car_00 car_02)::move-car-to-curb( car_01 car_02 curb_1)::move-curb-to-car( car_01 curb_1 car_00)::move-car-to-curb( car_01 car_00 curb_1)::move-curb-to-car( car_00 curb_0 car_02)::move-car-to-car( car_00 car_02 car_01)::move-car-to-curb( car_00 car_01 curb_0)::move-curb-to-car( car_00 curb_0 car_02)::move-curb-to-curb( car_01 curb_1 curb_0)::move-car-to-car( car_00 car_02 car_01)::move-curb-to-curb( car_02 curb_2 curb_1)::move-car-to-curb( car_00 car_01 curb_2)::move-curb-to-car( car_02 curb_1 car_01)::move-curb-to-curb( car_00 curb_2 curb_1)::move-car-to-curb( car_02 car_01 curb_2)
move-car-to-curb( car_01 car_00 curb_1)::move-curb-to-car( car_00 curb_0 car_01)::move-curb-to-curb( car_02 curb_2 curb_0)::move-car-to-curb( car_00 car_01 curb_2)::move-curb-to-car( car_01 curb_1 car_00)::move-car-to-curb( car_01 car_00 curb_1)::move-curb-to-car( car_01 curb_1 car_02)::move-curb-to-curb( car_00 curb_2 curb_1)::move-car-to-car( car_01 car_02 car_00)::move-car-to-car( car_01 car_00 car_02)::move-car-to-car( car_01 car_02 car_00)::move-curb-to-curb( car_02 curb_0 curb_2)::move-car-to-car( car_01 car_00 car_02)::move-car-to-car( car_01 car_02 car_00)::move-curb-to-curb( car_02 curb_2 curb_0)::move-car-to-car( car_01 car_00 car_02)::move-curb-to-curb( car_00 curb_1 curb_2)
move-car-to-car( car_01 car_00 car_02)::move-car-to-curb( car_01 car_02 curb_1)::move-curb-to-car( car_01 curb_1 car_00)::move-car-to-car( car_01 car_00 car_02)::move-curb-to-curb( car_00 curb_0 curb_1)
move-car-to-car( car_01 car_00 car_02)::move-car-to-curb( car_01 car_02 curb_1)::move-curb-to-car( car_00 curb_0 car_01)::move-car-to-car( car_00 car_01 car_02)::move-car-to-car( car_00 car_02 car_01)::move-car-to-curb( car_00 car_01 curb_0)::move-curb-to-car( car_01 curb_1 car_02)::move-car-to-car( car_01 car_02 car_00)::move-car-to-car( car_01 car_00 car_02)
move-car-to-curb( car_01 car_00 curb_1)::move-curb-to-car( car_02 curb_2 car_01)
move-curb-to-curb( car_02 curb_2 curb_1)::move-car-to-curb( car_01 car_00 curb_2)::move-curb-to-car( car_02 curb_1 car_00)::move-car-to-car( car_02 car_00 car_01)::move-car-to-curb( car_02 car_01 curb_1)
move-car-to-car( car_01 car_00 car_02)::move-car-to-curb( car_01 car_02 curb_1)::move-curb-to-car( car_02 curb_2 car_00)::move-car-to-curb( car_02 car_00 curb_2)::move-curb-to-car( car_01 curb_1 car_00)::move-car-to-curb( car_01 car_00 curb_1)::move-curb-to-car( car_02 curb_2 car_00)::move-car-to-curb( car_02 car_00 curb_2)::move-curb-to-car( car_01 curb_1 car_02)::move-curb-to-curb( car_00 curb_0 curb_1)::move-car-to-car( car_01 car_02 car_00)::move-car-to-curb( car_01 car_00 curb_0)::move-curb-to-car( car_01 curb_0 car_00)::move-car-to-curb( car_01 car_00 curb_0)::move-curb-to-car( car_02 curb_2 car_01)::move-curb-to-curb( car_00 curb_1 curb_2)
move-curb-to-curb( car_02 curb_2 curb_1)::move-car-to-curb( car_01 car_00 curb_2)::move-curb-to-car( car_00 curb_0 car_02)::move-car-to-curb( car_00 car_02 curb_0)::move-curb-to-car( car_02 curb_1 car_01)::move-car-to-car( car_02 car_01 car_00)::move-curb-to-curb( car_01 curb_2 curb_1)::move-car-to-curb( car_02 car_00 curb_2)::move-curb-to-car( car_02 curb_2 car_00)::move-car-to-curb( car_02 car_00 curb_2)::move-curb-to-car( car_01 curb_1 car_00)::move-curb-to-curb( car_02 curb_2 curb_1)::move-car-to-car( car_01 car_00 car_02)::move-car-to-curb( car_01 car_02 curb_2)::move-curb-to-car( car_00 curb_0 car_02)::move-curb-to-curb( car_01 curb_2 curb_0)::move-car-to-curb( car_00 car_02 curb_2)::move-curb-to-car( car_00 curb_2 car_02)::move-car-to-curb( car_00 car_02 curb_2)
move-car-to-car( car_01 car_00 car_02)::move-curb-to-curb( car_00 curb_0 curb_1)::move-car-to-curb( car_01 car_02 curb_0)::move-curb-to-car( car_02 curb_2 car_01)::move-car-to-curb( car_02 car_01 curb_2)::move-curb-to-car( car_00 curb_1 car_01)::move-car-to-car( car_00 car_01 car_02)::move-curb-to-curb( car_01 curb_0 curb_1)::move-curb-to-curb( car_01 curb_1 curb_0)::move-car-to-car( car_00 car_02 car_01)::move-curb-to-curb( car_02 curb_2 curb_1)::move-car-to-curb( car_00 car_01 curb_2)::move-curb-to-car( car_01 curb_0 car_00)::move-car-to-car( car_01 car_00 car_02)::move-curb-to-curb( car_00 curb_2 curb_0)::move-car-to-curb( car_01 car_02 curb_2)::move-curb-to-car( car_01 curb_2 car_00)
move-car-to-car( car_01 car_00 car_02)::move-curb-to-curb( car_00 curb_0 curb_1)::move-car-to-curb( car_01 car_02 curb_0)::move-curb-to-car( car_00 curb_1 car_01)::move-car-to-car( car_00 car_01 car_02)::move-curb-to-curb( car_01 curb_0 curb_1)
move-car-to-car( car_01 car_00 car_02)::move-car-to-car( car_01 car_02 car_00)::move-car-to-curb( car_01 car_00 curb_1)::move-curb-to-car( car_02 curb_2 car_00)::move-car-to-curb( car_02 car_00 curb_2)::move-curb-to-car( car_01 curb_1 car_02)::move-curb-to-curb( car_00 curb_0 curb_1)::move-curb-to-curb( car_00 curb_1 curb_0)
move-car-to-car( car_01 car_00 car_02)::move-curb-to-curb( car_00 curb_0 curb_1)::move-car-to-curb( car_01 car_02 curb_0)::move-curb-to-car( car_00 curb_1 car_02)::move-car-to-curb( car_00 car_02 curb_1)::move-curb-to-car( car_00 curb_1 car_01)::move-car-to-curb( car_00 car_01 curb_1)::move-curb-to-car( car_00 curb_1 car_01)::move-curb-to-curb( car_02 curb_2 curb_1)
move-car-to-car( car_01 car_00 car_02)::move-car-to-curb( car_01 car_02 curb_1)::move-curb-to-car( car_02 curb_2 car_00)::move-car-to-car( car_02 car_00 car_01)::move-car-to-curb( car_02 car_01 curb_2)::move-curb-to-car( car_02 curb_2 car_00)::move-curb-to-curb( car_01 curb_1 curb_2)::move-car-to-curb( car_02 car_00 curb_1)::move-curb-to-car( car_02 curb_1 car_01)::move-car-to-car( car_02 car_01 car_00)::move-car-to-curb( car_02 car_00 curb_1)::move-curb-to-car( car_01 curb_2 car_00)::move-curb-to-curb( car_02 curb_1 curb_2)::move-curb-to-curb( car_02 curb_2 curb_1)::move-curb-to-curb( car_02 curb_1 curb_2)::move-curb-to-curb( car_02 curb_2 curb_1)::move-car-to-curb( car_01 car_00 curb_2)
move-car-to-car( car_01 car_00 car_02)
move-car-to-car( car_01 car_00 car_02)::move-car-to-curb( car_01 car_02 curb_1)::move-curb-to-car( car_00 curb_0 car_02)::move-curb-to-curb( car_01 curb_1 curb_0)::move-curb-to-curb( car_01 curb_0 curb_1)::move-car-to-curb( car_00 car_02 curb_0)::move-curb-to-car( car_00 curb_0 car_01)::move-curb-to-curb( car_02 curb_2 curb_0)
move-car-to-car( car_01 car_00 car_02)::move-car-to-car( car_01 car_02 car_00)::move-car-to-curb( car_01 car_00 curb_1)::move-curb-to-car( car_02 curb_2 car_01)::move-car-to-car( car_02 car_01 car_00)::move-car-to-curb( car_02 car_00 curb_2)::move-curb-to-car( car_00 curb_0 car_02)::move-car-to-curb( car_00 car_02 curb_0)::move-curb-to-car( car_00 curb_0 car_01)::move-car-to-car( car_00 car_01 car_02)
move-car-to-curb( car_01 car_00 curb_1)::move-curb-to-car( car_02 curb_2 car_01)::move-car-to-curb( car_02 car_01 curb_2)::move-curb-to-car( car_00 curb_0 car_01)::move-curb-to-curb( car_02 curb_2 curb_0)::move-car-to-car( car_00 car_01 car_02)::move-car-to-curb( car_00 car_02 curb_2)::move-curb-to-car( car_02 curb_0 car_00)
move-curb-to-curb( car_02 curb_2 curb_1)::move-car-to-curb( car_01 car_00 curb_2)::move-curb-to-car( car_02 curb_1 car_01)::move-car-to-car( car_02 car_01 car_00)::move-car-to-curb( car_02 car_00 curb_1)::move-curb-to-car( car_01 curb_2 car_00)::move-car-to-curb( car_01 car_00 curb_2)::move-curb-to-car( car_01 curb_2 car_00)::move-car-to-car( car_01 car_00 car_02)::move-curb-to-curb( car_00 curb_0 curb_2)::move-curb-to-curb( car_00 curb_2 curb_0)::move-car-to-car( car_01 car_02 car_00)::move-curb-to-curb( car_02 curb_1 curb_2)::move-car-to-car( car_01 car_00 car_02)::move-curb-to-curb( car_00 curb_0 curb_1)::move-car-to-car( car_01 car_02 car_00)::move-car-to-car( car_01 car_00 car_02)::move-car-to-curb( car_01 car_02 curb_0)
move-curb-to-curb( car_02 curb_2 curb_1)::move-car-to-car( car_01 car_00 car_02)::move-car-to-curb( car_01 car_02 curb_2)::move-curb-to-car( car_01 curb_2 car_02)::move-car-to-curb( car_01 car_02 curb_2)::move-curb-to-car( car_01 curb_2 car_02)::move-car-to-car( car_01 car_02 car_00)::move-curb-to-curb( car_02 curb_1 curb_2)::move-car-to-curb( car_01 car_00 curb_1)::move-curb-to-car( car_02 curb_2 car_01)::move-car-to-curb( car_02 car_01 curb_2)::move-curb-to-car( car_00 curb_0 car_02)::move-car-to-curb( car_00 car_02 curb_0)
move-car-to-car( car_01 car_00 car_02)
move-curb-to-curb( car_02 curb_2 curb_1)::move-curb-to-curb( car_02 curb_1 curb_2)::move-car-to-curb( car_01 car_00 curb_1)::move-curb-to-car( car_00 curb_0 car_02)::move-car-to-car( car_00 car_02 car_01)::move-curb-to-curb( car_02 curb_2 curb_0)::move-car-to-car( car_00 car_01 car_02)::move-car-to-car( car_00 car_02 car_01)::move-curb-to-curb( car_02 curb_0 curb_2)::move-car-to-car( car_00 car_01 car_02)::move-car-to-car( car_00 car_02 car_01)::move-car-to-curb( car_00 car_01 curb_0)::move-curb-to-car( car_02 curb_2 car_01)::move-car-to-curb( car_02 car_01 curb_2)
move-car-to-car( car_01 car_00 car_02)::move-car-to-car( car_01 car_02 car_00)::move-car-to-curb( car_01 car_00 curb_1)::move-curb-to-car( car_00 curb_0 car_01)
move-car-to-curb( car_01 car_00 curb_1)::move-curb-to-car( car_01 curb_1 car_00)::move-car-to-car( car_01 car_00 car_02)::move-car-to-curb( car_01 car_02 curb_1)::move-curb-to-car( car_01 curb_1 car_02)::move-car-to-curb( car_01 car_02 curb_1)::move-curb-to-car( car_00 curb_0 car_02)::move-car-to-curb( car_00 car_02 curb_0)::move-curb-to-car( car_00 curb_0 car_02)::move-car-to-curb( car_00 car_02 curb_0)::move-curb-to-car( car_00 curb_0 car_01)::move-curb-to-curb( car_02 curb_2 curb_0)::move-curb-to-curb( car_02 curb_0 curb_2)::move-car-to-car( car_00 car_01 car_02)::move-car-to-car( car_00 car_02 car_01)::move-car-to-curb( car_00 car_01 curb_0)::move-curb-to-car( car_02 curb_2 car_00)
move-car-to-car( car_01 car_00 car_02)::move-car-to-car( car_01 car_02 car_00)::move-car-to-curb( car_01 car_00 curb_1)::move-curb-to-car( car_01 curb_1 car_02)::move-car-to-curb( car_01 car_02 curb_1)::move-curb-to-car( car_01 curb_1 car_00)::move-car-to-curb( car_01 car_00 curb_1)::move-curb-to-car( car_01 curb_1 car_02)::move-car-to-car( car_01 car_02 car_00)
move-car-to-curb( car_01 car_00 curb_1)::move-curb-to-car( car_00 curb_0 car_02)::move-car-to-car( car_00 car_02 car_01)::move-curb-to-curb( car_02 curb_2 curb_0)::move-car-to-car( car_00 car_01 car_02)::move-car-to-curb( car_00 car_02 curb_2)::move-curb-to-car( car_01 curb_1 car_00)::move-car-to-car( car_01 car_00 car_02)::move-car-to-car( car_01 car_02 car_00)::move-car-to-curb( car_01 car_00 curb_1)::move-curb-to-car( car_01 curb_1 car_02)::move-car-to-car( car_01 car_02 car_00)::move-car-to-curb( car_01 car_00 curb_1)::move-curb-to-car( car_00 curb_2 car_02)::move-car-to-curb( car_00 car_02 curb_2)
move-car-to-curb( car_01 car_00 curb_1)::move-curb-to-car( car_02 curb_2 car_00)::move-car-to-car( car_02 car_00 car_01)::move-car-to-car( car_02 car_01 car_00)::move-curb-to-curb( car_01 curb_1 curb_2)
move-curb-to-curb( car_02 curb_2 curb_1)::move-car-to-curb( car_01 car_00 curb_2)::move-curb-to-car( car_00 curb_0 car_02)::move-car-to-car( car_00 car_02 car_01)::move-car-to-curb( car_00 car_01 curb_0)::move-curb-to-car( car_01 curb_2 car_02)::move-car-to-curb( car_01 car_02 curb_2)::move-curb-to-car( car_02 curb_1 car_01)::move-car-to-car( car_02 car_01 car_00)
move-car-to-curb( car_01 car_00 curb_1)::move-curb-to-car( car_01 curb_1 car_00)::move-curb-to-curb( car_02 curb_2 curb_1)::move-car-to-car( car_01 car_00 car_02)::move-car-to-car( car_01 car_02 car_00)::move-curb-to-curb( car_02 curb_1 curb_2)::move-curb-to-curb( car_02 curb_2 curb_1)::move-curb-to-curb( car_02 curb_1 curb_2)::move-car-to-curb( car_01 car_00 curb_1)::move-curb-to-car( car_00 curb_0 car_02)::move-car-to-curb( car_00 car_02 curb_0)::move-curb-to-car( car_00 curb_0 car_01)::move-car-to-curb( car_00 car_01 curb_0)::move-curb-to-car( car_01 curb_1 car_00)::move-car-to-car( car_01 car_00 car_02)::move-car-to-car( car_01 car_02 car_00)
