move( n0 n1)::move( n1 n3)::move( n3 n0)::move( n0 n1)::move( n1 n3)::move( n3 n0)::move( n0 n1)::move( n1 n3)::move( n3 n0)
move( n0 n1)::move( n1 n3)::move( n3 n2)::move( n2 n4)::move( n4 n1)::move( n1 n3)::move( n3 n0)::move( n0 n1)::move( n1 n3)
move( n0 n1)::move( n1 n3)::move( n3 n0)::move( n0 n1)::move( n1 n3)
move( n0 n1)::move( n1 n3)::move( n3 n2)::move( n2 n4)::move( n4 n1)::move( n1 n3)::move( n3 n0)::move( n0 n1)::move( n1 n3)::move( n3 n2)::move( n2 n4)::move( n4 n1)::move( n1 n3)::move( n3 n2)::move( n2 n4)::move( n4 n1)
move( n0 n1)::move( n1 n3)::move( n3 n0)::move( n0 n1)::move( n1 n3)::move( n3 n0)::move( n0 n1)::move( n1 n3)
move( n0 n1)
move( n0 n1)::move( n1 n3)::move( n3 n2)::move( n2 n4)::move( n4 n1)::move( n1 n3)::move( n3 n2)::move( n2 n4)::move( n4 n1)::move( n1 n3)::move( n3 n2)::move( n2 n4)
move( n0 n1)
move( n0 n1)::move( n1 n3)::move( n3 n0)::move( n0 n1)::move( n1 n3)::move( n3 n0)::move( n0 n1)::move( n1 n3)::move( n3 n0)::move( n0 n1)::move( n1 n3)::move( n3 n0)::move( n0 n1)::move( n1 n3)
move( n0 n1)::move( n1 n3)::move( n3 n0)
move( n0 n1)::move( n1 n3)::move( n3 n0)::move( n0 n1)::move( n1 n3)::move( n3 n2)::move( n2 n4)::move( n4 n1)
move( n0 n1)::move( n1 n3)::move( n3 n2)::move( n2 n4)::move( n4 n1)::move( n1 n3)::move( n3 n0)::move( n0 n1)::move( n1 n3)::move( n3 n0)::move( n0 n1)::move( n1 n3)::move( n3 n2)::move( n2 n4)::move( n4 n1)::move( n1 n3)::move( n3 n0)::move( n0 n1)::move( n1 n3)
move( n0 n1)::move( n1 n3)::move( n3 n2)::move( n2 n4)::move( n4 n1)::move( n1 n3)::move( n3 n2)::move( n2 n4)::move( n4 n1)::move( n1 n3)::move( n3 n0)::move( n0 n1)::move( n1 n3)::move( n3 n2)::move( n2 n4)::move( n4 n1)
move( n0 n1)::move( n1 n3)::move( n3 n2)::move( n2 n4)::move( n4 n1)::move( n1 n3)::move( n3 n0)::move( n0 n1)::move( n1 n3)::move( n3 n0)::move( n0 n1)::move( n1 n3)::move( n3 n2)::move( n2 n4)::move( n4 n1)::move( n1 n3)::move( n3 n0)
move( n0 n1)::move( n1 n3)::move( n3 n2)::move( n2 n4)::move( n4 n1)::move( n1 n3)::move( n3 n2)::move( n2 n4)::move( n4 n1)::move( n1 n3)::move( n3 n2)::move( n2 n4)::move( n4 n1)::move( n1 n3)::move( n3 n2)::move( n2 n4)::move( n4 n1)::move( n1 n3)
move( n0 n1)::move( n1 n3)::move( n3 n0)::move( n0 n1)::move( n1 n3)
move( n0 n1)::move( n1 n3)::move( n3 n2)::move( n2 n4)::move( n4 n1)::move( n1 n3)::move( n3 n2)::move( n2 n4)::move( n4 n1)::move( n1 n3)::move( n3 n2)::move( n2 n4)::move( n4 n1)::move( n1 n3)::move( n3 n2)::move( n2 n4)::move( n4 n1)::move( n1 n3)::move( n3 n2)
move( n0 n1)::move( n1 n3)::move( n3 n2)::move( n2 n4)::move( n4 n1)::move( n1 n3)::move( n3 n0)::move( n0 n1)::move( n1 n3)::move( n3 n0)::move( n0 n1)::move( n1 n3)::move( n3 n2)::move( n2 n4)::move( n4 n1)::move( n1 n3)::move( n3 n2)::move( n2 n4)
move( n0 n1)::move( n1 n3)::move( n3 n0)::move( n0 n1)::move( n1 n3)::move( n3 n2)::move( n2 n4)::move( n4 n1)::move( n1 n3)::move( n3 n2)::move( n2 n4)
move( n0 n1)::move( n1 n3)::move( n3 n0)::move( n0 n1)::move( n1 n3)::move( n3 n2)::move( n2 n4)::move( n4 n1)::move( n1 n3)::move( n3 n2)::move( n2 n4)::move( n4 n1)::move( n1 n3)::move( n3 n2)::move( n2 n4)::move( n4 n1)::move( n1 n3)
move( n0 n1)::move( n1 n3)::move( n3 n0)::move( n0 n1)::move( n1 n3)::move( n3 n2)::move( n2 n4)::move( n4 n1)::move( n1 n3)::move( n3 n2)::move( n2 n4)::move( n4 n1)::move( n1 n3)::move( n3 n0)::move( n0 n1)
move( n0 n1)::move( n1 n3)::move( n3 n0)::move( n0 n1)::move( n1 n3)::move( n3 n2)::move( n2 n4)::move( n4 n1)::move( n1 n3)::move( n3 n0)::move( n0 n1)::move( n1 n3)::move( n3 n0)::move( n0 n1)::move( n1 n3)::move( n3 n2)::move( n2 n4)::move( n4 n1)::move( n1 n3)
move( n0 n1)::move( n1 n3)::move( n3 n2)::move( n2 n4)::move( n4 n1)::move( n1 n3)::move( n3 n2)::move( n2 n4)::move( n4 n1)::move( n1 n3)
move( n0 n1)::move( n1 n3)::move( n3 n0)::move( n0 n1)::move( n1 n3)::move( n3 n0)::move( n0 n1)::move( n1 n3)::move( n3 n2)::move( n2 n4)::move( n4 n1)::move( n1 n3)::move( n3 n0)::move( n0 n1)::move( n1 n3)::move( n3 n0)::move( n0 n1)::move( n1 n3)
move( n0 n1)::move( n1 n3)::move( n3 n0)::move( n0 n1)::move( n1 n3)::move( n3 n0)::move( n0 n1)::move( n1 n3)::move( n3 n0)::move( n0 n1)::move( n1 n3)::move( n3 n0)::move( n0 n1)::move( n1 n3)::move( n3 n2)::move( n2 n4)::move( n4 n1)::move( n1 n3)
move( n0 n1)::move( n1 n3)::move( n3 n0)::move( n0 n1)::move( n1 n3)::move( n3 n2)::move( n2 n4)
move( n0 n1)::move( n1 n3)::move( n3 n2)::move( n2 n4)::move( n4 n1)
move( n0 n1)::move( n1 n3)::move( n3 n0)::move( n0 n1)::move( n1 n3)::move( n3 n2)::move( n2 n4)::move( n4 n1)::move( n1 n3)::move( n3 n0)::move( n0 n1)::move( n1 n3)::move( n3 n0)::move( n0 n1)::move( n1 n3)
move( n0 n1)::move( n1 n3)::move( n3 n0)::move( n0 n1)::move( n1 n3)::move( n3 n2)::move( n2 n4)::move( n4 n1)::move( n1 n3)::move( n3 n0)::move( n0 n1)::move( n1 n3)::move( n3 n0)::move( n0 n1)::move( n1 n3)::move( n3 n2)
move( n0 n1)::move( n1 n3)::move( n3 n0)::move( n0 n1)::move( n1 n3)::move( n3 n0)::move( n0 n1)::move( n1 n3)::move( n3 n2)::move( n2 n4)::move( n4 n1)::move( n1 n3)::move( n3 n2)::move( n2 n4)::move( n4 n1)
move( n0 n1)::move( n1 n3)::move( n3 n0)::move( n0 n1)::move( n1 n3)::move( n3 n0)::move( n0 n1)::move( n1 n3)::move( n3 n2)::move( n2 n4)::move( n4 n1)::move( n1 n3)::move( n3 n2)::move( n2 n4)::move( n4 n1)::move( n1 n3)::move( n3 n0)::move( n0 n1)
move( n0 n1)::move( n1 n3)::move( n3 n0)::move( n0 n1)::move( n1 n3)::move( n3 n2)::move( n2 n4)::move( n4 n1)::move( n1 n3)::move( n3 n2)
move( n0 n1)::move( n1 n3)::move( n3 n0)
move( n0 n1)::move( n1 n3)::move( n3 n2)::move( n2 n4)::move( n4 n1)::move( n1 n3)::move( n3 n2)::move( n2 n4)::move( n4 n1)::move( n1 n3)::move( n3 n2)::move( n2 n4)
move( n0 n1)
move( n0 n1)::move( n1 n3)::move( n3 n2)::move( n2 n4)::move( n4 n1)::move( n1 n3)::move( n3 n0)::move( n0 n1)::move( n1 n3)::move( n3 n0)::move( n0 n1)::move( n1 n3)::move( n3 n0)::move( n0 n1)::move( n1 n3)::move( n3 n2)::move( n2 n4)::move( n4 n1)
move( n0 n1)::move( n1 n3)::move( n3 n0)::move( n0 n1)::move( n1 n3)::move( n3 n0)::move( n0 n1)::move( n1 n3)::move( n3 n0)::move( n0 n1)::move( n1 n3)::move( n3 n2)::move( n2 n4)::move( n4 n1)::move( n1 n3)::move( n3 n0)::move( n0 n1)::move( n1 n3)
move( n0 n1)::move( n1 n3)::move( n3 n2)::move( n2 n4)::move( n4 n1)::move( n1 n3)::move( n3 n0)::move( n0 n1)::move( n1 n3)::move( n3 n0)::move( n0 n1)::move( n1 n3)::move( n3 n0)::move( n0 n1)::move( n1 n3)::move( n3 n0)::move( n0 n1)
move( n0 n1)::move( n1 n3)::move( n3 n2)::move( n2 n4)::move( n4 n1)::move( n1 n3)::move( n3 n0)::move( n0 n1)::move( n1 n3)::move( n3 n0)::move( n0 n1)::move( n1 n3)::move( n3 n0)::move( n0 n1)::move( n1 n3)
move( n0 n1)::move( n1 n3)::move( n3 n0)::move( n0 n1)::move( n1 n3)::move( n3 n0)::move( n0 n1)::move( n1 n3)::move( n3 n2)::move( n2 n4)::move( n4 n1)::move( n1 n3)::move( n3 n0)::move( n0 n1)::move( n1 n3)
move( n0 n1)::move( n1 n3)::move( n3 n2)::move( n2 n4)::move( n4 n1)::move( n1 n3)::move( n3 n0)::move( n0 n1)::move( n1 n3)::move( n3 n2)::move( n2 n4)::move( n4 n1)::move( n1 n3)::move( n3 n2)::move( n2 n4)::move( n4 n1)::move( n1 n3)
move( n0 n1)::move( n1 n3)::move( n3 n0)::move( n0 n1)::move( n1 n3)
move( n0 n1)::move( n1 n3)
move( n0 n1)::move( n1 n3)::move( n3 n2)::move( n2 n4)::move( n4 n1)::move( n1 n3)::move( n3 n0)::move( n0 n1)::move( n1 n3)::move( n3 n0)::move( n0 n1)::move( n1 n3)
move( n0 n1)::move( n1 n3)::move( n3 n0)::move( n0 n1)::move( n1 n3)
move( n0 n1)::move( n1 n3)
move( n0 n1)::move( n1 n3)::move( n3 n2)::move( n2 n4)::move( n4 n1)::move( n1 n3)::move( n3 n2)
move( n0 n1)::move( n1 n3)::move( n3 n0)::move( n0 n1)::move( n1 n3)::move( n3 n0)::move( n0 n1)
move( n0 n1)::move( n1 n3)::move( n3 n0)::move( n0 n1)::move( n1 n3)::move( n3 n0)::move( n0 n1)::move( n1 n3)
move( n0 n1)::move( n1 n3)
move( n0 n1)::move( n1 n3)::move( n3 n2)::move( n2 n4)::move( n4 n1)::move( n1 n3)::move( n3 n2)::move( n2 n4)::move( n4 n1)::move( n1 n3)::move( n3 n0)::move( n0 n1)::move( n1 n3)::move( n3 n2)::move( n2 n4)::move( n4 n1)::move( n1 n3)
move( n0 n1)::move( n1 n3)::move( n3 n2)::move( n2 n4)::move( n4 n1)
move( n0 n1)
move( n0 n1)::move( n1 n3)::move( n3 n0)
move( n0 n1)::move( n1 n3)::move( n3 n2)::move( n2 n4)
move( n0 n1)::move( n1 n3)::move( n3 n2)::move( n2 n4)::move( n4 n1)::move( n1 n3)::move( n3 n2)::move( n2 n4)::move( n4 n1)::move( n1 n3)
move( n0 n1)::move( n1 n3)::move( n3 n2)::move( n2 n4)::move( n4 n1)::move( n1 n3)::move( n3 n0)::move( n0 n1)::move( n1 n3)::move( n3 n2)::move( n2 n4)
move( n0 n1)::move( n1 n3)::move( n3 n2)::move( n2 n4)::move( n4 n1)::move( n1 n3)::move( n3 n2)
move( n0 n1)::move( n1 n3)::move( n3 n0)::move( n0 n1)::move( n1 n3)::move( n3 n0)::move( n0 n1)::move( n1 n3)::move( n3 n2)::move( n2 n4)
move( n0 n1)::move( n1 n3)::move( n3 n0)::move( n0 n1)::move( n1 n3)::move( n3 n2)::move( n2 n4)::move( n4 n1)::move( n1 n3)::move( n3 n0)::move( n0 n1)::move( n1 n3)
move( n0 n1)::move( n1 n3)::move( n3 n2)::move( n2 n4)::move( n4 n1)::move( n1 n3)::move( n3 n2)::move( n2 n4)::move( n4 n1)::move( n1 n3)::move( n3 n0)::move( n0 n1)::move( n1 n3)::move( n3 n0)
move( n0 n1)::move( n1 n3)::move( n3 n2)::move( n2 n4)::move( n4 n1)::move( n1 n3)::move( n3 n0)::move( n0 n1)::move( n1 n3)::move( n3 n2)::move( n2 n4)::move( n4 n1)::move( n1 n3)::move( n3 n2)::move( n2 n4)
move( n0 n1)::move( n1 n3)
move( n0 n1)::move( n1 n3)::move( n3 n2)::move( n2 n4)::move( n4 n1)::move( n1 n3)::move( n3 n0)::move( n0 n1)::move( n1 n3)
move( n0 n1)::move( n1 n3)::move( n3 n2)::move( n2 n4)::move( n4 n1)::move( n1 n3)::move( n3 n0)::move( n0 n1)::move( n1 n3)::move( n3 n0)
move( n0 n1)
move( n0 n1)::move( n1 n3)::move( n3 n2)::move( n2 n4)::move( n4 n1)::move( n1 n3)::move( n3 n2)::move( n2 n4)::move( n4 n1)::move( n1 n3)::move( n3 n0)::move( n0 n1)::move( n1 n3)::move( n3 n0)::move( n0 n1)::move( n1 n3)::move( n3 n0)::move( n0 n1)
move( n0 n1)::move( n1 n3)::move( n3 n2)::move( n2 n4)::move( n4 n1)::move( n1 n3)::move( n3 n0)
move( n0 n1)::move( n1 n3)::move( n3 n2)::move( n2 n4)::move( n4 n1)::move( n1 n3)::move( n3 n0)::move( n0 n1)::move( n1 n3)::move( n3 n0)::move( n0 n1)::move( n1 n3)::move( n3 n0)::move( n0 n1)::move( n1 n3)::move( n3 n2)::move( n2 n4)::move( n4 n1)::move( n1 n3)::move( n3 n2)
move( n0 n1)::move( n1 n3)::move( n3 n0)::move( n0 n1)::move( n1 n3)::move( n3 n0)::move( n0 n1)::move( n1 n3)::move( n3 n2)::move( n2 n4)::move( n4 n1)::move( n1 n3)::move( n3 n2)::move( n2 n4)::move( n4 n1)::move( n1 n3)::move( n3 n2)::move( n2 n4)::move( n4 n1)::move( n1 n3)
move( n0 n1)::move( n1 n3)::move( n3 n0)::move( n0 n1)::move( n1 n3)::move( n3 n2)::move( n2 n4)::move( n4 n1)::move( n1 n3)::move( n3 n0)
move( n0 n1)::move( n1 n3)::move( n3 n0)::move( n0 n1)::move( n1 n3)::move( n3 n2)::move( n2 n4)::move( n4 n1)::move( n1 n3)::move( n3 n2)::move( n2 n4)::move( n4 n1)::move( n1 n3)::move( n3 n0)::move( n0 n1)::move( n1 n3)
move( n0 n1)::move( n1 n3)::move( n3 n0)::move( n0 n1)::move( n1 n3)::move( n3 n0)
move( n0 n1)::move( n1 n3)::move( n3 n0)::move( n0 n1)::move( n1 n3)::move( n3 n2)::move( n2 n4)::move( n4 n1)::move( n1 n3)
move( n0 n1)::move( n1 n3)::move( n3 n2)::move( n2 n4)::move( n4 n1)::move( n1 n3)::move( n3 n2)::move( n2 n4)::move( n4 n1)::move( n1 n3)::move( n3 n2)
move( n0 n1)::move( n1 n3)::move( n3 n2)::move( n2 n4)::move( n4 n1)::move( n1 n3)
move( n0 n1)::move( n1 n3)
move( n0 n1)::move( n1 n3)
move( n0 n1)::move( n1 n3)::move( n3 n2)::move( n2 n4)::move( n4 n1)::move( n1 n3)::move( n3 n2)
move( n0 n1)::move( n1 n3)::move( n3 n2)::move( n2 n4)::move( n4 n1)::move( n1 n3)::move( n3 n2)::move( n2 n4)::move( n4 n1)::move( n1 n3)::move( n3 n2)
move( n0 n1)::move( n1 n3)::move( n3 n0)::move( n0 n1)
move( n0 n1)::move( n1 n3)::move( n3 n2)::move( n2 n4)
move( n0 n1)::move( n1 n3)::move( n3 n2)::move( n2 n4)::move( n4 n1)::move( n1 n3)::move( n3 n2)::move( n2 n4)
move( n0 n1)::move( n1 n3)
move( n0 n1)::move( n1 n3)::move( n3 n0)::move( n0 n1)::move( n1 n3)::move( n3 n0)::move( n0 n1)::move( n1 n3)::move( n3 n2)::move( n2 n4)::move( n4 n1)::move( n1 n3)::move( n3 n2)::move( n2 n4)
move( n0 n1)::move( n1 n3)::move( n3 n2)::move( n2 n4)::move( n4 n1)::move( n1 n3)::move( n3 n0)::move( n0 n1)::move( n1 n3)::move( n3 n0)::move( n0 n1)::move( n1 n3)::move( n3 n2)::move( n2 n4)::move( n4 n1)::move( n1 n3)::move( n3 n2)::move( n2 n4)
move( n0 n1)::move( n1 n3)::move( n3 n2)::move( n2 n4)::move( n4 n1)
move( n0 n1)::move( n1 n3)::move( n3 n0)::move( n0 n1)::move( n1 n3)::move( n3 n0)::move( n0 n1)::move( n1 n3)::move( n3 n2)::move( n2 n4)::move( n4 n1)::move( n1 n3)::move( n3 n2)::move( n2 n4)::move( n4 n1)::move( n1 n3)::move( n3 n0)
move( n0 n1)::move( n1 n3)::move( n3 n0)::move( n0 n1)::move( n1 n3)::move( n3 n0)::move( n0 n1)::move( n1 n3)::move( n3 n0)::move( n0 n1)::move( n1 n3)::move( n3 n2)::move( n2 n4)::move( n4 n1)::move( n1 n3)::move( n3 n2)::move( n2 n4)::move( n4 n1)
move( n0 n1)::move( n1 n3)::move( n3 n0)::move( n0 n1)::move( n1 n3)::move( n3 n0)::move( n0 n1)::move( n1 n3)::move( n3 n2)::move( n2 n4)::move( n4 n1)::move( n1 n3)::move( n3 n2)::move( n2 n4)::move( n4 n1)::move( n1 n3)::move( n3 n2)::move( n2 n4)::move( n4 n1)::move( n1 n3)
move( n0 n1)::move( n1 n3)::move( n3 n0)::move( n0 n1)::move( n1 n3)::move( n3 n0)::move( n0 n1)::move( n1 n3)::move( n3 n0)::move( n0 n1)::move( n1 n3)::move( n3 n2)
move( n0 n1)::move( n1 n3)
move( n0 n1)::move( n1 n3)::move( n3 n2)::move( n2 n4)
move( n0 n1)::move( n1 n3)::move( n3 n0)::move( n0 n1)::move( n1 n3)::move( n3 n2)::move( n2 n4)::move( n4 n1)::move( n1 n3)
move( n0 n1)::move( n1 n3)::move( n3 n2)::move( n2 n4)::move( n4 n1)::move( n1 n3)::move( n3 n2)::move( n2 n4)::move( n4 n1)::move( n1 n3)
move( n0 n1)::move( n1 n3)::move( n3 n2)::move( n2 n4)::move( n4 n1)::move( n1 n3)::move( n3 n2)::move( n2 n4)::move( n4 n1)::move( n1 n3)::move( n3 n2)::move( n2 n4)::move( n4 n1)::move( n1 n3)
move( n0 n1)::move( n1 n3)::move( n3 n2)::move( n2 n4)::move( n4 n1)::move( n1 n3)::move( n3 n0)::move( n0 n1)::move( n1 n3)::move( n3 n0)::move( n0 n1)::move( n1 n3)::move( n3 n2)::move( n2 n4)::move( n4 n1)::move( n1 n3)::move( n3 n0)
move( n0 n1)::move( n1 n3)::move( n3 n0)::move( n0 n1)::move( n1 n3)::move( n3 n0)::move( n0 n1)::move( n1 n3)::move( n3 n0)::move( n0 n1)::move( n1 n3)::move( n3 n0)::move( n0 n1)::move( n1 n3)::move( n3 n2)::move( n2 n4)::move( n4 n1)::move( n1 n3)
move( n0 n1)::move( n1 n3)::move( n3 n0)::move( n0 n1)
move( n0 n1)::move( n1 n3)::move( n3 n2)::move( n2 n4)::move( n4 n1)::move( n1 n3)::move( n3 n0)::move( n0 n1)::move( n1 n3)::move( n3 n0)::move( n0 n1)::move( n1 n3)::move( n3 n2)::move( n2 n4)::move( n4 n1)
