digraph fsa{
rankdir=LR
graph [bgcolor=white];
start [shape=none]
node [shape = doublecircle]; 0 1 3 5 9 13 23 33 51 69 91 2 4 6 0 2 4 8 12 22 32 113 59 87 109 217 243 13 23 45 9 21 3 1 3 7 0 2 4 8 12 18 28 46 64 82 104 128 64 180 109 7 0 1 3 7 0 1 3 7 0 2 4 6 0 2 4 8 12 1 3 7 0 2 4 6 0 1 3 7 0 2 4 6 0 1 3 7 0 2 4 8 12 22 32 1 3 5 9 17 27 38 9 13 23 33 51 169 23 45 9 13 23 2 4 6 0 2 4 6 0 1 3 5 9 21 3 7 0 1 3 7 0 1 3 2 4 8 12 18 28 40 58 76 28 40 58 171 32 49 58 171 32 2 4 8 12 19 29 41 59 22 32 49 58 171 32 113 59 89 29 41 59 87 109 7 0 1 3 2 4 8 12 19 29 41 59 22 32 113 59 22 32 49 58 76 28 46 64 180 109 7 0 2 4 6 0 1 3 5 9 21 3 7 0 2 4 6 0 1 3 5 9 17 27 1 3 7 0 2 4 8 12 18 28 40 58 76 28 46 64 180 109 136 162 22 32 49 58 2 4 6 0 1 3 7 0 2 4 6 0 2 4 8 12 19 29 38 9 17 27 1 3 5 9 21 3 7 0 1 3 7 0 2 4 2 4 6 0 2 4 6 0 1 3 5 9 13 23 33 51 1 3 5 9 13 23 45 9 17 27 126 152 179 205 230 256 87 109 217 243 285 205 326 344 17 27 126 152 2 4 8 12 18 28 40 58 76 28 46 64 180 109 136 162 22 32 2 4 8 12 18 28 46 64 82 104 128 64 180 109 217 243 13 23 2 4 8 12 19 29 38 9 21 3 7 0 1 3 5 9 21 3 5 9 21 3 5 9 13 23 1 3 5 9 13 23 33 51 69 91 130 64 180 109 7 0 1 3 2 4 8 12 18 28 48 66 84 91 130 64 180 109 217 243 285 205 326 344 82 104 128 64 82 104 128 64 2 4 6 0 1 3 7 0 1 3 7 0 1 3 7 0 2 4 6 0 1 3 2 4 8 12 22 32 49 58 76 28 48 66 22 32 49 58 76 28 48 66 2 4 6 0 1 3 7 0 1 3 7 0 1 3 5 9 17 27 38 9 13 23 1 3 5 9 17 27 38 9 13 23 45 9 21 3 5 9 17 27 230 256 364 380 126 152 169 23 33 51 2 4 8 12 19 29 41 59 87 109 1 3 7 0 1 3 5 9 17 27 38 9 13 23 45 9 13 23 45 9 21 3 5 9 21 3 2 4 8 12 19 29 41 59 87 109 136 162 22 32 113 59 2 4 8 12 19 29 41 59 89 29 38 9 1 3 7 0 1 3 5 9 21 3 7 0 2 4 6 0 1 3 7 0 2 4 6 0;
start->0
0 -> 1[label = "move-start( player f0-0f f0-1f right)"]
0 -> 2[label = "move-start( player f0-0f f1-0f down)"]
128 -> 64[label = "move-end( player f0-3f f0-2f left)"]
256 -> 87[label = "move-start( player f1-1f f0-1f up)"]
256 -> 364[label = "move-start( player f1-1f f1-2f right)"]
1 -> 3[label = "move-end( player f0-0f f0-1f right)"]
2 -> 4[label = "move-end( player f0-0f f1-0f down)"]
130 -> 64[label = "move-end( player f1-2f f0-2f up)"]
3 -> 7[label = "move-start( player f0-1f f0-0f left)"]
3 -> 5[label = "move-start( player f0-1f f0-2f right)"]
4 -> 6[label = "move-start( player f1-0f f0-0f up)"]
4 -> 8[label = "push-start( player box0 f1-0f f1-1f f1-2f right)"]
5 -> 9[label = "move-end( player f0-1f f0-2f right)"]
6 -> 0[label = "move-end( player f1-0f f0-0f up)"]
7 -> 0[label = "move-end( player f0-1f f0-0f left)"]
8 -> 12[label = "push-end( player box0 f1-0f f1-1f f1-2f right)"]
136 -> 162[label = "move-end( player f0-1f f1-1f down)"]
9 -> 21[label = "move-start( player f0-2f f0-1f left)"]
9 -> 17[label = "move-start( player f0-2f f1-2f down)"]
9 -> 13[label = "move-start( player f0-2f f0-3f right)"]
12 -> 18[label = "move-start( player f1-1f f0-1f up)"]
12 -> 22[label = "move-start( player f1-1f f1-0f left)"]
12 -> 19[label = "push-start( player box0 f1-1f f1-2f f1-3f right)"]
13 -> 23[label = "move-end( player f0-2f f0-3f right)"]
17 -> 27[label = "move-end( player f0-2f f1-2f down)"]
18 -> 28[label = "move-end( player f1-1f f0-1f up)"]
19 -> 29[label = "push-end( player box0 f1-1f f1-2f f1-3f right)"]
21 -> 3[label = "move-end( player f0-2f f0-1f left)"]
22 -> 32[label = "move-end( player f1-1f f1-0f left)"]
23 -> 33[label = "move-start( player f0-3f f1-3f down)"]
23 -> 45[label = "move-start( player f0-3f f0-2f left)"]
152 -> 179[label = "move-start( player f1-3f f1-2f left)"]
152 -> 169[label = "move-start( player f1-3f f0-3f up)"]
27 -> 38[label = "move-start( player f1-2f f0-2f up)"]
27 -> 126[label = "move-start( player f1-2f f1-3f right)"]
27 -> 230[label = "push-start( player box0 f1-2f f1-1f f1-0f left)"]
28 -> 40[label = "move-start( player f0-1f f0-0f left)"]
28 -> 46[label = "move-start( player f0-1f f0-2f right)"]
28 -> 48[label = "move-start( player f0-1f f1-1f down)"]
29 -> 41[label = "move-start( player f1-2f f1-1f left)"]
29 -> 38[label = "move-start( player f1-2f f0-2f up)"]
285 -> 205[label = "move-end( player f0-2f f1-2f down)"]
32 -> 49[label = "move-start( player f1-0f f0-0f up)"]
32 -> 113[label = "move-start( player f1-0f f1-1f right)"]
33 -> 51[label = "move-end( player f0-3f f1-3f down)"]
162 -> 22[label = "move-start( player f1-1f f1-0f left)"]
38 -> 9[label = "move-end( player f1-2f f0-2f up)"]
40 -> 58[label = "move-end( player f0-1f f0-0f left)"]
41 -> 59[label = "move-end( player f1-2f f1-1f left)"]
169 -> 23[label = "move-end( player f1-3f f0-3f up)"]
171 -> 32[label = "move-end( player f0-0f f1-0f down)"]
45 -> 9[label = "move-end( player f0-3f f0-2f left)"]
46 -> 64[label = "move-end( player f0-1f f0-2f right)"]
48 -> 66[label = "move-end( player f0-1f f1-1f down)"]
49 -> 58[label = "move-end( player f1-0f f0-0f up)"]
51 -> 69[label = "move-start( player f1-3f f1-2f left)"]
51 -> 169[label = "move-start( player f1-3f f0-3f up)"]
179 -> 205[label = "move-end( player f1-3f f1-2f left)"]
180 -> 109[label = "move-end( player f0-2f f0-1f left)"]
58 -> 76[label = "move-start( player f0-0f f0-1f right)"]
58 -> 171[label = "move-start( player f0-0f f1-0f down)"]
59 -> 87[label = "move-start( player f1-1f f0-1f up)"]
59 -> 89[label = "move-start( player f1-1f f1-2f right)"]
59 -> 22[label = "move-start( player f1-1f f1-0f left)"]
64 -> 180[label = "move-start( player f0-2f f0-1f left)"]
64 -> 82[label = "move-start( player f0-2f f0-3f right)"]
66 -> 22[label = "move-start( player f1-1f f1-0f left)"]
66 -> 84[label = "push-start( player box0 f1-1f f1-2f f1-3f right)"]
69 -> 91[label = "move-end( player f1-3f f1-2f left)"]
326 -> 344[label = "move-end( player f1-2f f0-2f up)"]
76 -> 28[label = "move-end( player f0-0f f0-1f right)"]
205 -> 326[label = "move-start( player f1-2f f0-2f up)"]
205 -> 230[label = "push-start( player box0 f1-2f f1-1f f1-0f left)"]
82 -> 104[label = "move-end( player f0-2f f0-3f right)"]
84 -> 91[label = "push-end( player box0 f1-1f f1-2f f1-3f right)"]
87 -> 109[label = "move-end( player f1-1f f0-1f up)"]
344 -> 17[label = "move-start( player f0-2f f1-2f down)"]
344 -> 82[label = "move-start( player f0-2f f0-3f right)"]
89 -> 29[label = "move-end( player f1-1f f1-2f right)"]
217 -> 243[label = "move-end( player f0-1f f0-2f right)"]
91 -> 130[label = "move-start( player f1-2f f0-2f up)"]
230 -> 256[label = "push-end( player box0 f1-2f f1-1f f1-0f left)"]
104 -> 128[label = "move-start( player f0-3f f0-2f left)"]
364 -> 380[label = "move-end( player f1-1f f1-2f right)"]
109 -> 7[label = "move-start( player f0-1f f0-0f left)"]
109 -> 217[label = "move-start( player f0-1f f0-2f right)"]
109 -> 136[label = "move-start( player f0-1f f1-1f down)"]
113 -> 59[label = "move-end( player f1-0f f1-1f right)"]
243 -> 285[label = "move-start( player f0-2f f1-2f down)"]
243 -> 13[label = "move-start( player f0-2f f0-3f right)"]
380 -> 126[label = "move-start( player f1-2f f1-3f right)"]
126 -> 152[label = "move-end( player f1-2f f1-3f right)"]
}
