digraph fsa{
rankdir=LR
graph [bgcolor=white];
start [shape=none]
node [shape = doublecircle]; 0 1 4 7 12 1 4 41 62 20 54 74 98 86 13 19 9 30 43 86 19 208 227 21 16 1 4 7 12 2 5 11 16 23 34 1 4 8 13 19 30 43 9 86 31 44 36 93 119 1 4 8 13 20 31 44 36 49 71 103 129 152 54 74 98 86 13 27 36 93 119 23 1 4 71 2 5 9 14 21 16 25 36 49 71 103 129 3 6 10 5 9 14 24 34 52 74 98 124 2 5 11 16 23 34 47 68 90 116 47 68 90 116 0 12 2 5 9 14 24 34 47 0 2 5 11 16 2 5 9 14 21 16 25 1 4 7 12 34 57 68 90 122 7 12 1 4 3 6 10 5 9 14 24 34 52 74 98 124 148 170 23 34 52 74 98 124 148 170 190 4 2 5 11 16 25 36 49 71 93 119 57 68 90 122 225 240 254 154 227 293 86 19 5 9 30 76 3 6 10 5 9 14 24 34 47 0 2 5 9 14 24 34 52 74 98 124 148 170 23 34 1 4 7 12 1 4 7 12 1 4 41 62 154 208 227 242 213 43 86 31 2 5 11 16 25 1 4 71 90 122 7 12 2 5 9 14 24 34 47 0 3 6 10 5 11 16 23 34 57 36 1 4 7 12 2 5 11 16 25 36 2 5 9 14 24 34 52 74 98 124 148 170 190 4 3 6 10 5 9 14 24 34 57 68 90 116 47 68 90 122 7 12 2 5 9 14 24 34 47 68 90 116 47 0 3 6 10 5 9 14 21 16 23 34 52 74 98 124 9 14 21 16 23 1 4 71 90 122 2 5 1 4 8 13 19 30 54 76 59 81 107 173 193 213 43 86 3 6 10 5 11 16 25 1 4 71 3 6 10 5 9 14 21 16 23 34 52 74 98 124 148 170 190 49 36 93 119 34 3 6 10 5 9 14 21 16 23 34 1 4 8 13 27 36 49 71 103 129 152 98 30 5 1 4 7 12 1 4 7 12 1 4 7 12 1 4 2 5 11 16 25 36 49 71 103 129 154 13 19 30 2 5 11 16 23 34 57 68 90 116 47 0 1 4 8 13 19 9 30 76 1 4 8 13 19 9 30 76 43 86 1 4 8 13 20 31 59 81 107 7 12 1 4 0 2 5 9 14 24 34 57 36 93 119 47 68 90 122 7 12 2 5 9 14 21 16 25 1 4 71 1 4 8 13 20 31 10 14 24 34;
start->0
0 -> 12[label = "debark-end( person1 plane1 city0)"]
0 -> 3[label = "zoom-start( plane1 city0 city1 fl2 fl1 fl0)"]
0 -> 2[label = "fly-start( plane1 city0 city1 fl2 fl1)"]
0 -> 1[label = "board-start( person1 plane1 city0)"]
1 -> 4[label = "board-end( person1 plane1 city0)"]
129 -> 154[label = "refuel-start( plane1 city1 fl0 fl1)"]
129 -> 152[label = "debark-start( person1 plane1 city1)"]
2 -> 5[label = "fly-end( plane1 city0 city1 fl2 fl1)"]
3 -> 6[label = "zoom-end( plane1 city0 city1 fl2 fl1 fl0)"]
4 -> 71[label = "refuel-end( plane1 city0 fl0 fl1)"]
4 -> 41[label = "zoom-start( plane1 city0 city1 fl2 fl1 fl0)"]
4 -> 8[label = "fly-start( plane1 city0 city1 fl2 fl1)"]
4 -> 0[label = "refuel-end( plane1 city0 fl1 fl2)"]
4 -> 7[label = "debark-start( person1 plane1 city0)"]
5 -> 9[label = "refuel-start( plane1 city1 fl1 fl2)"]
5 -> 11[label = "fly-start( plane1 city1 city0 fl1 fl0)"]
6 -> 10[label = "refuel-start( plane1 city1 fl0 fl1)"]
7 -> 12[label = "debark-end( person1 plane1 city0)"]
8 -> 13[label = "fly-end( plane1 city0 city1 fl2 fl1)"]
9 -> 14[label = "refuel-end( plane1 city1 fl1 fl2)"]
9 -> 30[label = "debark-end( person1 plane1 city1)"]
9 -> 86[label = "board-end( person1 plane1 city1)"]
10 -> 14[label = "debark-end( person1 plane1 city1)"]
10 -> 5[label = "refuel-end( plane1 city1 fl0 fl1)"]
11 -> 16[label = "fly-end( plane1 city1 city0 fl1 fl0)"]
12 -> 34[label = "refuel-end( plane1 city0 fl0 fl1)"]
12 -> 2[label = "fly-start( plane1 city0 city1 fl2 fl1)"]
12 -> 1[label = "board-start( person1 plane1 city0)"]
13 -> 20[label = "refuel-start( plane1 city1 fl1 fl2)"]
13 -> 19[label = "debark-start( person1 plane1 city1)"]
13 -> 27[label = "fly-start( plane1 city1 city0 fl1 fl0)"]
14 -> 21[label = "zoom-start( plane1 city1 city0 fl2 fl1 fl0)"]
14 -> 24[label = "fly-start( plane1 city1 city0 fl2 fl1)"]
16 -> 23[label = "refuel-start( plane1 city0 fl0 fl1)"]
16 -> 25[label = "board-start( person1 plane1 city0)"]
19 -> 208[label = "refuel-end( plane1 city1 fl1 fl2)"]
19 -> 9[label = "refuel-start( plane1 city1 fl1 fl2)"]
19 -> 30[label = "debark-end( person1 plane1 city1)"]
19 -> 5[label = "refuel-end( plane1 city1 fl0 fl1)"]
20 -> 31[label = "refuel-end( plane1 city1 fl1 fl2)"]
20 -> 54[label = "debark-end( person1 plane1 city1)"]
148 -> 170[label = "fly-end( plane1 city1 city0 fl1 fl0)"]
21 -> 16[label = "zoom-end( plane1 city1 city0 fl2 fl1 fl0)"]
23 -> 34[label = "refuel-end( plane1 city0 fl0 fl1)"]
23 -> 1[label = "board-start( person1 plane1 city0)"]
24 -> 34[label = "fly-end( plane1 city1 city0 fl2 fl1)"]
152 -> 54[label = "debark-end( person1 plane1 city1)"]
152 -> 98[label = "refuel-start( plane1 city1 fl0 fl1)"]
25 -> 1[label = "refuel-start( plane1 city0 fl0 fl1)"]
25 -> 36[label = "board-end( person1 plane1 city0)"]
154 -> 227[label = "debark-end( person1 plane1 city1)"]
154 -> 13[label = "refuel-end( plane1 city1 fl0 fl1)"]
154 -> 208[label = "debark-start( person1 plane1 city1)"]
27 -> 36[label = "fly-end( plane1 city1 city0 fl1 fl0)"]
30 -> 76[label = "refuel-end( plane1 city1 fl1 fl2)"]
30 -> 54[label = "refuel-start( plane1 city1 fl1 fl2)"]
30 -> 43[label = "board-start( person1 plane1 city1)"]
30 -> 5[label = "refuel-end( plane1 city1 fl0 fl1)"]
31 -> 44[label = "zoom-start( plane1 city1 city0 fl2 fl1 fl0)"]
31 -> 10[label = "debark-start( person1 plane1 city1)"]
31 -> 59[label = "fly-start( plane1 city1 city0 fl2 fl1)"]
34 -> 47[label = "refuel-start( plane1 city0 fl1 fl2)"]
34 -> 57[label = "board-start( person1 plane1 city0)"]
34 -> 52[label = "fly-start( plane1 city0 city1 fl1 fl0)"]
36 -> 49[label = "refuel-start( plane1 city0 fl0 fl1)"]
36 -> 93[label = "debark-start( person1 plane1 city0)"]
293 -> 86[label = "board-end( person1 plane1 city1)"]
41 -> 62[label = "zoom-end( plane1 city0 city1 fl2 fl1 fl0)"]
170 -> 23[label = "refuel-start( plane1 city0 fl0 fl1)"]
170 -> 190[label = "board-start( person1 plane1 city0)"]
43 -> 9[label = "refuel-start( plane1 city1 fl1 fl2)"]
43 -> 86[label = "board-end( person1 plane1 city1)"]
44 -> 36[label = "zoom-end( plane1 city1 city0 fl2 fl1 fl0)"]
173 -> 193[label = "fly-start( plane1 city0 city1 fl2 fl1)"]
47 -> 0[label = "refuel-end( plane1 city0 fl1 fl2)"]
47 -> 68[label = "board-start( person1 plane1 city0)"]
49 -> 71[label = "refuel-end( plane1 city0 fl0 fl1)"]
49 -> 36[label = "board-end( person1 plane1 city0)"]
52 -> 74[label = "fly-end( plane1 city0 city1 fl1 fl0)"]
54 -> 76[label = "refuel-end( plane1 city1 fl1 fl2)"]
54 -> 74[label = "board-start( person1 plane1 city1)"]
57 -> 68[label = "refuel-start( plane1 city0 fl1 fl2)"]
57 -> 36[label = "board-end( person1 plane1 city0)"]
59 -> 81[label = "fly-end( plane1 city1 city0 fl2 fl1)"]
62 -> 154[label = "refuel-start( plane1 city1 fl0 fl1)"]
62 -> 20[label = "debark-start( person1 plane1 city1)"]
190 -> 49[label = "refuel-start( plane1 city0 fl0 fl1)"]
190 -> 4[label = "board-end( person1 plane1 city0)"]
193 -> 213[label = "fly-end( plane1 city0 city1 fl2 fl1)"]
68 -> 90[label = "board-end( person1 plane1 city0)"]
71 -> 90[label = "refuel-start( plane1 city0 fl1 fl2)"]
71 -> 93[label = "debark-start( person1 plane1 city0)"]
71 -> 103[label = "fly-start( plane1 city0 city1 fl1 fl0)"]
74 -> 98[label = "refuel-start( plane1 city1 fl0 fl1)"]
76 -> 43[label = "board-start( person1 plane1 city1)"]
76 -> 59[label = "fly-start( plane1 city1 city0 fl2 fl1)"]
208 -> 227[label = "debark-end( person1 plane1 city1)"]
81 -> 107[label = "refuel-start( plane1 city0 fl1 fl2)"]
213 -> 43[label = "board-start( person1 plane1 city1)"]
86 -> 31[label = "refuel-end( plane1 city1 fl1 fl2)"]
86 -> 13[label = "refuel-end( plane1 city1 fl0 fl1)"]
86 -> 19[label = "debark-start( person1 plane1 city1)"]
90 -> 122[label = "refuel-end( plane1 city0 fl1 fl2)"]
90 -> 116[label = "debark-start( person1 plane1 city0)"]
93 -> 119[label = "debark-end( person1 plane1 city0)"]
225 -> 240[label = "zoom-end( plane1 city0 city1 fl2 fl1 fl0)"]
98 -> 30[label = "debark-end( person1 plane1 city1)"]
98 -> 124[label = "refuel-end( plane1 city1 fl0 fl1)"]
98 -> 86[label = "board-end( person1 plane1 city1)"]
227 -> 293[label = "board-start( person1 plane1 city1)"]
227 -> 242[label = "refuel-end( plane1 city1 fl0 fl1)"]
227 -> 21[label = "zoom-start( plane1 city1 city0 fl2 fl1 fl0)"]
103 -> 129[label = "fly-end( plane1 city0 city1 fl1 fl0)"]
107 -> 173[label = "refuel-end( plane1 city0 fl1 fl2)"]
107 -> 7[label = "debark-start( person1 plane1 city0)"]
240 -> 254[label = "debark-start( person1 plane1 city1)"]
242 -> 213[label = "refuel-start( plane1 city1 fl1 fl2)"]
116 -> 47[label = "debark-end( person1 plane1 city0)"]
116 -> 0[label = "refuel-end( plane1 city0 fl1 fl2)"]
119 -> 34[label = "refuel-end( plane1 city0 fl0 fl1)"]
119 -> 47[label = "refuel-start( plane1 city0 fl1 fl2)"]
119 -> 23[label = "refuel-start( plane1 city0 fl0 fl1)"]
119 -> 57[label = "board-start( person1 plane1 city0)"]
122 -> 225[label = "zoom-start( plane1 city0 city1 fl2 fl1 fl0)"]
122 -> 2[label = "fly-start( plane1 city0 city1 fl2 fl1)"]
122 -> 7[label = "debark-start( person1 plane1 city0)"]
124 -> 9[label = "refuel-start( plane1 city1 fl1 fl2)"]
124 -> 148[label = "fly-start( plane1 city1 city0 fl1 fl0)"]
254 -> 154[label = "refuel-start( plane1 city1 fl0 fl1)"]
}
