digraph fsa{
rankdir=LR
graph [bgcolor=white];
start [shape=none]
node [shape = doublecircle]; 0 1 0 1 3 5 7 10 13 17 23 30 39 51 10 87 108 176 199 30 39 220 241 304 320 18 7 10 13 18 7 1 3 5 7 10 13 17 23 30 39 51 10 87 108 131 154 7 10 60 79 32 13 18 7 1 3 5 7 10 13 18 7 10 13 18 7 10 13 17 23 32 13 18 7 10 13 1 3 5 7 10 13 18 7 10 13 17 18 23 39 60 79 30 39 60 79 32 13 17 18 23 39 60 79 32 13 1 3 5 7 10 13 17 23 32 13 20 36 90 46 91 112 64 59 20 36 64 18 59 7 10 13 18 7 10 13 1 0 1 3 5 7 10 13 20 18 36 46 91 112 90 46 91 112 90 46 91 112 64 18 59 7 10 13 18 7 1 3 5 7 10 13 18 7 10 13 20 18 36 46 91 112 64 18 59 7 10 13 20 36 90 46 1 3 5 7 10 13 18 7 10 13 17 23 32 18 59 7 10 13 1 0 1 3 5 7 10 13 17 23 32 13 18 7 10 13 17 23 32 13 17 23 30 39 1 3 5 7 10 13 17 18 23 39 51 10 87 108 131 154 10 13 20 36 64 59 20 36 64 18 59 7 10 13 1 3 5 7 10 13 17 23 30 39 1 0 1 3 5 7 10 13 17 23 30 39 51 87 1 3 5 7 10 13 18 7 10 13 20 36 90 46 1 3 5 7 10 13 17 23 32 18 59 7 10 13 18 7 10 13 17 23 32 13 18 7 10 13 1 3 5 7 10 13 17 23 30 39 60 79 30 39 51 87 7 10 60 79 32 13 17 18 23 39 1 3 5 7 10 13 17 18 23 39 1 0 1 0 1 0 1 3 5 7 10 13 18 7 10 13 17 18 23 39 51 10 87 108 1 3 5 7 10 13 17 23 32 18 59 7 10 13 20 18 36 46 91 112 90 46 1 3 5 7 10 13 17 23 30 39 1 3 5 7 10 13 20 18 36 46 62 81 100 7 10 13 18 7 1 0 1 3 5 7 10 13 17 23 30 39 60 79 30 39 60 79 32 13 20 36 64 18 59 7 10 13 17 23 1 0 1 3 5 7 10 13 17 18 23 39 60 79 32 13 20 36 64 59 17 18 23 39 1 0 1 3 5 7 10 13 20 36 64 59 20 18 36 46 62 81 152 174 17 23 1 3 5 7 10 13 17 23 32 13 20 36 90 46 62 81 152 174 17 23 1 0 1 0 1 3 5 7 10 13 18 7 10 13 20 18 36 46 62 10 81 174 197 220 241 262 197 220 1 3 5 7 10 13 17 23 32 13 1 3 5 7 10 13 17 23 32 13 17 18 23 39 1 3 5 7 10 13 18 7 10 13 17 18 23 39 51 10 87 108 176 199 64 59 20 18 36 46 62 81 1 0 1 3 5 7 10 13 20 18 36 46 62 10 81 174 197 220 241 262 197 220 241 262 347 320 368 174 197 220 1 0 1 3 5 7 10 13 20 18 36 46 62 81 152 174 17 18 23 39 60 79;
start->0
0 -> 1[label = "turn-doorknob-start( robot1 room1 room2 door1 grip)"]
64 -> 59[label = "drop-end( robot1 ball2 room2 grip)"]
64 -> 18[label = "move-start( robot1 room2 room1 door1)"]
320 -> 368[label = "drop-start( robot1 ball1 room2 grip)"]
320 -> 18[label = "move-start( robot1 room2 room1 door1)"]
1 -> 0[label = "turn-doorknob-end( robot1 room1 room2 door1 grip)"]
1 -> 3[label = "open-door-start( robot1 room1 room2 door1 grip)"]
3 -> 5[label = "open-door-end( robot1 room1 room2 door1 grip)"]
131 -> 154[label = "move-end( robot1 room2 room1 door1)"]
5 -> 7[label = "turn-doorknob-end( robot1 room1 room2 door1 grip)"]
197 -> 220[label = "move-end( robot1 room2 room1 door1)"]
262 -> 347[label = "pick-start( robot1 ball1 room2 grip)"]
262 -> 197[label = "move-start( robot1 room2 room1 door1)"]
7 -> 10[label = "move-start( robot1 room1 room2 door1)"]
199 -> 64[label = "drop-start( robot1 ball2 room2 grip)"]
199 -> 30[label = "move-start( robot1 room2 room1 door1)"]
10 -> 81[label = "drop-end( robot1 ball2 room1 grip)"]
10 -> 87[label = "drop-end( robot1 ball1 room1 grip)"]
10 -> 60[label = "pick-end( robot1 ball1 room1 grip)"]
10 -> 13[label = "move-end( robot1 room1 room2 door1)"]
13 -> 20[label = "pick-start( robot1 ball2 room2 grip)"]
13 -> 17[label = "pick-start( robot1 ball1 room2 grip)"]
13 -> 18[label = "move-start( robot1 room2 room1 door1)"]
79 -> 32[label = "drop-start( robot1 ball1 room2 grip)"]
79 -> 30[label = "move-start( robot1 room2 room1 door1)"]
17 -> 23[label = "pick-end( robot1 ball1 room2 grip)"]
17 -> 18[label = "move-start( robot1 room2 room1 door1)"]
81 -> 152[label = "move-start( robot1 room1 room2 door1)"]
81 -> 174[label = "move-end( robot1 room1 room2 door1)"]
81 -> 100[label = "pick-start( robot1 ball2 room1 grip)"]
18 -> 36[label = "pick-end( robot1 ball2 room2 grip)"]
18 -> 23[label = "pick-end( robot1 ball1 room2 grip)"]
18 -> 7[label = "move-end( robot1 room2 room1 door1)"]
18 -> 59[label = "drop-end( robot1 ball2 room2 grip)"]
18 -> 59[label = "drop-end( robot1 ball1 room2 grip)"]
20 -> 36[label = "pick-end( robot1 ball2 room2 grip)"]
20 -> 18[label = "move-start( robot1 room2 room1 door1)"]
23 -> 32[label = "drop-start( robot1 ball1 room2 grip)"]
23 -> 39[label = "move-end( robot1 room2 room1 door1)"]
23 -> 30[label = "move-start( robot1 room2 room1 door1)"]
87 -> 108[label = "move-end( robot1 room1 room2 door1)"]
87 -> 7[label = "pick-start( robot1 ball1 room1 grip)"]
152 -> 174[label = "move-end( robot1 room1 room2 door1)"]
90 -> 46[label = "move-end( robot1 room2 room1 door1)"]
154 -> 10[label = "move-start( robot1 room1 room2 door1)"]
154 -> 7[label = "pick-start( robot1 ball1 room1 grip)"]
91 -> 112[label = "move-end( robot1 room1 room2 door1)"]
347 -> 320[label = "pick-end( robot1 ball1 room2 grip)"]
220 -> 241[label = "move-start( robot1 room1 room2 door1)"]
30 -> 39[label = "move-end( robot1 room2 room1 door1)"]
32 -> 18[label = "move-start( robot1 room2 room1 door1)"]
32 -> 13[label = "drop-end( robot1 ball1 room2 grip)"]
36 -> 46[label = "move-end( robot1 room2 room1 door1)"]
36 -> 64[label = "drop-start( robot1 ball2 room2 grip)"]
36 -> 90[label = "move-start( robot1 room2 room1 door1)"]
100 -> 7[label = "pick-end( robot1 ball2 room1 grip)"]
39 -> 220[label = "drop-start( robot1 ball2 room1 grip)"]
39 -> 51[label = "drop-start( robot1 ball1 room1 grip)"]
39 -> 60[label = "move-start( robot1 room1 room2 door1)"]
108 -> 176[label = "pick-start( robot1 ball2 room2 grip)"]
108 -> 131[label = "move-start( robot1 room2 room1 door1)"]
46 -> 62[label = "drop-start( robot1 ball2 room1 grip)"]
46 -> 91[label = "move-start( robot1 room1 room2 door1)"]
174 -> 17[label = "pick-start( robot1 ball1 room2 grip)"]
174 -> 197[label = "move-start( robot1 room2 room1 door1)"]
112 -> 64[label = "drop-start( robot1 ball2 room2 grip)"]
112 -> 90[label = "move-start( robot1 room2 room1 door1)"]
176 -> 199[label = "pick-end( robot1 ball2 room2 grip)"]
304 -> 320[label = "move-end( robot1 room1 room2 door1)"]
368 -> 174[label = "drop-end( robot1 ball1 room2 grip)"]
241 -> 304[label = "drop-end( robot1 ball2 room1 grip)"]
241 -> 262[label = "move-end( robot1 room1 room2 door1)"]
51 -> 10[label = "move-start( robot1 room1 room2 door1)"]
51 -> 87[label = "drop-end( robot1 ball1 room1 grip)"]
59 -> 20[label = "pick-start( robot1 ball2 room2 grip)"]
59 -> 7[label = "move-end( robot1 room2 room1 door1)"]
59 -> 17[label = "pick-start( robot1 ball1 room2 grip)"]
60 -> 79[label = "move-end( robot1 room1 room2 door1)"]
62 -> 81[label = "drop-end( robot1 ball2 room1 grip)"]
62 -> 10[label = "move-start( robot1 room1 room2 door1)"]
}
