digraph fsa{
rankdir=LR
graph [bgcolor=white];
start [shape=none]
node [shape = doublecircle]; 0 1 2 12 26 2 4 13 7 17 66 43 75 13 12 2 5 7 17 48 67 43 12 1 6 15 8 18 20 39 92 30 26 2 4 1 30 26 12 2 7 17 12 2 4 13 7 17 12 1 8 18 26 2 7 17 12 2 4 1 30 10 20 26 12 2 9 12 7 17 72 63 66 43 12 1 8 18 34 53 26 1 10 20 6 15 18 92 39 30 26 2 7 17 36 55 75 13 12 1 10 2 13 12 26 2 7 17 12 2 7 17 10 20 6 15 12 1 8 18 26 1 8 18 39 30 26 1 2 4 13 12 26 1 8 18 41 46 39 30 26 1 10 20 8 18 26 1 8 18 43 12 26 2 9 12 26 63 66 43 12 2 7 17 10 20 67 43 12 1 8 18 26 1 2 12 26 1 6 2 15 12 26 2 9 1 46 34 53 26 12 1 8 18 39 30 26;
start->0
0 -> 2[label = "light_match-start( match1)"]
0 -> 1[label = "light_match-start( match0)"]
1 -> 10[label = "mend_fuse-start( fuse0 match0)"]
1 -> 30[label = "mend_fuse-end( fuse1 match1)"]
1 -> 46[label = "mend_fuse-end( fuse0 match1)"]
1 -> 2[label = "light_match-start( match1)"]
1 -> 6[label = "mend_fuse-start( fuse2 match0)"]
1 -> 8[label = "mend_fuse-start( fuse1 match0)"]
1 -> 8[label = "light_match-end( match0)"]
2 -> 9[label = "mend_fuse-start( fuse0 match1)"]
2 -> 13[label = "mend_fuse-end( fuse0 match0)"]
2 -> 5[label = "mend_fuse-start( fuse2 match1)"]
2 -> 4[label = "mend_fuse-start( fuse1 match1)"]
2 -> 7[label = "light_match-end( match1)"]
2 -> 12[label = "light_match-end( match0)"]
2 -> 15[label = "mend_fuse-end( fuse2 match0)"]
66 -> 43[label = "mend_fuse-end( fuse2 match0)"]
67 -> 43[label = "mend_fuse-end( fuse1 match0)"]
4 -> 13[label = "mend_fuse-end( fuse1 match1)"]
4 -> 1[label = "light_match-start( match0)"]
5 -> 7[label = "mend_fuse-end( fuse2 match1)"]
6 -> 2[label = "light_match-start( match1)"]
6 -> 15[label = "mend_fuse-end( fuse2 match0)"]
7 -> 17[label = "light_match-start( match0)"]
8 -> 18[label = "light_match-start( match1)"]
72 -> 63[label = "light_match-end( match1)"]
9 -> 12[label = "mend_fuse-end( fuse0 match1)"]
9 -> 1[label = "light_match-start( match0)"]
10 -> 20[label = "mend_fuse-end( fuse0 match0)"]
10 -> 2[label = "light_match-start( match1)"]
75 -> 13[label = "mend_fuse-end( fuse0 match0)"]
12 -> 26[label = "light_match-end( match1)"]
12 -> 7[label = "mend_fuse-start( fuse1 match1)"]
13 -> 7[label = "light_match-end( match1)"]
13 -> 12[label = "light_match-end( match0)"]
15 -> 8[label = "mend_fuse-start( fuse0 match0)"]
15 -> 18[label = "light_match-start( match1)"]
15 -> 12[label = "light_match-end( match0)"]
17 -> 10[label = "mend_fuse-start( fuse0 match0)"]
17 -> 72[label = "mend_fuse-end( fuse1 match1)"]
17 -> 66[label = "mend_fuse-start( fuse2 match0)"]
17 -> 48[label = "light_match-end( match1)"]
17 -> 36[label = "mend_fuse-start( fuse1 match0)"]
17 -> 12[label = "light_match-end( match0)"]
18 -> 41[label = "mend_fuse-start( fuse0 match1)"]
18 -> 43[label = "mend_fuse-end( fuse1 match0)"]
18 -> 20[label = "mend_fuse-end( fuse0 match0)"]
18 -> 34[label = "mend_fuse-start( fuse2 match1)"]
18 -> 26[label = "light_match-end( match1)"]
18 -> 39[label = "mend_fuse-start( fuse1 match1)"]
18 -> 92[label = "light_match-end( match0)"]
20 -> 6[label = "mend_fuse-start( fuse2 match0)"]
20 -> 39[label = "mend_fuse-start( fuse1 match1)"]
20 -> 26[label = "light_match-end( match1)"]
20 -> 67[label = "mend_fuse-start( fuse1 match0)"]
20 -> 8[label = "light_match-end( match0)"]
26 -> 63[label = "light_match-start( match0)"]
26 -> 12[label = "light_match-end( match0)"]
92 -> 30[label = "mend_fuse-end( fuse1 match1)"]
92 -> 39[label = "mend_fuse-start( fuse1 match1)"]
30 -> 10[label = "mend_fuse-start( fuse0 match0)"]
30 -> 26[label = "light_match-end( match1)"]
34 -> 53[label = "mend_fuse-end( fuse2 match1)"]
36 -> 55[label = "mend_fuse-end( fuse1 match0)"]
39 -> 30[label = "mend_fuse-end( fuse1 match1)"]
39 -> 92[label = "light_match-end( match0)"]
41 -> 46[label = "mend_fuse-end( fuse0 match1)"]
43 -> 75[label = "mend_fuse-start( fuse0 match0)"]
43 -> 12[label = "light_match-end( match0)"]
46 -> 34[label = "mend_fuse-start( fuse2 match1)"]
46 -> 39[label = "mend_fuse-start( fuse1 match1)"]
48 -> 67[label = "mend_fuse-start( fuse1 match0)"]
53 -> 26[label = "light_match-end( match1)"]
55 -> 75[label = "mend_fuse-start( fuse0 match0)"]
63 -> 66[label = "mend_fuse-start( fuse2 match0)"]
}
