digraph fsa{
rankdir=LR
graph [bgcolor=white];
start [shape=none]
node [shape = doublecircle]; 0 1 2 1 2 7 9 12 15 18 22 26 30 36 15 18 22 26 32 38 47 55 66 127 1 2 1 2 7 9 12 15 18 22 26 31 37 30 37 36 49 84 98 18 22 26 30 36 15 18 22 26 59 70 30 57 68 126 36 15 18 22 26 32 38 47 1 2 1 2 7 9 12 15 18 22 26 32 38 30 38 36 47 68 79 113 130 144 57 68 79 113 130 144 55 66 127 30 36 15 18 22 26 32 38 30 38 36 47 68 79 113 130 144 57 68 79 1 2 1 2 7 9 12 15 18 22 26 30 36 15 18 22 26 1 2 0 1 2 0 1 2 1 2 7 9 12 15 18 22 26 30 36 15 1 2 0 1 2 0 1 2 0 1 2 0 1 2 1 2 7 9 12 15 18 22 26 30 36 15 18 22 26 30 36 15 18 22 26 32 38 47 1 2 1 2 7 9 12 15 18 22 26 31 37 30 37 36 49 84 98 18 22 26 30 36 15 1 2 1 2 7 9 12 15 18 22 26 32 38 47 55 66 30 57 68 70 36 15 18 22 26 31 37 49 186 202 222 320 337 353 186 202 222 320 337 353 417 428 57 1 2 0 1 2 1 2 7 9 12 15 18 22 26 31 37 49 1 2 1 2 7 9 12 15 18 22 26 32 38 30 38 36 47 68 79 93 107 18 107 22 124 207 227 31 37 30 37 36 49 84 98 18 22 26 30 36 15 18 22 26 59 70 30 57 68 126 36 15 1 2 1 2 7 9 12 15 18 22 26 30 36 15 18 22 26 32 38 30 38 36 47 68 79 113 130 144 55 66 127 30 36 15 18 22 26 31 37 49 186 202 222 1 2 1 2 7 9 12 15 18 22 26 30 36 15 18 22 26 32 38 30 38 36 47 68 79 93 107 18 107 22 124 207 227 31 37 30 37 36 49 84 98 1 2 0 1 2 1 2 7 9 12 15 18 22 26 31 37 49 59 70 30 57 68 126 36 15 18 22 26 31 37 30 37 36 49 84 98 1 2 0 1 2 0 1 2 1 2 7 9 12 15 18 22 26 32 38 30 38 36 47 68 79 93 107 18 107 22 124 207 227 358 373 387 400 413 15 18 22 26 1 2 0 1 2 0 1 2 1 2 7 9 12 15 18 22 26 32 38 47 57 68 79 93 107 124 232 15 18 113 130 113 130 144 1 2 0 1 2 0 1 2 1 2 7 9 12 15 18 22 26 32 38 30 38 36 47 68 79 113 130 144 1 2 0 1 2 0 1 2 1 2 7 9 12 15 18 22 26 31 37 49 1 2 1 2 7 9 12 15 18 22 26 32 38 30 38 36 47 68 79 113 130 144 55 66 127 32 38 47 1 2 1 2 7 9 12 15 18 22 26 32 38 30 38 36 47 68 79 113 130 144 55 66 30 57 68 70 36 15 18 22 26 1 2 1 2 7 9 12 15 18 22 26 30 36 15 18 22 26 30 36 15 18 22 26 31 37 49 186 202 222 242 262 279 1 2 1 2 7 9 12 15 18 22 26 32 38 30 38 36 47 68 79 113 130 144 55 66 127 30 36 15 1 2 1 2 7 9 12 15 18 22 26 32 38 47 55 66 30 57 68 70 36 15 18 22 26 30 36 15 18 22 26 32 38 30 38 36 47 68 79 113 130 144 57 68 79 113 130 144 1 2 1 2 7 9 12 15 18 22 26 32 38 47 57 68 79 93 107 124 1 2 1 2 7 9 12 15 18 22 26 32 38 30 38 36 47 68 79 113 130 144 57 68 79 113 130 144 57 68 79 93 107 124 232 15 18 113 130 113 130 144 55 66 127 30 36 15 1 2 0 1 2 1 2 7 9 12 15 18 22 26 30 36 15 1 2 1 2 7 9 12 15 18 22 26 30 36 15 18 22 26 32 38 47 55 66 30 57 68 70 36 15 1 2 0 1 2 1 2 7 9 12 15 18 22 26 30 36 15 18 22 26 31 37 30 37 36 49 84 98 242 262 18 113 130 113 130 144 57 68 79 113 130 144 57 68 79 297 15 18 113 130 320 337 353 1 2 1 2 7 9 12 15 18 22 26 31 37 49 59 70 30 57 68 126 36 15 18 22 26 30 36 15 18 22 26 1 2 0 1 2 1 2 7 9 12 15 18 22 26 32 38 47 55 66 127 31 37 49 186 202 222 242 262 279 297 15 18 113 130 320 337 353 417 428 57 1 2 1 2 7 9 12 15 18 22 26 30 36 15 18 22 26 32 38 30 38 36 47 68 79 113 130 144 57 68 79 113 130 144 55 66 127;
start->0
0 -> 1[label = "turn-doorknob-start( robot1 room1 room2 door1 grip)"]
1 -> 2[label = "turn-doorknob-inv( robot1 room1 room2 door1 grip)"]
2 -> 0[label = "turn-doorknob-end( robot1 room1 room2 door1 grip)"]
2 -> 1[label = "open-door-start( robot1 room1 room2 door1 grip)"]
2 -> 7[label = "open-door-inv( robot1 room1 room2 door1 grip)"]
130 -> 113[label = "pick-end( robot1 ball2 room1 grip)"]
130 -> 113[label = "drop-end( robot1 ball1 room1 grip)"]
130 -> 320[label = "pick-end( robot1 ball1 room1 grip)"]
130 -> 144[label = "move-end( robot1 room1 room2 door1)"]
387 -> 400[label = "pick-start( robot1 ball2 room1 grip)"]
262 -> 18[label = "move-start( robot1 room1 room2 door1)"]
262 -> 279[label = "drop-end( robot1 ball1 room1 grip)"]
7 -> 9[label = "open-door-end( robot1 room1 room2 door1 grip)"]
9 -> 12[label = "turn-doorknob-inv( robot1 room1 room2 door1 grip)"]
12 -> 15[label = "turn-doorknob-end( robot1 room1 room2 door1 grip)"]
15 -> 18[label = "move-start( robot1 room1 room2 door1)"]
144 -> 55[label = "drop-start( robot1 ball2 room2 grip)"]
144 -> 57[label = "move-start( robot1 room2 room1 door1)"]
400 -> 413[label = "pick-inv( robot1 ball2 room1 grip)"]
18 -> 107[label = "drop-inv( robot1 ball2 room1 grip)"]
18 -> 113[label = "pick-inv( robot1 ball1 room1 grip)"]
18 -> 22[label = "move-inv( robot1 room1 room2 door1)"]
18 -> 113[label = "pick-inv( robot1 ball2 room1 grip)"]
18 -> 113[label = "drop-inv( robot1 ball1 room1 grip)"]
22 -> 124[label = "drop-end( robot1 ball2 room1 grip)"]
22 -> 26[label = "move-end( robot1 room1 room2 door1)"]
279 -> 297[label = "pick-start( robot1 ball1 room1 grip)"]
26 -> 32[label = "pick-start( robot1 ball2 room2 grip)"]
26 -> 59[label = "drop-start( robot1 ball1 room2 grip)"]
26 -> 31[label = "pick-start( robot1 ball1 room2 grip)"]
26 -> 30[label = "move-start( robot1 room2 room1 door1)"]
413 -> 15[label = "pick-end( robot1 ball2 room1 grip)"]
30 -> 38[label = "pick-inv( robot1 ball2 room2 grip)"]
30 -> 57[label = "drop-inv( robot1 ball1 room2 grip)"]
30 -> 37[label = "pick-inv( robot1 ball1 room2 grip)"]
30 -> 57[label = "drop-inv( robot1 ball2 room2 grip)"]
30 -> 36[label = "move-inv( robot1 room2 room1 door1)"]
31 -> 37[label = "pick-inv( robot1 ball1 room2 grip)"]
32 -> 38[label = "pick-inv( robot1 ball2 room2 grip)"]
417 -> 428[label = "drop-inv( robot1 ball1 room2 grip)"]
36 -> 47[label = "pick-end( robot1 ball2 room2 grip)"]
36 -> 49[label = "pick-end( robot1 ball1 room2 grip)"]
36 -> 15[label = "move-end( robot1 room2 room1 door1)"]
37 -> 49[label = "pick-end( robot1 ball1 room2 grip)"]
37 -> 30[label = "move-start( robot1 room2 room1 door1)"]
37 -> 36[label = "move-inv( robot1 room2 room1 door1)"]
38 -> 47[label = "pick-end( robot1 ball2 room2 grip)"]
38 -> 30[label = "move-start( robot1 room2 room1 door1)"]
38 -> 36[label = "move-inv( robot1 room2 room1 door1)"]
297 -> 15[label = "pick-inv( robot1 ball1 room1 grip)"]
428 -> 57[label = "drop-end( robot1 ball1 room2 grip)"]
47 -> 55[label = "drop-start( robot1 ball2 room2 grip)"]
47 -> 57[label = "move-start( robot1 room2 room1 door1)"]
47 -> 68[label = "move-inv( robot1 room2 room1 door1)"]
49 -> 59[label = "drop-start( robot1 ball1 room2 grip)"]
49 -> 186[label = "move-start( robot1 room2 room1 door1)"]
49 -> 84[label = "move-inv( robot1 room2 room1 door1)"]
55 -> 66[label = "drop-inv( robot1 ball2 room2 grip)"]
57 -> 68[label = "move-inv( robot1 room2 room1 door1)"]
186 -> 202[label = "move-inv( robot1 room2 room1 door1)"]
59 -> 70[label = "drop-inv( robot1 ball1 room2 grip)"]
320 -> 337[label = "move-inv( robot1 room1 room2 door1)"]
66 -> 127[label = "drop-end( robot1 ball2 room2 grip)"]
66 -> 30[label = "move-start( robot1 room2 room1 door1)"]
68 -> 79[label = "move-end( robot1 room2 room1 door1)"]
68 -> 70[label = "drop-end( robot1 ball2 room2 grip)"]
68 -> 126[label = "drop-end( robot1 ball1 room2 grip)"]
70 -> 30[label = "move-start( robot1 room2 room1 door1)"]
70 -> 36[label = "move-inv( robot1 room2 room1 door1)"]
202 -> 222[label = "move-end( robot1 room2 room1 door1)"]
79 -> 93[label = "drop-start( robot1 ball2 room1 grip)"]
79 -> 113[label = "move-start( robot1 room1 room2 door1)"]
79 -> 297[label = "pick-start( robot1 ball1 room1 grip)"]
207 -> 227[label = "move-end( robot1 room1 room2 door1)"]
337 -> 353[label = "move-end( robot1 room1 room2 door1)"]
84 -> 98[label = "move-end( robot1 room2 room1 door1)"]
93 -> 107[label = "drop-inv( robot1 ball2 room1 grip)"]
222 -> 242[label = "drop-start( robot1 ball1 room1 grip)"]
222 -> 320[label = "move-start( robot1 room1 room2 door1)"]
353 -> 417[label = "drop-start( robot1 ball1 room2 grip)"]
353 -> 186[label = "move-start( robot1 room2 room1 door1)"]
98 -> 18[label = "move-start( robot1 room1 room2 door1)"]
98 -> 242[label = "drop-start( robot1 ball1 room1 grip)"]
227 -> 31[label = "pick-start( robot1 ball1 room2 grip)"]
227 -> 358[label = "move-start( robot1 room2 room1 door1)"]
358 -> 373[label = "move-inv( robot1 room2 room1 door1)"]
232 -> 15[label = "pick-inv( robot1 ball2 room1 grip)"]
107 -> 124[label = "drop-end( robot1 ball2 room1 grip)"]
107 -> 18[label = "move-start( robot1 room1 room2 door1)"]
107 -> 22[label = "move-inv( robot1 room1 room2 door1)"]
113 -> 130[label = "move-inv( robot1 room1 room2 door1)"]
242 -> 262[label = "drop-inv( robot1 ball1 room1 grip)"]
373 -> 387[label = "move-end( robot1 room2 room1 door1)"]
124 -> 207[label = "move-inv( robot1 room1 room2 door1)"]
124 -> 232[label = "pick-start( robot1 ball2 room1 grip)"]
126 -> 36[label = "move-inv( robot1 room2 room1 door1)"]
127 -> 32[label = "pick-start( robot1 ball2 room2 grip)"]
127 -> 31[label = "pick-start( robot1 ball1 room2 grip)"]
127 -> 30[label = "move-start( robot1 room2 room1 door1)"]
}
