digraph fsa{
rankdir=LR
graph [bgcolor=white];
start [shape=none]
node [shape = doublecircle]; 0 1 2 6 14 9 10 0 2 6 10 13 18 29 21 32 47 108 134 100 110 136 160 2 6 10 1 0 2 6 14 2 1 6 10 0 40 12 21 32 47 108 134 100 1 6 10 0 40 1 5 9 2 6 41 59 18 29 21 32 47 66 87 123 134 1 5 11 14 36 53 73 182 262 245 308 380 1 2 6 14 9 10 0 2 6 41 59 18 29 21 32 47 108 134 1 5 2 6 10 1 0 2 6 10 5 40 1 5 9 18 29 21 32 47 66 87 111 137 59 41 162 187 73 182 262 245 1 5 11 14 1 2 6 10 0 2 6 14 36 53 73 182 208 233 258 14 9 18 1 5 11 14 9 18 29 21 32 47 158 66 93 87 111 137 267 290 345 117 32 47 1 5 9 2 6 41 64 85 108 134 1 5 9 18 29 21 32 47 108 134 1 2 6 10 0 40 13 100 110 136 160 2 6 41 2 6 10 1 0 40 11 9 110 136 160 18 1 5 12 21 32 47 66 87 111 137 2 6 211 10 0 2 6 10 13 18 64 85 2 6 10 0 1 5 11 9 110 41 162 187 73 182 262 245 308 136 160 2 6 14 2 1 6 10 0 2 6 10 5 40 12 21 32 47 66 87 123 134 1 2 6 14 2 6 13 10 0 2 6 10 5 40 12 21 32 47 66 87 123 134 1 5 9 2 6 41 162 187 73 72 93 47 2 1 6 14 9 18 64 85 72 93 143 66 32 240 265 87 123 134 1 5 12 21 1 2 6 10 0 40 12 21 32 47 66 87 123 134 100 110 136 333 352 308 380 410 352 437 448 47 66 87 2 1 6 10 0 40 12 21 32 47 66 87 111 137 267 290 32 47 66 87 123 134 100 110 1 2 6 14 36 53 72 93 117 143 73 182 208 240 265 291 208 233 240 265 111 137 59 41 2 1 6 14 36 53 73 72 93 143 73 182 72 93 66 292 315 336 355 375 291 208 240 265 111 137 59 41 1 2 6 10 0 2 6 10 5 9 160 18 220 245 1 2 6 10 0 2 6 10 5 9 160 2 6 10 13 18 29 21 32 47 66 87 123 134 100 110 2 1 6 10 0 2 6 10 5 40 12 21 32 47 66 87 123 134 100 110 136 333 352 308 380 13 2 6 10 0 1 5 12 21 32 47 108 134 1 5 12 21 2 6 10 1 0 2 6 14 36 53 73 72 93 47 108 134 2 6 10 0 2 6 10 0 2 6 1 5 12 21 32 47 66 87 123 134 100 1 6 10 0 2 6 14 36 53 73 182 208 240 265 291 208 233 1 2 6 14 9 18 64 85 117 72 93 87 111 137 59 41 64 85 108 134 1 5 1 2 6 10 0 40 13 100 110 136 160 18 64 85 2 1 6 10 0 2 6 10 5 40 13 100 110 41 59 18 220 245 308 380 29 21 32 47 108 134 100 110 136 160;
start->0
0 -> 40[label = "refuel-end( plane1 city0 fl0 fl1)"]
0 -> 1[label = "refuel-start( plane1 city0 fl0 fl1)"]
0 -> 2[label = "board-start( person1 plane1 city0)"]
1 -> 5[label = "refuel-end( plane1 city0 fl0 fl1)"]
1 -> 0[label = "debark-end( person1 plane1 city0)"]
1 -> 2[label = "board-start( person1 plane1 city0)"]
1 -> 6[label = "board-end( person1 plane1 city0)"]
2 -> 1[label = "refuel-start( plane1 city0 fl0 fl1)"]
2 -> 6[label = "board-end( person1 plane1 city0)"]
258 -> 14[label = "fly-end( plane1 city1 city0 fl2 fl1)"]
5 -> 40[label = "debark-end( person1 plane1 city0)"]
5 -> 9[label = "refuel-start( plane1 city0 fl1 fl2)"]
5 -> 11[label = "board-start( person1 plane1 city0)"]
5 -> 12[label = "fly-start( plane1 city0 city1 fl1 fl0)"]
6 -> 14[label = "refuel-end( plane1 city0 fl0 fl1)"]
6 -> 211[label = "refuel-start( plane1 city0 fl1 fl2)"]
6 -> 13[label = "refuel-start( plane1 city0 fl0 fl1)"]
6 -> 41[label = "refuel-end( plane1 city0 fl1 fl2)"]
6 -> 10[label = "debark-start( person1 plane1 city0)"]
134 -> 1[label = "refuel-start( plane1 city0 fl0 fl1)"]
134 -> 100[label = "board-start( person1 plane1 city0)"]
262 -> 245[label = "fly-end( plane1 city1 city0 fl1 fl0)"]
136 -> 333[label = "refuel-end( plane1 city0 fl0 fl1)"]
136 -> 160[label = "debark-end( person1 plane1 city0)"]
9 -> 160[label = "debark-end( person1 plane1 city0)"]
9 -> 18[label = "refuel-end( plane1 city0 fl1 fl2)"]
9 -> 2[label = "board-start( person1 plane1 city0)"]
9 -> 10[label = "debark-start( person1 plane1 city0)"]
9 -> 110[label = "board-end( person1 plane1 city0)"]
137 -> 59[label = "refuel-start( plane1 city0 fl1 fl2)"]
137 -> 2[label = "board-start( person1 plane1 city0)"]
137 -> 267[label = "fly-start( plane1 city0 city1 fl1 fl0)"]
265 -> 87[label = "refuel-end( plane1 city1 fl1 fl2)"]
265 -> 291[label = "board-start( person1 plane1 city1)"]
265 -> 111[label = "fly-start( plane1 city1 city0 fl2 fl1)"]
10 -> 5[label = "refuel-end( plane1 city0 fl0 fl1)"]
10 -> 0[label = "debark-end( person1 plane1 city0)"]
10 -> 1[label = "refuel-start( plane1 city0 fl0 fl1)"]
10 -> 13[label = "refuel-end( plane1 city0 fl1 fl2)"]
11 -> 9[label = "refuel-start( plane1 city0 fl1 fl2)"]
11 -> 14[label = "board-end( person1 plane1 city0)"]
267 -> 290[label = "fly-end( plane1 city0 city1 fl1 fl0)"]
12 -> 21[label = "fly-end( plane1 city0 city1 fl1 fl0)"]
13 -> 18[label = "debark-end( person1 plane1 city0)"]
13 -> 100[label = "board-start( person1 plane1 city0)"]
13 -> 10[label = "debark-start( person1 plane1 city0)"]
14 -> 9[label = "refuel-start( plane1 city0 fl1 fl2)"]
14 -> 36[label = "fly-start( plane1 city0 city1 fl1 fl0)"]
143 -> 66[label = "refuel-start( plane1 city1 fl1 fl2)"]
143 -> 73[label = "board-end( person1 plane1 city1)"]
18 -> 29[label = "zoom-start( plane1 city0 city1 fl2 fl1 fl0)"]
18 -> 64[label = "fly-start( plane1 city0 city1 fl2 fl1)"]
18 -> 220[label = "board-start( person1 plane1 city0)"]
21 -> 32[label = "refuel-start( plane1 city1 fl0 fl1)"]
410 -> 352[label = "board-end( person1 plane1 city0)"]
29 -> 21[label = "zoom-end( plane1 city0 city1 fl2 fl1 fl0)"]
158 -> 66[label = "refuel-start( plane1 city1 fl1 fl2)"]
32 -> 47[label = "refuel-end( plane1 city1 fl0 fl1)"]
32 -> 240[label = "debark-start( person1 plane1 city1)"]
160 -> 18[label = "refuel-end( plane1 city0 fl1 fl2)"]
160 -> 2[label = "board-start( person1 plane1 city0)"]
162 -> 187[label = "zoom-end( plane1 city0 city1 fl2 fl1 fl0)"]
290 -> 32[label = "refuel-start( plane1 city1 fl0 fl1)"]
290 -> 345[label = "board-start( person1 plane1 city1)"]
291 -> 208[label = "board-end( person1 plane1 city1)"]
36 -> 53[label = "fly-end( plane1 city0 city1 fl1 fl0)"]
292 -> 315[label = "board-end( person1 plane1 city1)"]
40 -> 13[label = "refuel-start( plane1 city0 fl1 fl2)"]
40 -> 11[label = "board-start( person1 plane1 city0)"]
40 -> 12[label = "fly-start( plane1 city0 city1 fl1 fl0)"]
41 -> 162[label = "zoom-start( plane1 city0 city1 fl2 fl1 fl0)"]
41 -> 64[label = "fly-start( plane1 city0 city1 fl2 fl1)"]
41 -> 59[label = "debark-start( person1 plane1 city0)"]
47 -> 66[label = "refuel-start( plane1 city1 fl1 fl2)"]
47 -> 158[label = "debark-start( person1 plane1 city1)"]
47 -> 108[label = "fly-start( plane1 city1 city0 fl1 fl0)"]
308 -> 380[label = "debark-end( person1 plane1 city0)"]
308 -> 136[label = "refuel-start( plane1 city0 fl0 fl1)"]
53 -> 73[label = "refuel-start( plane1 city1 fl0 fl1)"]
53 -> 72[label = "debark-start( person1 plane1 city1)"]
437 -> 448[label = "fly-start( plane1 city0 city1 fl2 fl1)"]
182 -> 208[label = "refuel-start( plane1 city1 fl1 fl2)"]
182 -> 72[label = "debark-start( person1 plane1 city1)"]
182 -> 262[label = "fly-start( plane1 city1 city0 fl1 fl0)"]
59 -> 18[label = "debark-end( person1 plane1 city0)"]
59 -> 41[label = "refuel-end( plane1 city0 fl1 fl2)"]
187 -> 73[label = "refuel-start( plane1 city1 fl0 fl1)"]
315 -> 336[label = "debark-start( person1 plane1 city1)"]
64 -> 85[label = "fly-end( plane1 city0 city1 fl2 fl1)"]
448 -> 47[label = "fly-end( plane1 city0 city1 fl2 fl1)"]
66 -> 87[label = "refuel-end( plane1 city1 fl1 fl2)"]
66 -> 93[label = "debark-end( person1 plane1 city1)"]
66 -> 292[label = "board-start( person1 plane1 city1)"]
66 -> 32[label = "board-end( person1 plane1 city1)"]
72 -> 93[label = "debark-end( person1 plane1 city1)"]
73 -> 182[label = "refuel-end( plane1 city1 fl0 fl1)"]
73 -> 72[label = "debark-start( person1 plane1 city1)"]
333 -> 352[label = "refuel-start( plane1 city0 fl1 fl2)"]
208 -> 233[label = "refuel-end( plane1 city1 fl1 fl2)"]
208 -> 240[label = "debark-start( person1 plane1 city1)"]
336 -> 355[label = "debark-end( person1 plane1 city1)"]
211 -> 10[label = "debark-start( person1 plane1 city0)"]
85 -> 117[label = "refuel-start( plane1 city1 fl1 fl2)"]
85 -> 72[label = "debark-start( person1 plane1 city1)"]
85 -> 108[label = "fly-start( plane1 city1 city0 fl1 fl0)"]
87 -> 123[label = "zoom-start( plane1 city1 city0 fl2 fl1 fl0)"]
87 -> 111[label = "fly-start( plane1 city1 city0 fl2 fl1)"]
345 -> 117[label = "refuel-start( plane1 city1 fl0 fl1)"]
220 -> 245[label = "board-end( person1 plane1 city0)"]
93 -> 87[label = "refuel-end( plane1 city1 fl1 fl2)"]
93 -> 66[label = "refuel-start( plane1 city1 fl1 fl2)"]
93 -> 117[label = "refuel-start( plane1 city1 fl0 fl1)"]
93 -> 143[label = "board-start( person1 plane1 city1)"]
93 -> 47[label = "refuel-end( plane1 city1 fl0 fl1)"]
352 -> 437[label = "refuel-end( plane1 city0 fl1 fl2)"]
352 -> 308[label = "debark-start( person1 plane1 city0)"]
355 -> 375[label = "refuel-end( plane1 city1 fl1 fl2)"]
100 -> 1[label = "refuel-start( plane1 city0 fl0 fl1)"]
100 -> 110[label = "board-end( person1 plane1 city0)"]
233 -> 240[label = "debark-start( person1 plane1 city1)"]
233 -> 258[label = "fly-start( plane1 city1 city0 fl2 fl1)"]
108 -> 134[label = "fly-end( plane1 city1 city0 fl1 fl0)"]
110 -> 41[label = "refuel-end( plane1 city0 fl1 fl2)"]
110 -> 136[label = "refuel-start( plane1 city0 fl0 fl1)"]
110 -> 136[label = "debark-start( person1 plane1 city0)"]
111 -> 137[label = "fly-end( plane1 city1 city0 fl2 fl1)"]
240 -> 265[label = "debark-end( person1 plane1 city1)"]
117 -> 143[label = "board-start( person1 plane1 city1)"]
117 -> 72[label = "debark-start( person1 plane1 city1)"]
117 -> 32[label = "board-end( person1 plane1 city1)"]
245 -> 1[label = "refuel-start( plane1 city0 fl0 fl1)"]
245 -> 308[label = "debark-start( person1 plane1 city0)"]
375 -> 291[label = "board-start( person1 plane1 city1)"]
123 -> 134[label = "zoom-end( plane1 city1 city0 fl2 fl1 fl0)"]
380 -> 29[label = "zoom-start( plane1 city0 city1 fl2 fl1 fl0)"]
380 -> 13[label = "refuel-end( plane1 city0 fl1 fl2)"]
380 -> 410[label = "board-start( person1 plane1 city0)"]
}
