digraph fsa{
rankdir=LR
graph [bgcolor=white];
start [shape=none]
node [shape = doublecircle]; 0 1 2 6 13 23 4 12 20 31 45 62 84 108 85 109 2 6 15 26 40 72 96 1 4 8 2 6 13 23 47 66 22 2 1 6 15 13 8 0 2 6 126 152 23 34 45 63 85 109 2 6 13 23 4 8 2 6 126 1 2 6 15 26 40 31 72 96 120 146 178 2 6 10 13 23 4 8 2 6 13 23 47 66 22 1 4 2 6 13 23 8 22 105 20 31 45 62 84 108 85 160 185 297 1 0 2 6 15 29 13 23 22 105 20 1 4 2 6 29 13 23 47 66 13 22 181 105 20 31 45 62 84 108 85 160 1 6 13 23 4 1 2 6 13 23 4 12 20 31 45 63 85 160 185 1 4 8 2 6 13 23 47 66 13 22 181 207 229 249 181 207 229 164 178 219 360 62 84 2 6 10 15 13 23 8 22 105 20 31 45 62 84 108 85 109 134 1 4 12 20 31 45 62 84 108 85 160 185 10 13 23 4 8 22 111 126 164 178 219 241 260 185 297 0 1 4 1 4 12 20 31 45 63 85 109 134 12 20 1 2 6 13 23 4 8 22 34 45 63 85 160 1 6 15 29 13 23 22 111 126 374 383 171 178 219 360 62 84 2 1 6 15 13 8 0 2 6 13 22 181 1 2 6 15 13 8 0 22 111 126 164 178 72 96 2 1 6 13 23 47 66 13 4 0 2 6 13 8 0 22 105 20 1 4 8 22 34 45 63 85 109 134 47 66 152 126 152 23 34 45 1 2 6 13 23 47 66 15 26 40 72 31 119 96 120 146 1 2 6 13 23 4 12 20 31 45 63 85 109 2 6 13 23 4 2 6 13 23 12 20 31 45 1 2 6 15 13 23 12 20 31 45 63 85 160 185 10 15 29 13 23 47 66 22 1 4 12 20 31 45 63 85 109 134 12 20 31 45 63 85 109 134 1 2 6 13 23 47 66 13 4 0 1 2 6 13 23 4 2 6 13 23 2 1 6 15 13 23 47 66 26 40 72 96 2 1 6 15 26 40 72 31 119 120 146 178 72 96 259 278 249 313 326 339 20 31 146 178 1 2 6 15 26 40 72 96 120 146 171 178 219 241 260 185 297 0 2 1 6 15 1 2 6 15 29 13 23 22 34 45 63 85 1 4 8 22 34 45 62 84 108 85 160 1 6 15 29 13 23 47 66 13 22 181 1 4 12 20 31 45 63 85 109 2 6 13 23 47 66 13 4 8 0 22 34 45 62 84 393 400 8 22 34 45 2 1 6 15 26 40 72 96 120 31 146 178 222 29 13 23;
start->0
0 -> 1[label = "refuel-start( plane1 city0 fl0 fl1)"]
0 -> 22[label = "refuel-end( plane1 city0 fl1 fl2)"]
0 -> 2[label = "board-start( person1 plane1 city0)"]
1 -> 4[label = "refuel-end( plane1 city0 fl0 fl1)"]
1 -> 0[label = "debark-end( person1 plane1 city0)"]
1 -> 2[label = "board-start( person1 plane1 city0)"]
1 -> 6[label = "board-end( person1 plane1 city0)"]
2 -> 1[label = "refuel-start( plane1 city0 fl0 fl1)"]
2 -> 6[label = "board-end( person1 plane1 city0)"]
259 -> 278[label = "fly-end( plane1 city1 city0 fl1 fl0)"]
4 -> 0[label = "debark-end( person1 plane1 city0)"]
4 -> 8[label = "refuel-start( plane1 city0 fl1 fl2)"]
4 -> 2[label = "board-start( person1 plane1 city0)"]
4 -> 12[label = "fly-start( plane1 city0 city1 fl1 fl0)"]
260 -> 185[label = "zoom-end( plane1 city1 city0 fl2 fl1 fl0)"]
6 -> 15[label = "refuel-end( plane1 city0 fl0 fl1)"]
6 -> 29[label = "refuel-start( plane1 city0 fl1 fl2)"]
6 -> 10[label = "refuel-start( plane1 city0 fl0 fl1)"]
6 -> 126[label = "refuel-end( plane1 city0 fl1 fl2)"]
6 -> 13[label = "debark-start( person1 plane1 city0)"]
134 -> 47[label = "board-start( person1 plane1 city0)"]
134 -> 12[label = "fly-start( plane1 city0 city1 fl1 fl0)"]
8 -> 0[label = "debark-end( person1 plane1 city0)"]
8 -> 22[label = "refuel-end( plane1 city0 fl1 fl2)"]
8 -> 2[label = "board-start( person1 plane1 city0)"]
393 -> 400[label = "fly-end( plane1 city1 city0 fl2 fl1)"]
10 -> 15[label = "refuel-end( plane1 city0 fl0 fl1)"]
10 -> 13[label = "debark-start( person1 plane1 city0)"]
12 -> 20[label = "fly-end( plane1 city0 city1 fl1 fl0)"]
13 -> 4[label = "refuel-end( plane1 city0 fl0 fl1)"]
13 -> 23[label = "debark-end( person1 plane1 city0)"]
13 -> 8[label = "refuel-start( plane1 city0 fl1 fl2)"]
13 -> 22[label = "refuel-end( plane1 city0 fl1 fl2)"]
15 -> 29[label = "refuel-start( plane1 city0 fl1 fl2)"]
15 -> 13[label = "debark-start( person1 plane1 city0)"]
15 -> 26[label = "fly-start( plane1 city0 city1 fl1 fl0)"]
400 -> 8[label = "refuel-start( plane1 city0 fl1 fl2)"]
146 -> 171[label = "refuel-start( plane1 city1 fl0 fl1)"]
146 -> 178[label = "refuel-end( plane1 city1 fl0 fl1)"]
20 -> 31[label = "refuel-start( plane1 city1 fl0 fl1)"]
22 -> 181[label = "debark-end( person1 plane1 city0)"]
22 -> 105[label = "zoom-start( plane1 city0 city1 fl2 fl1 fl0)"]
22 -> 34[label = "fly-start( plane1 city0 city1 fl2 fl1)"]
22 -> 111[label = "board-start( person1 plane1 city0)"]
278 -> 249[label = "refuel-start( plane1 city0 fl0 fl1)"]
23 -> 4[label = "refuel-end( plane1 city0 fl0 fl1)"]
23 -> 8[label = "refuel-start( plane1 city0 fl1 fl2)"]
23 -> 22[label = "refuel-end( plane1 city0 fl1 fl2)"]
23 -> 34[label = "fly-start( plane1 city0 city1 fl2 fl1)"]
23 -> 47[label = "board-start( person1 plane1 city0)"]
23 -> 12[label = "fly-start( plane1 city0 city1 fl1 fl0)"]
152 -> 23[label = "debark-end( person1 plane1 city0)"]
152 -> 126[label = "refuel-end( plane1 city0 fl1 fl2)"]
26 -> 40[label = "fly-end( plane1 city0 city1 fl1 fl0)"]
29 -> 13[label = "debark-start( person1 plane1 city0)"]
31 -> 119[label = "debark-end( person1 plane1 city1)"]
31 -> 45[label = "refuel-end( plane1 city1 fl0 fl1)"]
31 -> 72[label = "debark-start( person1 plane1 city1)"]
31 -> 146[label = "board-end( person1 plane1 city1)"]
160 -> 1[label = "refuel-start( plane1 city0 fl0 fl1)"]
160 -> 185[label = "board-end( person1 plane1 city0)"]
34 -> 45[label = "fly-end( plane1 city0 city1 fl2 fl1)"]
164 -> 178[label = "fly-end( plane1 city0 city1 fl2 fl1)"]
40 -> 31[label = "refuel-start( plane1 city1 fl0 fl1)"]
40 -> 72[label = "debark-start( person1 plane1 city1)"]
297 -> 0[label = "debark-end( person1 plane1 city0)"]
297 -> 1[label = "refuel-start( plane1 city0 fl0 fl1)"]
171 -> 178[label = "refuel-end( plane1 city1 fl0 fl1)"]
45 -> 62[label = "refuel-start( plane1 city1 fl1 fl2)"]
45 -> 63[label = "fly-start( plane1 city1 city0 fl1 fl0)"]
47 -> 66[label = "board-end( person1 plane1 city0)"]
178 -> 219[label = "refuel-start( plane1 city1 fl1 fl2)"]
178 -> 72[label = "debark-start( person1 plane1 city1)"]
178 -> 222[label = "fly-start( plane1 city1 city0 fl1 fl0)"]
181 -> 105[label = "zoom-start( plane1 city0 city1 fl2 fl1 fl0)"]
181 -> 207[label = "board-start( person1 plane1 city0)"]
185 -> 10[label = "refuel-start( plane1 city0 fl0 fl1)"]
185 -> 297[label = "debark-start( person1 plane1 city0)"]
313 -> 326[label = "fly-start( plane1 city0 city1 fl1 fl0)"]
62 -> 84[label = "refuel-end( plane1 city1 fl1 fl2)"]
63 -> 85[label = "fly-end( plane1 city1 city0 fl1 fl0)"]
66 -> 15[label = "refuel-end( plane1 city0 fl0 fl1)"]
66 -> 152[label = "refuel-start( plane1 city0 fl1 fl2)"]
66 -> 22[label = "refuel-end( plane1 city0 fl1 fl2)"]
66 -> 13[label = "debark-start( person1 plane1 city0)"]
66 -> 26[label = "fly-start( plane1 city0 city1 fl1 fl0)"]
326 -> 339[label = "fly-end( plane1 city0 city1 fl1 fl0)"]
72 -> 96[label = "debark-end( person1 plane1 city1)"]
72 -> 31[label = "refuel-start( plane1 city1 fl0 fl1)"]
207 -> 229[label = "board-end( person1 plane1 city0)"]
339 -> 20[label = "board-start( person1 plane1 city1)"]
84 -> 108[label = "zoom-start( plane1 city1 city0 fl2 fl1 fl0)"]
84 -> 393[label = "fly-start( plane1 city1 city0 fl2 fl1)"]
85 -> 109[label = "refuel-start( plane1 city0 fl0 fl1)"]
85 -> 160[label = "board-start( person1 plane1 city0)"]
219 -> 241[label = "refuel-end( plane1 city1 fl1 fl2)"]
219 -> 360[label = "debark-start( person1 plane1 city1)"]
222 -> 29[label = "fly-end( plane1 city1 city0 fl1 fl0)"]
96 -> 120[label = "board-start( person1 plane1 city1)"]
96 -> 259[label = "fly-start( plane1 city1 city0 fl1 fl0)"]
229 -> 164[label = "fly-start( plane1 city0 city1 fl2 fl1)"]
229 -> 249[label = "debark-start( person1 plane1 city0)"]
360 -> 62[label = "debark-end( person1 plane1 city1)"]
105 -> 20[label = "zoom-end( plane1 city0 city1 fl2 fl1 fl0)"]
108 -> 85[label = "zoom-end( plane1 city1 city0 fl2 fl1 fl0)"]
109 -> 134[label = "refuel-end( plane1 city0 fl0 fl1)"]
109 -> 2[label = "board-start( person1 plane1 city0)"]
111 -> 126[label = "board-end( person1 plane1 city0)"]
241 -> 260[label = "zoom-start( plane1 city1 city0 fl2 fl1 fl0)"]
374 -> 383[label = "zoom-end( plane1 city0 city1 fl2 fl1 fl0)"]
119 -> 120[label = "board-start( person1 plane1 city1)"]
119 -> 96[label = "refuel-end( plane1 city1 fl0 fl1)"]
120 -> 31[label = "refuel-start( plane1 city1 fl0 fl1)"]
120 -> 146[label = "board-end( person1 plane1 city1)"]
249 -> 313[label = "refuel-end( plane1 city0 fl0 fl1)"]
249 -> 181[label = "debark-end( person1 plane1 city0)"]
126 -> 374[label = "zoom-start( plane1 city0 city1 fl2 fl1 fl0)"]
126 -> 164[label = "fly-start( plane1 city0 city1 fl2 fl1)"]
126 -> 152[label = "debark-start( person1 plane1 city0)"]
383 -> 171[label = "refuel-start( plane1 city1 fl0 fl1)"]
}
