digraph fsa{
rankdir=LR
graph [bgcolor=white];
start [shape=none]
node [shape = doublecircle]; 0 1 2 3 4 6 0 1 2 3 5 7 9 11 14 17 20 26 32 94 109 124 139 160 181 202 222 124 1 2 3 4 6 0 1 2 3 5 7 9 12 15 18 21 27 9 11 14 17 24 30 36 44 52 17 20 26 32 39 47 17 24 30 36 1 2 3 5 7 9 11 14 17 20 26 32 39 47 17 1 2 3 5 7 9 12 15 18 21 27 9 12 15 18 22 28 34 41 49 18 22 28 34 41 49 18 21 27 9 12 15 18 1 2 3 5 7 9 12 15 18 22 28 34 41 49 18 22 28 34 41 49 18 21 27 9 1 2 3 5 7 9 12 15 18 21 27 9 11 14 17 20 26 32 39 47 17 20 26 32 94 109 124 1 2 3 4 6 0 1 2 3 4 6 0 1 2 3 5 7 9 11 14 17 24 30 36 44 52 17 24 30 36 44 52 17 20 26 32 1 2 3 5 7 9 11 14 17 24 30 36 44 52 17 24 30 36 44 52 17 24 30 36 44 52 17 20 26 32 1 2 3 4 6 0 1 2 3 5 7 9 11 14 17 24 30 36 44 52 17 24 30 36 44 52 17 24 30 36 44 52 17 20 26 32 94 109 124 139 160 181 202 222 124 1 2 3 4 6 0 1 2 3 5 7 9 11 14 17 24 30 36 1 2 3 4 6 0 1 2 3 4 6 0 1 2 3 4 6 0 1 2 3 5 7 9 12 15 18 21 27 9 11 14 17 20 26 32 94 109 124 1 2 3 5 7 9 12 15 18 22 28 34 41 49 18 21 27 9 12 15 18 1 2 3 4 6 0 1 2 3 5 7 9 11 14 17 20 26 32 94 109 124 148 169 32 94 109 124 139 160 181 202 222 124 139 160 181 202 222 124 148 169 32 1 2 3 5 7 9 12 15 18 22 28 34 41 49 18 21 27 9 11 14 17 20 26 32 94 109 124 148 169 32 1 2 3 4 6 0 1 2 3 5 7 9 12 15 18 21 27 9 11 14 17 24 30 36 44 52 17 24 30 36 44 52 17 24 30 36 1 2 3 4 6 0 1 2 3 5 7 9 12 15 18 21 27 9 11 14 17 20 26 32 39 47 17 20 26 32 94 109 124 139 160 181 202 222 124 148 169 32 94 109 124 1 2 3 5 7 9 12 15 18 22 28 34 41 49 18 21 27 9 11 14 17 24 30 36 1 2 3 4 6 0 1 2 3 4 6 0 1 2 3 5 7 9 12 15 18 21 27 9 12 15 18 22 28 34 1 2 3 4 6 0 1 2 3 5 7 9 11 14 17 20 26 32 94 109 124 148 169 32 39 47 17 20 26 32 94 109 124 139 160 181 1 2 3 5 7 9 12 15 18 22 28 34 41 49 18 22 28 34 41 49 18 22 28 34 41 49 18 22 28 34 41 49 18 22 28 34 41 49 18 1 2 3 4 6 0 1 2 3 4 6 0 1 2 3 4 6 0 1 2 3 5 7 9 11 14 17 24 30 36 44 52 17 1 2 3 4 6 0 1 2 3 4 6 0 1 2 3 5 7 9 12 15 18 22 28 34 41 49 18 1 2 3 5 7 9 12 15 18 22 28 34 41 49 18 1 2 3 5 7 9 12 15 18 22 28 34 41 49 18 21 27 9 1 2 3 4 6 0 1 2 3 5 7 9 12 15 18 21 27 9 12 15 18 21 27 9 12 15 18 21 27 9 1 2 3 5 7 9 11 14 17 24 30 36 44 52 17 24 30 36 44 52 17 20 26 32 39 47 17 1 2 3 5 7 9 11 14 17 20 26 32 39 47 17 24 30 36 44 52 17 24 30 36 44 52 17 24 30 36 44 52 17 20 26 32 94 109 124 139 160 181 1 2 3 4 6 0 1 2 3 5 7 9 11 14 17 20 26 32 39 47 17 20 26 32 94 109 124 148 169 32 94 109 124 1 2 3 5 7 9 11 14 17 20 26 32 39 47 17 24 30 36 44 52 17 24 30 36 44 52 17 20 26 32 94 109 124 148 169 32 1 2 3 5 7 9 12 15 18 22 28 34 41 49 18 21 27 9 12 15 18 21 27 9;
start->0
0 -> 1[label = "move-start( player f0-0f f1-0f down)"]
1 -> 2[label = "move-inv( player f0-0f f1-0f down)"]
2 -> 3[label = "move-end( player f0-0f f1-0f down)"]
3 -> 4[label = "move-start( player f1-0f f0-0f up)"]
3 -> 5[label = "push-start( player box0 f1-0f f1-1f f1-2f right)"]
4 -> 6[label = "move-inv( player f1-0f f0-0f up)"]
5 -> 7[label = "push-inv( player box0 f1-0f f1-1f f1-2f right)"]
6 -> 0[label = "move-end( player f1-0f f0-0f up)"]
7 -> 9[label = "push-end( player box0 f1-0f f1-1f f1-2f right)"]
9 -> 12[label = "move-start( player f1-1f f1-0f left)"]
9 -> 11[label = "push-start( player box0 f1-1f f1-2f f1-3f right)"]
202 -> 222[label = "move-inv( player f0-0f f1-0f down)"]
11 -> 14[label = "push-inv( player box0 f1-1f f1-2f f1-3f right)"]
139 -> 160[label = "move-inv( player f1-0f f0-0f up)"]
12 -> 15[label = "move-inv( player f1-1f f1-0f left)"]
14 -> 17[label = "push-end( player box0 f1-1f f1-2f f1-3f right)"]
15 -> 18[label = "move-end( player f1-1f f1-0f left)"]
17 -> 20[label = "move-start( player f1-2f f1-1f left)"]
17 -> 24[label = "move-start( player f1-2f f0-2f up)"]
18 -> 22[label = "move-start( player f1-0f f0-0f up)"]
18 -> 21[label = "move-start( player f1-0f f1-1f right)"]
20 -> 26[label = "move-inv( player f1-2f f1-1f left)"]
148 -> 169[label = "move-inv( player f1-0f f1-1f right)"]
21 -> 27[label = "move-inv( player f1-0f f1-1f right)"]
22 -> 28[label = "move-inv( player f1-0f f0-0f up)"]
24 -> 30[label = "move-inv( player f1-2f f0-2f up)"]
26 -> 32[label = "move-end( player f1-2f f1-1f left)"]
27 -> 9[label = "move-end( player f1-0f f1-1f right)"]
28 -> 34[label = "move-end( player f1-0f f0-0f up)"]
30 -> 36[label = "move-end( player f1-2f f0-2f up)"]
94 -> 109[label = "move-inv( player f1-1f f1-0f left)"]
222 -> 124[label = "move-end( player f0-0f f1-0f down)"]
32 -> 39[label = "move-start( player f1-1f f1-2f right)"]
32 -> 94[label = "move-start( player f1-1f f1-0f left)"]
160 -> 181[label = "move-end( player f1-0f f0-0f up)"]
34 -> 41[label = "move-start( player f0-0f f1-0f down)"]
36 -> 44[label = "move-start( player f0-2f f1-2f down)"]
39 -> 47[label = "move-inv( player f1-1f f1-2f right)"]
41 -> 49[label = "move-inv( player f0-0f f1-0f down)"]
169 -> 32[label = "move-end( player f1-0f f1-1f right)"]
44 -> 52[label = "move-inv( player f0-2f f1-2f down)"]
109 -> 124[label = "move-end( player f1-1f f1-0f left)"]
47 -> 17[label = "move-end( player f1-1f f1-2f right)"]
49 -> 18[label = "move-end( player f0-0f f1-0f down)"]
52 -> 17[label = "move-end( player f0-2f f1-2f down)"]
181 -> 202[label = "move-start( player f0-0f f1-0f down)"]
124 -> 139[label = "move-start( player f1-0f f0-0f up)"]
124 -> 148[label = "move-start( player f1-0f f1-1f right)"]
}
