digraph fsa{
rankdir=LR
graph [bgcolor=white];
start [shape=none]
node [shape = doublecircle]; 0 1 3 1 3 9 17 22 57 4 1 3 4 9 25 7 1 4 1 4 22 8 4 22 66 80 93 3 1 4 22 57 89 7 3 132 146 8 1 3 7 3 9 17 22 59 4 7 3 4 1 3 4 27 1 3 4 9 25 7 1 4 8 4 24 8 4 1 4 27 1 4 27 3 80 93 3 132 146 8 1 3 9 17 25 17 25 61 75 62 35 25 66 80 93 7 1 4 1 4 22 17 25 62 57 89 7 3 132 146 8 1 3 1 3 9 17 22 57 4 1 3 4 9 25 7 1 4 10 17 22 35 1 4 10 17 22 36 22 59 36 22 35 1 4 8 4 24 8 4 10 17 22 35 1 4 1 4 27 1 4 27 3 80 93 3 132 146 8 1 3 9 17 25 35 25 66 80 93 17 25 61 75 62 111 1 3 1 3 4 1 3 4 57 89 22 62 9 25 7 1 3 9 17 25 17 25 61 75 62 35 25 66 80 93 7 1 4 1 4 22 10 22 35 1 4 1 4 27 1 4 27 3 80 93 3 132 146 8 1 4 8 4 24 8 4 10 17 22 17 22 57 89 22 35 1 4 8 4 24 1 4 24 3 8 4 22 17 25 62 57 89 7 3 132 146 8 1 4 1 4 27 1 4 8 4 24 1 4 24 3 8 4 22 10 22 35 1 3 9 17 25 17 25 61 75 62 111 1 4 10 17 22 36 22 59 36 22 17 22 57 89 22 35 1 3 9 17 25 7 1 4 10 17 22 36 22 59 36 22 35 1 3 9 17 25 7 1 4 10 17 22 35 1 3 9 17 25 35 25 66 80 93 7 1 4 1 4 22 8 4 22 66 80 93 3 132 146 8 1 3 9 17 25 17 25 61 75 62 35 25 66 80 93 7 1 3 9 17 25 17 25 61 75 62 111 1 3 9 17 25 7;
start->0
0 -> 1[label = "light_match-start( match1)"]
0 -> 1[label = "light_match-start( match0)"]
1 -> 3[label = "light_match-inv( match1)"]
1 -> 4[label = "light_match-inv( match0)"]
66 -> 80[label = "mend_fuse-end( fuse0 match0)"]
3 -> 7[label = "mend_fuse-start( fuse0 match1)"]
3 -> 9[label = "mend_fuse-inv( fuse1 match1)"]
3 -> 80[label = "mend_fuse-end( fuse1 match0)"]
3 -> 8[label = "mend_fuse-end( fuse0 match0)"]
3 -> 9[label = "mend_fuse-inv( fuse0 match1)"]
3 -> 4[label = "light_match-inv( match0)"]
3 -> 1[label = "light_match-start( match0)"]
3 -> 1[label = "mend_fuse-start( fuse1 match1)"]
3 -> 9[label = "light_match-end( match1)"]
3 -> 132[label = "light_match-end( match0)"]
4 -> 8[label = "mend_fuse-start( fuse0 match0)"]
4 -> 1[label = "mend_fuse-end( fuse1 match1)"]
4 -> 57[label = "mend_fuse-inv( fuse1 match1)"]
4 -> 22[label = "light_match-inv( match1)"]
4 -> 7[label = "mend_fuse-end( fuse0 match1)"]
4 -> 24[label = "mend_fuse-inv( fuse0 match0)"]
4 -> 1[label = "light_match-start( match1)"]
4 -> 1[label = "mend_fuse-start( fuse1 match1)"]
4 -> 9[label = "light_match-end( match1)"]
4 -> 1[label = "mend_fuse-start( fuse1 match0)"]
4 -> 10[label = "light_match-end( match0)"]
4 -> 27[label = "mend_fuse-inv( fuse1 match0)"]
132 -> 146[label = "light_match-inv( match1)"]
7 -> 3[label = "light_match-inv( match1)"]
8 -> 4[label = "light_match-inv( match0)"]
9 -> 25[label = "light_match-inv( match0)"]
9 -> 17[label = "light_match-start( match0)"]
10 -> 22[label = "light_match-inv( match1)"]
10 -> 17[label = "light_match-start( match1)"]
75 -> 62[label = "light_match-inv( match0)"]
80 -> 93[label = "light_match-inv( match0)"]
17 -> 22[label = "light_match-inv( match1)"]
17 -> 25[label = "light_match-inv( match0)"]
146 -> 8[label = "light_match-end( match1)"]
22 -> 8[label = "mend_fuse-start( fuse0 match0)"]
22 -> 36[label = "mend_fuse-start( fuse0 match1)"]
22 -> 57[label = "mend_fuse-inv( fuse1 match1)"]
22 -> 66[label = "mend_fuse-inv( fuse0 match0)"]
22 -> 59[label = "mend_fuse-inv( fuse0 match1)"]
22 -> 62[label = "light_match-inv( match0)"]
22 -> 17[label = "mend_fuse-start( fuse1 match1)"]
22 -> 35[label = "light_match-end( match1)"]
22 -> 10[label = "light_match-end( match0)"]
24 -> 3[label = "light_match-inv( match1)"]
24 -> 8[label = "mend_fuse-end( fuse0 match0)"]
24 -> 1[label = "light_match-start( match1)"]
25 -> 35[label = "mend_fuse-start( fuse0 match0)"]
25 -> 62[label = "light_match-inv( match1)"]
25 -> 66[label = "mend_fuse-inv( fuse0 match0)"]
25 -> 17[label = "mend_fuse-start( fuse1 match0)"]
25 -> 7[label = "light_match-end( match0)"]
25 -> 61[label = "mend_fuse-inv( fuse1 match0)"]
89 -> 22[label = "light_match-inv( match1)"]
89 -> 7[label = "light_match-inv( match0)"]
27 -> 1[label = "mend_fuse-end( fuse1 match0)"]
27 -> 3[label = "light_match-inv( match1)"]
27 -> 1[label = "light_match-start( match1)"]
93 -> 3[label = "light_match-inv( match1)"]
93 -> 17[label = "mend_fuse-start( fuse1 match0)"]
93 -> 7[label = "light_match-end( match0)"]
35 -> 25[label = "light_match-inv( match0)"]
36 -> 22[label = "light_match-inv( match1)"]
57 -> 89[label = "mend_fuse-end( fuse1 match1)"]
57 -> 4[label = "light_match-inv( match0)"]
59 -> 36[label = "mend_fuse-end( fuse0 match1)"]
59 -> 4[label = "light_match-inv( match0)"]
61 -> 75[label = "mend_fuse-end( fuse1 match0)"]
62 -> 35[label = "mend_fuse-start( fuse0 match0)"]
62 -> 57[label = "mend_fuse-inv( fuse1 match1)"]
62 -> 9[label = "light_match-end( match1)"]
62 -> 111[label = "light_match-end( match0)"]
}
