digraph fsa{
rankdir=LR
graph [bgcolor=white];
start [shape=none]
node [shape = doublecircle]; 0 1 3 5 6 12 1 4 19 15 39 24 37 54 67 80 28 1 4 6 12 18 24 37 48 61 74 15 21 114 126 138 6 1 4 6 12 18 1 4 9 3 6 12 3 28 43 55 1 4 1 4 19 15 39 50 63 76 63 76 116 28 43 55 1 3 1 3 20 1 3 20 4 1 3 4 28 43 4 152 145 24 37 55 76 28 1 3 5 6 12 28 1 4 9 15 21 6 1 4 6 12 18 24 37 1 4 21 1 4 21 114 126 28 43 48 138 6 1 4 9 15 21 1 3 20 28 43 55 1 3 5 6 12 24 37 54 67 80 28 1 4 6 12 18 24 37 48 61 74 6 1 3 1 3 20 28 43 55 61 81 67 80 119 131 76 28 1 3 5 6 12 28 1 4 1 4 19 15 39 50 63 76 6 1 3 5 6 12 24 37 54 67 80 6 12 120 6 12 28 1 4 9 15 21 6 1 3 1 3 20 28 43 28 43 58 1 3 5 12 145 24 37 55 76 28 1 4 1 4 19 1 4 19 3 1 4 21 28 43 55 1 3 5 6 12 1 4 19 15 39 24 37 54 67 80 28 1 3 5 6 12 1 4 19 15 39 24 37 54 67 80 28 1 3 5 6 12 28 1 3 5 6 12 28 1 3 5 6 12 24 37 54 67 80 6 12 120 6 12 28 1 4 9 15 21 28 43 58 28 43 55 1 3 1 3 4 1 3 4 19 15 21 12 28 43 4 152 145 24 37 55 76 28 1 3 5 6 12 24 37 54 67 80 28 1 4 1 4 19 1 4 19 3 1 4 21 28 43 55 1 3 5 6 12 28 1 3 5 6 12 28 1 3 1 3 4 1 3 4 19 15 21 12 5 12 28;
start->0
0 -> 1[label = "light_match-start( match1)"]
0 -> 1[label = "light_match-start( match0)"]
1 -> 4[label = "light_match-inv( match1)"]
1 -> 3[label = "light_match-inv( match0)"]
3 -> 1[label = "mend_fuse-end( fuse1 match1)"]
3 -> 4[label = "light_match-inv( match1)"]
3 -> 6[label = "mend_fuse-end( fuse0 match1)"]
3 -> 5[label = "mend_fuse-inv( fuse0 match0)"]
3 -> 1[label = "light_match-start( match1)"]
3 -> 28[label = "light_match-end( match1)"]
3 -> 1[label = "mend_fuse-start( fuse1 match0)"]
3 -> 5[label = "light_match-end( match0)"]
3 -> 20[label = "mend_fuse-inv( fuse1 match0)"]
67 -> 80[label = "light_match-inv( match1)"]
131 -> 76[label = "light_match-inv( match1)"]
4 -> 28[label = "mend_fuse-start( fuse0 match0)"]
4 -> 6[label = "mend_fuse-start( fuse0 match1)"]
4 -> 19[label = "mend_fuse-inv( fuse1 match1)"]
4 -> 1[label = "mend_fuse-end( fuse1 match0)"]
4 -> 152[label = "mend_fuse-inv( fuse0 match0)"]
4 -> 9[label = "mend_fuse-inv( fuse0 match1)"]
4 -> 21[label = "light_match-inv( match0)"]
4 -> 1[label = "mend_fuse-start( fuse1 match1)"]
4 -> 9[label = "light_match-end( match1)"]
5 -> 12[label = "light_match-inv( match1)"]
5 -> 6[label = "light_match-start( match1)"]
6 -> 12[label = "light_match-inv( match1)"]
9 -> 3[label = "light_match-inv( match0)"]
9 -> 15[label = "light_match-start( match0)"]
74 -> 15[label = "mend_fuse-start( fuse1 match0)"]
74 -> 6[label = "light_match-end( match0)"]
138 -> 6[label = "light_match-end( match0)"]
12 -> 28[label = "mend_fuse-start( fuse0 match0)"]
12 -> 24[label = "mend_fuse-start( fuse0 match1)"]
12 -> 120[label = "mend_fuse-inv( fuse1 match1)"]
12 -> 145[label = "mend_fuse-end( fuse0 match0)"]
12 -> 18[label = "mend_fuse-inv( fuse0 match1)"]
12 -> 3[label = "light_match-inv( match0)"]
12 -> 1[label = "mend_fuse-start( fuse1 match1)"]
12 -> 28[label = "light_match-end( match1)"]
12 -> 5[label = "light_match-end( match0)"]
76 -> 63[label = "mend_fuse-start( fuse0 match0)"]
76 -> 116[label = "mend_fuse-inv( fuse0 match0)"]
76 -> 28[label = "light_match-end( match1)"]
76 -> 6[label = "light_match-end( match0)"]
15 -> 39[label = "light_match-inv( match1)"]
15 -> 21[label = "light_match-inv( match0)"]
80 -> 119[label = "mend_fuse-inv( fuse0 match1)"]
80 -> 28[label = "light_match-end( match1)"]
80 -> 6[label = "mend_fuse-start( fuse1 match1)"]
81 -> 67[label = "mend_fuse-start( fuse0 match1)"]
145 -> 24[label = "light_match-inv( match0)"]
18 -> 24[label = "mend_fuse-end( fuse0 match1)"]
18 -> 1[label = "light_match-start( match0)"]
19 -> 15[label = "mend_fuse-end( fuse1 match1)"]
19 -> 3[label = "light_match-inv( match0)"]
19 -> 1[label = "light_match-start( match0)"]
20 -> 28[label = "mend_fuse-end( fuse1 match0)"]
20 -> 4[label = "light_match-inv( match1)"]
20 -> 1[label = "light_match-start( match1)"]
21 -> 28[label = "mend_fuse-start( fuse0 match0)"]
21 -> 12[label = "light_match-inv( match1)"]
21 -> 28[label = "light_match-end( match1)"]
21 -> 1[label = "mend_fuse-start( fuse1 match0)"]
21 -> 6[label = "light_match-end( match0)"]
21 -> 114[label = "mend_fuse-inv( fuse1 match0)"]
24 -> 37[label = "light_match-inv( match1)"]
152 -> 145[label = "mend_fuse-end( fuse0 match0)"]
28 -> 43[label = "light_match-inv( match0)"]
37 -> 54[label = "mend_fuse-inv( fuse0 match1)"]
37 -> 1[label = "light_match-start( match0)"]
37 -> 48[label = "light_match-end( match1)"]
37 -> 55[label = "light_match-end( match0)"]
39 -> 24[label = "mend_fuse-start( fuse0 match1)"]
39 -> 50[label = "light_match-end( match1)"]
43 -> 28[label = "mend_fuse-start( fuse0 match0)"]
43 -> 4[label = "light_match-inv( match1)"]
43 -> 58[label = "mend_fuse-inv( fuse0 match0)"]
43 -> 48[label = "light_match-end( match1)"]
43 -> 55[label = "light_match-end( match0)"]
48 -> 138[label = "light_match-inv( match0)"]
48 -> 61[label = "light_match-start( match0)"]
50 -> 63[label = "light_match-start( match0)"]
114 -> 126[label = "mend_fuse-end( fuse1 match0)"]
116 -> 28[label = "mend_fuse-end( fuse0 match0)"]
54 -> 67[label = "mend_fuse-end( fuse0 match1)"]
55 -> 76[label = "light_match-inv( match1)"]
55 -> 61[label = "light_match-start( match1)"]
119 -> 131[label = "mend_fuse-end( fuse0 match1)"]
120 -> 6[label = "mend_fuse-end( fuse1 match1)"]
58 -> 28[label = "mend_fuse-end( fuse0 match0)"]
58 -> 1[label = "light_match-start( match1)"]
61 -> 81[label = "light_match-inv( match1)"]
61 -> 74[label = "light_match-inv( match0)"]
126 -> 28[label = "light_match-inv( match1)"]
126 -> 138[label = "light_match-inv( match0)"]
63 -> 76[label = "light_match-inv( match0)"]
}
