digraph fsa{
rankdir=LR
graph [bgcolor=white];
start [shape=none]
node [shape = doublecircle]; 0 1 0 3 6 11 0 3 6 11 0 1 0 1 0 1 0 3 6 11 0 3 6 2 5 10 0 1 0 2 5 10 0 3 6 11 0 3 6 11 0 2 5 10 0 2 5 10 0 1 0 1 0 3 6 11 0 1 0 3 6 11 0 1 0 3 6 11 0 3 6 11 0 2 5 10 0 1 7 12 18 25 109 133 67 83 106 130 154 233 30 6 153 187 215 2 5 10 0 2 5 10 0 2 5 10 0 2 5 10 0 2 5 10 0 2 5 10 0 3 6 11 0 2 5 10 0 1 7 12 18 28 3 6 153 176 203 57 18 25 109 1 7 12 18 25 2 5 67 83 106 130 154 177 204 232 256 2 5 10 0 3 6 11 0 3 6 11 0 1 0 3 6 11 0 2 5 10 0 2 5 10 0 3 6 1 7 12 18 28 41 55 18 25 109 133 67 130 154 233 30 87 43 57 18 28 41 143 153 3 6 11 0 3 6 11 0 2 5 10 0 1 0 1 7 12 18 28 41 55 30 87 43 57 18 28 3 6 153 176 203 320 256 1 0 2 5 10 0 1 7 12 18 25 109 182 87 235 259 282 302 233 30 109 204 355 367 377 18 30 43 57 18 3 6 11 0 3 6 11 0 1 0 3 6 11 0 1 0 1 0 3 6 11 0 3 6 11 0 2 5 10 0 3 6 11 0 3 6 11 0 1 0 3 6 11 0 3 6 1 7 12 18 28 41 55 18 30 43 57 18 30 43 57 18 25 2 5 67 2 5 10 0 3 6 11 0 3 6 11 0 2 5 10 0 2 5 1 7 12 18 28 41 55 18 28 3 6 153 187 215 3 6 11 0 3 6 11 0 1 7 12 18 25 109 182 87 235 259 282 302 28 41 143 153 176 203 2 5 10 0 2 5 10 0 1 7 12 18 30 43 57 18 3 6 11 0 3 6 11 0 3 6 11 0 2 5 10 0 2 5 2 5 10 0 2 5 10 0 2 5 10 0 1 0 3 6 11 0 1 7 12 18 30 43 57 18 28 41 143 153 187 215 244 87 233 30 109 204 355 367 377 18 30 43 57 18 25 109 2 5 10 0 2 5 10 0 1 0 1 0 1 7 12 18 25 109 133 67 130 154 177 204 43 57 106 18 3 6 11 0 3 6 11 0 3 6 11 0 3 6 11 0 3 6 11 0 1 7 12 18 28 41 143 153 176 203 3 6 11 0 1 7 12 18 30 43 57 18 25 109 133 67 3 6 11 0 2 5 10 0 2 5 10 0 1 0 1 7 12 18 25 2 5 67 83 57 106 18 1 7 12 18 30 43 57 18 25 2 5 67 83 57 106 18 28 3 6 153 2 5 10 0 1 0 3 6 11 0 2 5 10 0 2 5;
start->0
0 -> 1[label = "turn-doorknob-start( robot1 room1 room2 door1 grip)"]
0 -> 3[label = "pick-start( robot1 ball1 room1 grip)"]
0 -> 2[label = "pick-start( robot1 ball2 room1 grip)"]
320 -> 256[label = "pick-end( robot1 ball1 room2 grip)"]
1 -> 0[label = "turn-doorknob-end( robot1 room1 room2 door1 grip)"]
1 -> 7[label = "open-door-start( robot1 room1 room2 door1 grip)"]
2 -> 5[label = "pick-end( robot1 ball2 room1 grip)"]
130 -> 154[label = "move-end( robot1 room2 room1 door1)"]
3 -> 6[label = "pick-end( robot1 ball1 room1 grip)"]
67 -> 83[label = "drop-start( robot1 ball2 room2 grip)"]
67 -> 130[label = "move-start( robot1 room2 room1 door1)"]
259 -> 282[label = "move-start( robot1 room2 room1 door1)"]
5 -> 10[label = "drop-start( robot1 ball2 room1 grip)"]
5 -> 67[label = "move-end( robot1 room1 room2 door1)"]
133 -> 67[label = "move-end( robot1 room1 room2 door1)"]
6 -> 11[label = "drop-start( robot1 ball1 room1 grip)"]
6 -> 153[label = "move-end( robot1 room1 room2 door1)"]
7 -> 12[label = "open-door-end( robot1 room1 room2 door1 grip)"]
10 -> 0[label = "drop-end( robot1 ball2 room1 grip)"]
11 -> 0[label = "drop-end( robot1 ball1 room1 grip)"]
203 -> 320[label = "pick-start( robot1 ball1 room2 grip)"]
203 -> 57[label = "move-start( robot1 room2 room1 door1)"]
12 -> 18[label = "turn-doorknob-end( robot1 room1 room2 door1 grip)"]
204 -> 232[label = "pick-start( robot1 ball2 room2 grip)"]
204 -> 43[label = "drop-start( robot1 ball2 room2 grip)"]
204 -> 355[label = "move-start( robot1 room2 room1 door1)"]
143 -> 153[label = "move-end( robot1 room1 room2 door1)"]
18 -> 30[label = "move-start( robot1 room1 room2 door1)"]
18 -> 28[label = "pick-start( robot1 ball1 room1 grip)"]
18 -> 25[label = "pick-start( robot1 ball2 room1 grip)"]
83 -> 106[label = "drop-end( robot1 ball2 room2 grip)"]
83 -> 57[label = "move-start( robot1 room2 room1 door1)"]
87 -> 235[label = "move-start( robot1 room1 room2 door1)"]
87 -> 43[label = "move-end( robot1 room1 room2 door1)"]
87 -> 233[label = "pick-start( robot1 ball2 room1 grip)"]
215 -> 244[label = "drop-start( robot1 ball1 room1 grip)"]
25 -> 2[label = "move-start( robot1 room1 room2 door1)"]
25 -> 109[label = "pick-end( robot1 ball2 room1 grip)"]
153 -> 176[label = "drop-start( robot1 ball1 room2 grip)"]
153 -> 187[label = "move-start( robot1 room2 room1 door1)"]
154 -> 233[label = "drop-start( robot1 ball2 room1 grip)"]
154 -> 177[label = "move-start( robot1 room1 room2 door1)"]
154 -> 233[label = "pick-start( robot1 ball1 room1 grip)"]
282 -> 302[label = "move-end( robot1 room2 room1 door1)"]
28 -> 3[label = "move-start( robot1 room1 room2 door1)"]
28 -> 41[label = "pick-end( robot1 ball1 room1 grip)"]
30 -> 87[label = "drop-end( robot1 ball2 room1 grip)"]
30 -> 109[label = "pick-end( robot1 ball2 room1 grip)"]
30 -> 87[label = "drop-end( robot1 ball1 room1 grip)"]
30 -> 6[label = "pick-end( robot1 ball1 room1 grip)"]
30 -> 43[label = "move-end( robot1 room1 room2 door1)"]
355 -> 367[label = "move-end( robot1 room2 room1 door1)"]
232 -> 256[label = "pick-end( robot1 ball2 room2 grip)"]
41 -> 55[label = "drop-start( robot1 ball1 room1 grip)"]
41 -> 143[label = "move-start( robot1 room1 room2 door1)"]
233 -> 30[label = "move-start( robot1 room1 room2 door1)"]
106 -> 18[label = "move-end( robot1 room2 room1 door1)"]
106 -> 130[label = "move-start( robot1 room2 room1 door1)"]
43 -> 57[label = "move-start( robot1 room2 room1 door1)"]
235 -> 259[label = "move-end( robot1 room1 room2 door1)"]
109 -> 182[label = "drop-start( robot1 ball2 room1 grip)"]
109 -> 133[label = "move-start( robot1 room1 room2 door1)"]
109 -> 204[label = "move-end( robot1 room1 room2 door1)"]
302 -> 28[label = "pick-start( robot1 ball1 room1 grip)"]
302 -> 233[label = "pick-start( robot1 ball2 room1 grip)"]
367 -> 377[label = "drop-start( robot1 ball2 room1 grip)"]
176 -> 203[label = "drop-end( robot1 ball1 room2 grip)"]
177 -> 204[label = "move-end( robot1 room1 room2 door1)"]
244 -> 87[label = "drop-end( robot1 ball1 room1 grip)"]
182 -> 87[label = "drop-end( robot1 ball2 room1 grip)"]
55 -> 30[label = "move-start( robot1 room1 room2 door1)"]
55 -> 18[label = "drop-end( robot1 ball1 room1 grip)"]
57 -> 18[label = "move-end( robot1 room2 room1 door1)"]
57 -> 106[label = "drop-end( robot1 ball2 room2 grip)"]
377 -> 18[label = "drop-end( robot1 ball2 room1 grip)"]
187 -> 215[label = "move-end( robot1 room2 room1 door1)"]
}
