unstack( d3 d2)::put_down( d3 c1)::pick_up( d3 c1)::put_down( d2 c3)::put_down( d2 c1)::put_down( d3 c2)
unstack( d3 d2)::stack( d3 d2)::unstack( d3 d2)::put_down( d3 c1)::pick_up( d3 c1)::unstack( d2 d1)::put_down( d3 c2)::pick_up( d3 c3)::pick_up( d3 c1)::put_down( d1 c1)
unstack( d3 d2)::put_down( d3 c2)::put_down( d1 c3)::pick_up( d3 c2)::stack( d3 d2)::unstack( d3 d2)::put_down( d3 c2)::unstack( d2 d1)::put_down( d2 c1)::pick_up( d2 c1)::stack( d2 d1)
unstack( d3 d2)::put_down( d3 c1)::unstack( d2 d1)::stack( d2 d1)::pick_up( d3 c3)::pick_up( d3 c1)::put_down( d3 c1)::unstack( d2 d1)::stack( d2 d1)::unstack( d2 d1)::put_down( d2 c2)::pick_up( d3 c1)::stack( d3 d2)::put_down( d3 c2)::pick_up( d1 c3)::put_down( d1 c1)::unstack( d3 d2)
unstack( d3 d2)::put_down( d3 c2)::pick_up( d3 c2)::put_down( d1 c2)
unstack( d3 d2)::stack( d3 d2)::unstack( d3 d2)::put_down( d3 c1)::put_down( d3 c2)
unstack( d3 d2)::put_down( d3 c1)::put_down( d1 c2)::pick_up( d3 c1)::stack( d3 d2)
put_down( d3 c3)::unstack( d3 d2)
unstack( d3 d2)::put_down( d2 c2)::put_down( d3 c2)::unstack( d2 d1)::stack( d2 d1)::unstack( d2 d1)::stack( d2 d1)::unstack( d2 d1)::stack( d2 d1)::pick_up( d3 c2)::stack( d3 d2)::pick_up( d2 c2)::unstack( d3 d2)::put_down( d3 c2)::pick_up( d3 c2)::put_down( d3 c2)::unstack( d2 d1)::stack( d3 d2)
unstack( d3 d2)::put_down( d1 c2)::put_down( d3 c1)::pick_up( d3 c1)::stack( d2 d1)::put_down( d3 c2)::pick_up( d3 c2)::pick_up( d1 c2)::put_down( d3 c2)::pick_up( d2 c3)::unstack( d2 d1)::pick_up( d3 c1)::put_down( d2 c1)::pick_up( d3 c2)::put_down( d3 c2)
pick_up( d3 c1)::unstack( d3 d2)
unstack( d3 d2)::pick_up( d1 c2)
unstack( d3 d2)::stack( d3 d2)::pick_up( d1 c1)::unstack( d3 d2)::stack( d3 d2)::pick_up( d2 c1)::unstack( d3 d2)
unstack( d3 d2)::put_down( d3 c1)::unstack( d2 d1)::stack( d2 d1)::unstack( d2 d1)::stack( d2 d1)::unstack( d2 d1)::put_down( d2 c2)::pick_up( d2 c2)::stack( d2 d1)::unstack( d2 d1)::stack( d2 d1)::stack( d3 d1)
unstack( d3 d2)::put_down( d3 c1)::pick_up( d3 c1)::stack( d3 d2)::put_down( d1 c3)::unstack( d3 d2)::put_down( d3 c1)
pick_up( d2 c3)::unstack( d3 d2)::put_down( d3 c1)::pick_up( d3 c1)::put_down( d3 c2)::pick_up( d3 c3)::unstack( d2 d1)::stack( d2 d1)::pick_up( d1 c3)::unstack( d2 d1)::stack( d2 d1)::put_down( d2 c2)::pick_up( d1 c3)::unstack( d2 d1)::stack( d2 d1)
unstack( d2 d1)::unstack( d3 d2)::put_down( d3 c2)::unstack( d2 d1)::stack( d2 d1)
pick_up( d2 c1)::unstack( d3 d2)::pick_up( d3 c3)
unstack( d3 d2)::put_down( d3 c2)::unstack( d2 d1)::pick_up( d2 c1)
unstack( d3 d2)::put_down( d3 c1)::pick_up( d3 c1)::unstack( d2 d1)::put_down( d3 c2)::put_down( d1 c3)::put_down( d1 c2)::pick_up( d1 c2)::pick_up( d3 c2)::put_down( d3 c1)::pick_up( d3 c1)
unstack( d3 d2)::put_down( d3 c2)::pick_up( d3 c2)::stack( d3 d2)::stack( d2 d1)::unstack( d3 d2)::put_down( d3 c2)::pick_up( d3 c2)::pick_up( d2 c1)
unstack( d3 d2)::put_down( d3 c2)::pick_up( d3 c2)::put_down( d3 c2)::pick_up( d2 c3)::unstack( d2 d1)::put_down( d2 c1)::pick_up( d3 c2)::unstack( d3 d1)::stack( d3 d2)::pick_up( d1 c3)::put_down( d1 c2)::pick_up( d3 c2)::unstack( d3 d1)::unstack( d3 d2)::stack( d3 d1)::pick_up( d2 c1)
unstack( d3 d2)::pick_up( d2 c2)::put_down( d3 c2)::unstack( d2 d1)::stack( d2 d1)::unstack( d2 d1)
unstack( d3 d2)::pick_up( d3 c1)::stack( d3 d2)::unstack( d3 d2)::put_down( d2 c2)::put_down( d3 c2)::pick_up( d3 c2)::put_down( d3 c1)::pick_up( d1 c2)::pick_up( d3 c1)::put_down( d3 c2)::unstack( d2 d1)
unstack( d3 d2)::stack( d3 d2)::unstack( d3 d2)::stack( d3 d2)::unstack( d3 d2)::put_down( d3 c2)::pick_up( d3 c2)::pick_up( d1 c1)::put_down( d3 c1)
unstack( d3 d2)::put_down( d3 c1)::unstack( d2 d1)::unstack( d3 d1)::stack( d2 d1)::unstack( d2 d1)::stack( d2 d1)::unstack( d2 d1)::stack( d2 d1)::pick_up( d3 c1)::put_down( d3 c2)::pick_up( d3 c2)::put_down( d3 c1)::unstack( d2 d1)::put_down( d3 c3)::put_down( d2 c2)
unstack( d3 d2)::put_down( d1 c2)::put_down( d3 c1)::pick_up( d3 c1)::put_down( d1 c3)::put_down( d3 c1)::unstack( d3 d2)
unstack( d3 d2)::put_down( d3 c1)::pick_up( d3 c1)::stack( d2 d1)::put_down( d3 c1)::pick_up( d3 c1)::stack( d3 d2)::unstack( d3 d2)::put_down( d3 c1)
unstack( d3 d2)::put_down( d3 c2)::unstack( d2 d1)::stack( d2 d1)::pick_up( d3 c2)::put_down( d3 c2)::unstack( d2 d1)::put_down( d2 c1)::pick_up( d2 c1)::put_down( d2 c1)::pick_up( d1 c3)::put_down( d1 c3)::pick_up( d3 c2)::pick_up( d1 c3)
unstack( d3 d2)::pick_up( d1 c1)::stack( d3 d2)
pick_up( d2 c3)::unstack( d3 d2)::stack( d3 d2)::pick_up( d3 c2)::unstack( d3 d2)::stack( d3 d2)::unstack( d3 d2)::put_down( d3 c2)::put_down( d2 c3)
unstack( d3 d2)::stack( d3 d2)::pick_up( d2 c1)
unstack( d3 d2)::stack( d3 d2)::unstack( d3 d2)::pick_up( d3 c3)::put_down( d3 c1)
unstack( d3 d2)::stack( d3 d2)::unstack( d3 d2)::pick_up( d2 c2)
unstack( d2 d1)::unstack( d3 d2)::pick_up( d3 c2)::put_down( d3 c1)::put_down( d3 c1)::put_down( d3 c2)
unstack( d3 d2)::unstack( d3 d2)::stack( d3 d2)::unstack( d3 d2)::pick_up( d3 c2)::put_down( d3 c1)::unstack( d2 d1)::stack( d2 d1)::unstack( d3 d1)::unstack( d2 d1)::put_down( d2 c2)::pick_up( d2 c2)::put_down( d2 c2)::pick_up( d3 c1)::pick_up( d2 c1)::put_down( d3 c1)::pick_up( d1 c3)::put_down( d1 c3)::put_down( d3 c2)::pick_up( d1 c1)
unstack( d3 d2)::put_down( d2 c1)
unstack( d3 d2)::stack( d3 d2)::unstack( d3 d2)::put_down( d3 c1)::pick_up( d2 c2)::unstack( d2 d1)::put_down( d2 c2)::pick_up( d1 c2)::pick_up( d1 c3)::put_down( d1 c3)::pick_up( d3 c1)::put_down( d2 c3)::put_down( d2 c1)
unstack( d3 d2)::stack( d3 d2)::unstack( d3 d2)::put_down( d3 c1)::pick_up( d3 c1)::put_down( d3 c2)::pick_up( d3 c2)::put_down( d3 c2)::unstack( d2 d1)::stack( d2 d1)::pick_up( d3 c3)
unstack( d3 d2)::stack( d3 d2)::unstack( d3 d2)::put_down( d3 c3)::put_down( d3 c2)::pick_up( d2 c3)::pick_up( d3 c2)::put_down( d3 c2)::pick_up( d3 c2)::put_down( d3 c2)::put_down( d3 c2)::unstack( d2 d1)::stack( d2 d1)::pick_up( d3 c2)::stack( d3 d2)::put_down( d3 c2)
unstack( d3 d2)::put_down( d1 c3)::pick_up( d2 c1)::put_down( d3 c2)
unstack( d3 d2)::stack( d3 d2)::unstack( d3 d2)::put_down( d2 c2)
unstack( d3 d2)::put_down( d3 c2)::unstack( d2 d1)::put_down( d2 c1)::pick_up( d2 c1)::put_down( d2 c1)::put_down( d1 c1)::put_down( d3 c2)::stack( d3 d1)::put_down( d1 c2)::unstack( d3 d1)::pick_up( d3 c2)::stack( d3 d1)::pick_up( d2 c2)::put_down( d1 c1)::unstack( d3 d1)::stack( d3 d2)::put_down( d3 c1)
unstack( d3 d2)::put_down( d3 c1)::put_down( d2 c3)::put_down( d3 c3)::unstack( d2 d1)::put_down( d2 c2)::pick_up( d3 c1)::put_down( d1 c3)
unstack( d3 d2)::put_down( d3 c2)::unstack( d2 d1)::put_down( d2 c2)
unstack( d3 d2)::unstack( d2 d1)::put_down( d3 c1)::unstack( d2 d1)::put_down( d2 c2)::pick_up( d3 c1)::stack( d3 d2)
unstack( d3 d2)::put_down( d3 c1)::pick_up( d3 c3)::unstack( d2 d1)::put_down( d2 c2)::pick_up( d2 c2)::stack( d2 d1)::unstack( d2 d1)
unstack( d3 d2)::stack( d3 d2)::unstack( d3 d2)::stack( d3 d2)::unstack( d3 d2)::unstack( d3 d2)
pick_up( d3 c3)::unstack( d3 d2)::stack( d3 d2)::unstack( d3 d2)::put_down( d3 c2)::pick_up( d3 c2)::put_down( d3 c2)::unstack( d2 d1)::put_down( d2 c1)::pick_up( d3 c2)::put_down( d3 c2)::pick_up( d3 c2)::stack( d3 d1)::pick_up( d2 c1)::put_down( d2 c1)::unstack( d3 d1)::stack( d3 d2)::pick_up( d3 c3)
pick_up( d1 c1)::unstack( d3 d2)::put_down( d3 c1)::pick_up( d3 c1)
unstack( d3 d2)::put_down( d3 c1)::unstack( d2 d1)::stack( d2 d1)::unstack( d2 d1)::put_down( d2 c2)::pick_up( d1 c3)::put_down( d1 c3)::pick_up( d2 c2)::put_down( d3 c3)::stack( d2 d1)::unstack( d2 d1)::put_down( d3 c2)::put_down( d2 c2)
unstack( d3 d2)::put_down( d3 c1)::unstack( d2 d1)::put_down( d2 c2)::pick_up( d2 c2)::put_down( d2 c2)::pick_up( d3 c1)::put_down( d3 c1)::pick_up( d2 c2)::put_down( d2 c2)::pick_up( d1 c3)::pick_up( d1 c1)::put_down( d1 c3)::pick_up( d3 c1)::stack( d3 d1)::pick_up( d3 c3)::pick_up( d2 c2)::pick_up( d1 c1)::put_down( d2 c2)
pick_up( d3 c3)::unstack( d3 d2)::put_down( d3 c1)::unstack( d2 d1)::pick_up( d3 c2)::stack( d2 d1)::unstack( d2 d1)::stack( d2 d1)::put_down( d2 c1)::unstack( d2 d1)
unstack( d3 d2)::stack( d3 d2)::unstack( d3 d2)::stack( d3 d2)::unstack( d3 d2)::stack( d3 d2)::unstack( d3 d2)::put_down( d3 c1)::pick_up( d2 c1)
put_down( d2 c3)::unstack( d3 d2)::stack( d3 d2)::unstack( d3 d2)::stack( d3 d2)::unstack( d3 d2)::put_down( d2 c1)::stack( d3 d2)::unstack( d3 d2)::put_down( d3 c2)::pick_up( d3 c2)::stack( d3 d2)::unstack( d3 d2)::stack( d3 d2)::put_down( d1 c1)::put_down( d1 c2)::unstack( d3 d2)
unstack( d3 d2)::stack( d3 d2)::unstack( d3 d2)::put_down( d3 c1)::unstack( d2 d1)::stack( d2 d1)::pick_up( d3 c1)::put_down( d3 c1)::unstack( d2 d1)::stack( d2 d1)::unstack( d2 d1)::stack( d2 d1)::unstack( d2 d1)::put_down( d2 c2)::pick_up( d2 c2)::put_down( d2 c2)::pick_up( d2 c2)::stack( d2 d1)::unstack( d2 d1)::stack( d2 d1)::put_down( d3 c1)
put_down( d3 c2)::unstack( d3 d2)::put_down( d3 c2)::unstack( d2 d1)::put_down( d2 c1)::pick_up( d1 c3)::put_down( d1 c3)::put_down( d1 c3)::unstack( d3 d1)::pick_up( d3 c2)::stack( d3 d2)::unstack( d3 d2)::put_down( d3 c2)::pick_up( d3 c2)::stack( d3 d2)::pick_up( d1 c3)::put_down( d1 c3)::pick_up( d1 c3)
put_down( d3 c1)::unstack( d3 d2)::pick_up( d3 c2)::put_down( d3 c1)::pick_up( d3 c1)::put_down( d3 c2)::pick_up( d3 c2)::put_down( d3 c1)::unstack( d2 d1)::put_down( d2 c2)::pick_up( d3 c1)::stack( d3 d1)::pick_up( d2 c2)::put_down( d2 c2)::stack( d2 d1)::unstack( d3 d1)::put_down( d3 c1)::stack( d2 d1)
unstack( d3 d2)::put_down( d2 c2)::put_down( d3 c2)::pick_up( d3 c2)::put_down( d3 c1)::pick_up( d3 c1)::put_down( d3 c1)::unstack( d2 d1)
unstack( d3 d2)::put_down( d3 c1)::pick_up( d3 c1)::put_down( d3 c2)::unstack( d2 d1)::stack( d2 d1)::unstack( d2 d1)::stack( d2 d1)::unstack( d2 d1)::put_down( d2 c1)::stack( d3 d1)
put_down( d3 c3)
put_down( d1 c2)::unstack( d3 d2)::stack( d3 d2)::unstack( d3 d2)::stack( d3 d2)::unstack( d3 d2)::put_down( d3 c1)::unstack( d2 d1)::put_down( d2 c2)::pick_up( d1 c3)
unstack( d3 d2)::stack( d3 d2)::unstack( d3 d2)::put_down( d3 c2)::pick_up( d3 c2)::put_down( d3 c2)::unstack( d3 d1)::stack( d3 d2)
unstack( d3 d2)::put_down( d3 c1)::unstack( d2 d1)::pick_up( d3 c3)
unstack( d3 d2)::stack( d3 d2)::unstack( d3 d2)::put_down( d3 c2)::pick_up( d3 c2)::put_down( d3 c1)::pick_up( d3 c1)::pick_up( d1 c2)::stack( d3 d2)::unstack( d3 d2)::put_down( d3 c2)::put_down( d2 c1)::put_down( d3 c2)::unstack( d2 d1)::put_down( d3 c1)::put_down( d2 c1)::pick_up( d3 c2)::put_down( d3 c2)::pick_up( d2 c1)
unstack( d3 d2)::stack( d3 d2)::stack( d2 d1)::unstack( d3 d2)::stack( d3 d2)::unstack( d3 d2)::put_down( d3 c2)::pick_up( d3 c2)::put_down( d2 c1)::pick_up( d1 c1)
unstack( d3 d2)::stack( d3 d2)::pick_up( d3 c1)::unstack( d3 d2)::put_down( d3 c2)::pick_up( d1 c3)::pick_up( d3 c2)::put_down( d3 c1)::unstack( d2 d1)::put_down( d3 c2)::put_down( d2 c2)::pick_up( d3 c1)
unstack( d3 d2)::put_down( d3 c1)::unstack( d2 d1)::stack( d2 d1)::pick_up( d3 c1)::put_down( d3 c2)::unstack( d3 d1)::pick_up( d3 c2)::put_down( d3 c1)::unstack( d2 d1)::put_down( d2 c2)::pick_up( d1 c3)::put_down( d1 c3)::pick_up( d2 c2)::stack( d2 d1)::pick_up( d3 c1)::put_down( d3 c2)
unstack( d3 d2)::put_down( d3 c2)::put_down( d1 c2)
put_down( d3 c2)::put_down( d3 c1)::pick_up( d2 c2)::unstack( d3 d2)::put_down( d3 c1)::pick_up( d3 c1)::put_down( d3 c1)::stack( d3 d2)::unstack( d3 d1)::unstack( d2 d1)::stack( d2 d1)::unstack( d2 d1)::put_down( d2 c2)::pick_up( d3 c3)::unstack( d2 d1)::pick_up( d1 c3)::put_down( d1 c3)::pick_up( d2 c2)::stack( d2 d1)::unstack( d2 d1)
unstack( d3 d2)::stack( d3 d2)::unstack( d3 d2)::stack( d3 d2)::unstack( d3 d2)::put_down( d3 c1)::put_down( d1 c3)::pick_up( d3 c1)::stack( d3 d2)::unstack( d3 d2)::put_down( d2 c3)::put_down( d3 c2)
unstack( d3 d2)::put_down( d3 c2)::pick_up( d3 c2)::put_down( d2 c1)::put_down( d3 c2)::pick_up( d3 c2)
unstack( d3 d2)::stack( d3 d2)::unstack( d3 d2)::put_down( d3 c1)::unstack( d2 d1)::stack( d2 d1)::pick_up( d1 c1)::unstack( d3 d2)::unstack( d2 d1)::put_down( d2 c2)::pick_up( d3 c1)::unstack( d3 d2)::stack( d3 d1)::pick_up( d2 c2)::put_down( d2 c2)::put_down( d1 c3)::put_down( d2 c3)
unstack( d3 d2)::put_down( d3 c1)::unstack( d2 d1)::stack( d2 d1)::pick_up( d3 c1)::unstack( d3 d2)
unstack( d3 d2)::stack( d3 d2)::put_down( d3 c1)::unstack( d3 d2)::pick_up( d1 c3)::put_down( d3 c2)::unstack( d2 d1)::stack( d2 d1)::pick_up( d3 c2)::put_down( d3 c2)
put_down( d3 c2)::unstack( d3 d2)::pick_up( d2 c2)::put_down( d3 c1)::pick_up( d3 c1)::stack( d3 d2)::unstack( d3 d2)::put_down( d3 c1)::pick_up( d3 c1)::put_down( d3 c3)::put_down( d3 c1)::unstack( d2 d1)::stack( d2 d1)::unstack( d2 d1)::put_down( d2 c2)::pick_up( d2 c2)::stack( d2 d1)::unstack( d2 d1)::put_down( d2 c2)
put_down( d2 c3)::unstack( d3 d2)::put_down( d3 c2)::pick_up( d3 c2)::stack( d3 d2)::unstack( d3 d2)::put_down( d3 c1)::pick_up( d2 c1)::unstack( d2 d1)::pick_up( d1 c3)::stack( d2 d1)::unstack( d2 d1)::stack( d2 d1)::pick_up( d3 c1)::put_down( d3 c1)::unstack( d2 d1)::put_down( d2 c2)::pick_up( d1 c3)::put_down( d1 c3)
unstack( d3 d2)::put_down( d3 c2)::unstack( d2 d1)::pick_up( d3 c1)
unstack( d3 d2)::put_down( d3 c2)::pick_up( d3 c2)::stack( d3 d2)::pick_up( d3 c1)::unstack( d3 d2)::put_down( d3 c1)::unstack( d3 d1)::unstack( d3 d1)::pick_up( d3 c1)::put_down( d3 c1)::pick_up( d3 c1)::pick_up( d2 c3)::put_down( d2 c3)::pick_up( d3 c2)::put_down( d3 c1)
pick_up( d3 c3)::put_down( d3 c1)
unstack( d3 d2)::pick_up( d2 c3)::unstack( d2 d1)::put_down( d3 c1)::unstack( d2 d1)::put_down( d2 c2)
unstack( d3 d2)::put_down( d3 c1)::put_down( d2 c2)::unstack( d2 d1)::stack( d2 d1)::unstack( d2 d1)::pick_up( d2 c1)::stack( d2 d1)::unstack( d2 d1)::put_down( d1 c1)::stack( d2 d1)::put_down( d3 c3)
pick_up( d3 c2)::unstack( d3 d2)::put_down( d3 c1)::unstack( d2 d1)::put_down( d2 c2)::pick_up( d2 c2)::stack( d2 d1)
unstack( d3 d2)::put_down( d3 c1)::unstack( d2 d1)::stack( d2 d1)::unstack( d2 d1)::put_down( d2 c2)::pick_up( d3 c1)::put_down( d3 c1)::pick_up( d3 c1)::put_down( d3 c1)::pick_up( d1 c3)::put_down( d1 c3)::pick_up( d3 c1)::pick_up( d3 c2)
put_down( d2 c1)::put_down( d2 c3)::unstack( d3 d2)::stack( d3 d2)::unstack( d3 d2)::put_down( d3 c1)::unstack( d2 d1)::stack( d2 d1)::unstack( d3 d1)::unstack( d2 d1)::put_down( d1 c2)::put_down( d2 c2)::pick_up( d2 c2)
unstack( d3 d2)::put_down( d3 c2)::unstack( d2 d1)::put_down( d2 c1)::pick_up( d2 c1)::stack( d2 d1)::unstack( d2 d1)::stack( d2 d1)::unstack( d2 d1)::put_down( d2 c1)::pick_up( d2 c1)::stack( d2 d1)::pick_up( d3 c1)::pick_up( d3 c2)::stack( d3 d2)::unstack( d3 d2)::put_down( d3 c2)
put_down( d2 c3)::unstack( d3 d2)::unstack( d3 d1)::stack( d3 d2)::unstack( d3 d1)::pick_up( d1 c1)::put_down( d1 c2)::unstack( d3 d2)
unstack( d3 d2)::put_down( d3 c2)::pick_up( d3 c2)::stack( d3 d2)::pick_up( d3 c2)
unstack( d3 d2)::stack( d3 d2)::unstack( d3 d2)::stack( d3 d2)::unstack( d3 d2)::put_down( d3 c1)::pick_up( d3 c1)::put_down( d1 c1)::stack( d3 d2)::unstack( d3 d2)::put_down( d3 c1)::unstack( d2 d1)::put_down( d2 c2)::pick_up( d1 c3)::put_down( d1 c3)::pick_up( d2 c2)::stack( d2 d1)::pick_up( d3 c1)
unstack( d3 d2)::put_down( d2 c2)::stack( d3 d2)::unstack( d3 d2)::put_down( d3 c1)::pick_up( d3 c1)::pick_up( d2 c1)::stack( d3 d2)::unstack( d3 d2)::put_down( d1 c1)::put_down( d3 c2)::unstack( d2 d1)::put_down( d2 c1)::pick_up( d1 c3)::put_down( d1 c3)::pick_up( d3 c2)::put_down( d3 c2)::pick_up( d3 c2)::put_down( d3 c2)::unstack( d2 d1)
put_down( d2 c1)::unstack( d3 d2)::put_down( d2 c3)::stack( d3 d2)::unstack( d3 d2)::put_down( d3 c2)::put_down( d1 c2)::unstack( d2 d1)::stack( d2 d1)::unstack( d2 d1)
unstack( d3 d2)::unstack( d2 d1)::put_down( d3 c2)::pick_up( d1 c1)::pick_up( d3 c2)::put_down( d3 c2)
unstack( d3 d2)::stack( d3 d2)::put_down( d2 c1)
unstack( d3 d2)::put_down( d3 c2)::unstack( d2 d1)::stack( d2 d1)::unstack( d2 d1)::put_down( d2 c1)::pick_up( d2 c1)::stack( d2 d1)::unstack( d2 d1)::stack( d2 d1)::unstack( d2 d1)::put_down( d2 c1)::pick_up( d1 c3)::put_down( d1 c3)::pick_up( d2 c1)::stack( d2 d1)::unstack( d2 d1)::stack( d2 d1)::pick_up( d3 c2)::put_down( d3 c1)::pick_up( d3 c1)::put_down( d3 c1)::pick_up( d3 c1)::stack( d3 d2)::pick_up( d2 c1)
stack( d2 d1)::unstack( d3 d2)
unstack( d3 d2)::stack( d3 d2)::pick_up( d3 c1)::unstack( d3 d2)::put_down( d3 c2)::stack( d3 d1)::pick_up( d3 c2)::put_down( d3 c1)::pick_up( d3 c1)::put_down( d3 c1)::unstack( d2 d1)::put_down( d1 c2)::put_down( d2 c2)::put_down( d1 c2)::pick_up( d1 c3)
pick_up( d1 c1)::put_down( d1 c3)::unstack( d3 d2)::put_down( d3 c1)::unstack( d2 d1)::put_down( d2 c2)::pick_up( d2 c2)::put_down( d2 c2)::pick_up( d1 c3)::pick_up( d3 c1)::put_down( d1 c3)::pick_up( d1 c3)::put_down( d1 c3)::pick_up( d1 c3)::put_down( d2 c1)::put_down( d1 c3)::unstack( d3 d1)::put_down( d2 c3)
unstack( d3 d2)::put_down( d1 c3)::pick_up( d2 c3)::put_down( d3 c2)::unstack( d2 d1)::unstack( d2 d1)::stack( d2 d1)::pick_up( d3 c2)::put_down( d3 c2)::pick_up( d1 c3)::pick_up( d3 c2)::put_down( d3 c1)::put_down( d2 c3)::pick_up( d3 c1)
unstack( d3 d2)::put_down( d3 c1)::pick_up( d3 c1)::stack( d3 d2)::unstack( d3 d2)::put_down( d3 c2)::unstack( d2 d1)::put_down( d3 c2)
unstack( d3 d2)::put_down( d1 c3)::put_down( d3 c2)::pick_up( d3 c2)::stack( d3 d2)::unstack( d3 d2)::pick_up( d3 c1)::unstack( d3 d1)::pick_up( d1 c2)::put_down( d3 c2)::pick_up( d3 c2)::put_down( d3 c2)::pick_up( d3 c2)::put_down( d3 c1)
put_down( d2 c3)::unstack( d3 d2)::stack( d3 d2)::unstack( d3 d2)::stack( d3 d2)::unstack( d3 d2)::pick_up( d3 c2)
put_down( d1 c2)::unstack( d3 d2)::put_down( d3 c1)::pick_up( d3 c1)::put_down( d3 c2)::pick_up( d3 c2)::stack( d3 d2)::put_down( d3 c1)::unstack( d3 d2)::put_down( d3 c2)::unstack( d2 d1)
pick_up( d2 c2)::unstack( d2 d1)::pick_up( d2 c3)::unstack( d3 d2)::put_down( d3 c1)::pick_up( d3 c1)::stack( d3 d2)::unstack( d3 d2)
unstack( d3 d2)::stack( d3 d2)::unstack( d3 d2)::put_down( d3 c1)::unstack( d2 d1)::stack( d2 d1)::pick_up( d3 c1)::unstack( d3 d1)
unstack( d3 d2)::put_down( d3 c1)::unstack( d2 d1)::put_down( d2 c2)::pick_up( d1 c3)::put_down( d2 c3)
unstack( d3 d2)::stack( d3 d2)::pick_up( d3 c2)::unstack( d3 d2)::put_down( d3 c2)::unstack( d2 d1)
unstack( d3 d2)::put_down( d3 c1)::unstack( d2 d1)::put_down( d2 c2)::pick_up( d2 c1)::pick_up( d3 c1)
unstack( d3 d2)::put_down( d3 c1)::pick_up( d3 c1)::put_down( d3 c2)::unstack( d2 d1)::put_down( d2 c1)::pick_up( d3 c2)::stack( d3 d2)::pick_up( d1 c3)::put_down( d1 c3)::pick_up( d1 c3)::put_down( d1 c3)::pick_up( d1 c3)::put_down( d1 c3)::unstack( d3 d2)::stack( d3 d1)::pick_up( d2 c1)::pick_up( d3 c1)
unstack( d3 d2)::put_down( d3 c2)::put_down( d1 c3)::stack( d3 d1)::unstack( d2 d1)::put_down( d1 c1)::stack( d2 d1)::unstack( d2 d1)::put_down( d2 c1)::pick_up( d3 c2)::put_down( d3 c2)::pick_up( d2 c1)
unstack( d3 d2)::put_down( d3 c2)::unstack( d2 d1)::stack( d2 d1)::unstack( d2 d1)::put_down( d2 c2)
unstack( d3 d2)::pick_up( d3 c2)::put_down( d3 c1)::pick_up( d3 c3)::pick_up( d3 c1)::put_down( d3 c1)::pick_up( d3 c1)::put_down( d3 c2)::pick_up( d3 c2)::put_down( d3 c2)::unstack( d2 d1)::stack( d2 d1)::pick_up( d3 c2)
unstack( d3 d2)::put_down( d3 c1)::put_down( d2 c1)::unstack( d2 d1)::put_down( d2 c2)::pick_up( d3 c1)::put_down( d3 c1)::pick_up( d3 c1)::put_down( d1 c3)::unstack( d2 d1)
unstack( d3 d2)::put_down( d3 c1)::pick_up( d3 c1)::put_down( d2 c3)
pick_up( d1 c3)::unstack( d3 d2)::pick_up( d3 c1)::put_down( d3 c1)::unstack( d2 d1)::put_down( d2 c2)
unstack( d3 d2)::pick_up( d2 c3)::put_down( d3 c2)::unstack( d2 d1)::put_down( d2 c1)::put_down( d1 c1)
unstack( d3 d2)::stack( d3 d2)::unstack( d3 d2)::stack( d3 d2)::unstack( d3 d2)::put_down( d3 c2)::pick_up( d3 c2)::stack( d3 d2)::unstack( d3 d2)::put_down( d3 c2)::pick_up( d2 c3)::pick_up( d3 c2)
unstack( d3 d2)::put_down( d3 c1)::unstack( d2 d1)::put_down( d2 c2)::pick_up( d3 c1)::put_down( d3 c1)::put_down( d1 c2)
unstack( d3 d2)::put_down( d3 c2)::pick_up( d3 c2)::put_down( d3 c1)::pick_up( d3 c1)::stack( d3 d2)::pick_up( d3 c3)::unstack( d3 d2)::put_down( d3 c1)::unstack( d2 d1)::put_down( d2 c2)::pick_up( d3 c1)::put_down( d3 c1)::pick_up( d2 c3)::pick_up( d3 c1)
unstack( d3 d2)::put_down( d3 c1)::unstack( d2 d1)::put_down( d2 c2)::pick_up( d3 c1)::stack( d3 d2)::unstack( d3 d2)::put_down( d3 c1)::pick_up( d2 c2)::put_down( d2 c2)::pick_up( d2 c2)::stack( d2 d1)::put_down( d3 c3)
unstack( d3 d2)::put_down( d3 c1)::pick_up( d3 c1)::stack( d3 d2)::unstack( d3 d2)::put_down( d3 c2)::unstack( d2 d1)::stack( d2 d1)::pick_up( d3 c2)::stack( d3 d2)::unstack( d3 d2)::put_down( d3 c2)::unstack( d2 d1)::stack( d2 d1)::unstack( d2 d1)::stack( d2 d1)::pick_up( d2 c2)::pick_up( d3 c2)
unstack( d3 d2)::put_down( d3 c1)::unstack( d2 d1)::put_down( d2 c2)::put_down( d1 c3)::pick_up( d1 c3)::put_down( d1 c3)::pick_up( d3 c1)::pick_up( d1 c3)::put_down( d3 c1)::pick_up( d2 c2)::put_down( d2 c2)::pick_up( d3 c1)::stack( d3 d2)
pick_up( d1 c2)::unstack( d3 d2)
unstack( d3 d2)::stack( d3 d2)::unstack( d3 d2)::put_down( d3 c1)::unstack( d2 d1)::put_down( d2 c2)::pick_up( d2 c2)::put_down( d2 c3)::stack( d2 d1)::pick_up( d3 c1)
unstack( d3 d2)::put_down( d3 c2)::unstack( d2 d1)::stack( d2 d1)::unstack( d2 d1)::pick_up( d3 c1)::stack( d2 d1)::pick_up( d3 c2)::put_down( d3 c2)::stack( d3 d1)::unstack( d2 d1)::put_down( d2 c1)::pick_up( d2 c1)::pick_up( d3 c3)::put_down( d2 c1)::pick_up( d2 c1)::put_down( d2 c1)::pick_up( d3 c2)::pick_up( d3 c1)
pick_up( d1 c3)::unstack( d3 d2)::pick_up( d3 c3)::pick_up( d1 c3)::put_down( d3 c2)::unstack( d2 d1)::put_down( d2 c1)
put_down( d1 c3)::pick_up( d2 c2)::unstack( d3 d2)::put_down( d3 c1)::pick_up( d3 c1)::put_down( d2 c1)::put_down( d3 c1)::unstack( d2 d1)::put_down( d2 c2)::pick_up( d3 c1)::stack( d3 d1)::pick_up( d2 c2)::stack( d3 d2)::pick_up( d3 c1)
unstack( d3 d2)::pick_up( d1 c1)::put_down( d3 c1)::pick_up( d3 c1)::stack( d3 d2)::unstack( d3 d2)::put_down( d3 c2)::pick_up( d3 c2)::stack( d3 d2)::unstack( d3 d2)::unstack( d3 d1)
pick_up( d1 c1)::unstack( d3 d2)
unstack( d3 d2)::put_down( d3 c1)::pick_up( d3 c1)::stack( d3 d2)::pick_up( d3 c3)::unstack( d3 d2)::put_down( d3 c1)::unstack( d2 d1)::put_down( d2 c2)::pick_up( d2 c2)::stack( d2 d1)::unstack( d2 d1)::pick_up( d2 c1)::stack( d2 d1)::pick_up( d1 c2)
unstack( d3 d2)::unstack( d3 d2)::stack( d3 d2)::unstack( d3 d2)::put_down( d3 c2)::pick_up( d3 c2)::put_down( d3 c1)::unstack( d2 d1)::put_down( d2 c2)
unstack( d3 d2)::put_down( d3 c2)::pick_up( d3 c2)::stack( d3 d2)::put_down( d1 c3)::unstack( d3 d2)::unstack( d3 d1)::stack( d3 d2)::unstack( d3 d2)::put_down( d3 c1)
pick_up( d3 c1)::pick_up( d1 c1)
pick_up( d3 c1)::unstack( d3 d2)::put_down( d3 c2)::stack( d3 d1)::unstack( d2 d1)::put_down( d2 c1)::pick_up( d1 c3)::put_down( d1 c3)
put_down( d2 c2)
pick_up( d2 c1)
unstack( d3 d2)::put_down( d3 c1)::pick_up( d3 c1)::put_down( d3 c2)::pick_up( d3 c2)::unstack( d2 d1)::stack( d3 d2)::unstack( d2 d1)::put_down( d2 c2)::unstack( d3 d2)::put_down( d3 c2)::unstack( d2 d1)::put_down( d2 c1)::pick_up( d1 c3)
unstack( d3 d2)::put_down( d3 c2)::unstack( d2 d1)::pick_up( d3 c1)::stack( d2 d1)::unstack( d2 d1)::stack( d2 d1)::pick_up( d3 c2)::put_down( d3 c2)::pick_up( d3 c2)
unstack( d3 d2)::put_down( d3 c2)::unstack( d2 d1)::put_down( d2 c1)::pick_up( d1 c3)::put_down( d1 c3)::pick_up( d1 c3)::put_down( d1 c3)::pick_up( d3 c2)::put_down( d3 c2)::pick_up( d2 c1)::put_down( d2 c1)::pick_up( d3 c3)
unstack( d3 d2)::pick_up( d3 c2)::put_down( d3 c2)::unstack( d2 d1)::stack( d2 d1)
unstack( d3 d2)::unstack( d2 d1)::put_down( d3 c1)::pick_up( d3 c1)::put_down( d3 c2)::unstack( d2 d1)::put_down( d2 c1)::pick_up( d3 c2)::put_down( d3 c2)
unstack( d3 d2)::unstack( d3 d1)::stack( d2 d1)::put_down( d3 c2)::pick_up( d3 c2)::put_down( d3 c1)::stack( d3 d2)::put_down( d1 c3)::pick_up( d3 c1)::pick_up( d1 c2)::put_down( d3 c2)::pick_up( d3 c2)::put_down( d1 c3)::stack( d3 d2)::unstack( d3 d2)
unstack( d3 d2)::pick_up( d1 c1)::put_down( d3 c3)::pick_up( d2 c3)::stack( d3 d2)::unstack( d3 d2)::put_down( d3 c2)::pick_up( d3 c2)::put_down( d3 c2)::unstack( d2 d1)::pick_up( d1 c1)::stack( d2 d1)
unstack( d3 d2)::put_down( d3 c2)::pick_up( d3 c2)::put_down( d3 c2)::put_down( d1 c3)::unstack( d2 d1)::stack( d2 d1)::pick_up( d3 c2)::stack( d3 d2)::unstack( d3 d2)::stack( d3 d2)::unstack( d3 d2)::put_down( d3 c1)::pick_up( d3 c1)::put_down( d3 c2)::pick_up( d3 c2)::pick_up( d2 c3)::put_down( d3 c2)
stack( d3 d1)::unstack( d3 d2)::put_down( d3 c1)::pick_up( d3 c1)::put_down( d3 c2)::pick_up( d3 c2)::put_down( d3 c2)::pick_up( d3 c2)
unstack( d3 d2)::put_down( d3 c2)::stack( d2 d1)::put_down( d2 c1)::pick_up( d3 c2)::put_down( d3 c3)::stack( d3 d2)::unstack( d3 d2)::put_down( d3 c1)
unstack( d3 d2)::put_down( d3 c3)::put_down( d3 c1)::pick_up( d3 c1)::put_down( d3 c2)::pick_up( d3 c2)::stack( d2 d1)::pick_up( d2 c2)::put_down( d3 c2)::pick_up( d3 c2)::put_down( d3 c2)::put_down( d3 c3)::unstack( d2 d1)::pick_up( d2 c3)::stack( d2 d1)::pick_up( d3 c2)::stack( d3 d1)::put_down( d3 c1)
unstack( d3 d2)::put_down( d3 c2)::pick_up( d3 c2)::put_down( d3 c1)::pick_up( d3 c1)::pick_up( d1 c3)::stack( d3 d1)::stack( d3 d2)::unstack( d3 d2)::pick_up( d1 c1)::put_down( d3 c1)::unstack( d2 d1)
pick_up( d3 c2)::unstack( d3 d2)::put_down( d3 c1)::unstack( d2 d1)::put_down( d2 c2)::pick_up( d1 c3)::put_down( d1 c3)::pick_up( d2 c2)::put_down( d1 c3)::stack( d2 d1)::pick_up( d3 c1)::put_down( d3 c2)::pick_up( d3 c2)::put_down( d3 c1)::pick_up( d3 c3)::unstack( d3 d2)::pick_up( d3 c1)::put_down( d3 c2)::put_down( d3 c2)
unstack( d3 d2)::stack( d3 d2)::unstack( d3 d2)::stack( d3 d2)::unstack( d3 d2)::pick_up( d1 c1)
pick_up( d1 c1)::pick_up( d3 c3)::unstack( d3 d2)::put_down( d3 c1)::stack( d3 d2)::pick_up( d3 c1)::pick_up( d1 c1)::pick_up( d1 c2)::put_down( d3 c3)::put_down( d3 c1)::unstack( d2 d1)::pick_up( d2 c1)
pick_up( d1 c2)::pick_up( d1 c1)::unstack( d3 d2)::put_down( d3 c2)::unstack( d2 d1)::put_down( d2 c1)::put_down( d1 c3)::pick_up( d2 c1)::unstack( d3 d2)::put_down( d2 c1)::pick_up( d3 c2)::stack( d3 d1)::put_down( d1 c1)::unstack( d3 d1)::stack( d3 d2)::pick_up( d1 c3)::put_down( d1 c2)::stack( d3 d2)
pick_up( d2 c1)::unstack( d3 d2)::put_down( d3 c2)::pick_up( d3 c3)::unstack( d2 d1)::stack( d2 d1)::unstack( d2 d1)::unstack( d3 d2)
unstack( d3 d2)::put_down( d3 c1)::pick_up( d3 c1)::stack( d3 d2)::put_down( d1 c2)::pick_up( d2 c2)::unstack( d3 d2)::stack( d3 d2)::unstack( d3 d2)
unstack( d3 d1)::stack( d3 d1)::pick_up( d1 c2)::stack( d3 d1)::unstack( d3 d2)::put_down( d3 c1)::pick_up( d3 c1)::put_down( d3 c1)::unstack( d2 d1)::put_down( d2 c2)::pick_up( d3 c1)::stack( d3 d2)::unstack( d3 d2)::stack( d3 d2)::put_down( d3 c1)::pick_up( d1 c3)::put_down( d1 c3)::unstack( d3 d2)::put_down( d3 c1)
unstack( d3 d2)::put_down( d3 c1)::unstack( d2 d1)::stack( d2 d1)::put_down( d2 c1)
unstack( d3 d2)::unstack( d2 d1)::pick_up( d1 c1)::put_down( d3 c2)::pick_up( d3 c2)::put_down( d3 c1)::pick_up( d2 c2)::pick_up( d2 c1)::pick_up( d3 c1)::put_down( d3 c2)::pick_up( d3 c2)::put_down( d3 c1)::pick_up( d3 c1)::put_down( d2 c1)::put_down( d3 c2)::unstack( d2 d1)
unstack( d3 d2)::put_down( d3 c2)::pick_up( d3 c3)
unstack( d3 d2)::put_down( d3 c2)::pick_up( d3 c2)::unstack( d3 d2)::put_down( d3 c2)::unstack( d2 d1)::pick_up( d3 c3)::put_down( d2 c1)
unstack( d3 d2)::stack( d3 d2)::unstack( d3 d2)::put_down( d3 c2)::unstack( d2 d1)::pick_up( d1 c3)
unstack( d3 d2)::put_down( d3 c1)::pick_up( d3 c1)::put_down( d3 c2)::unstack( d2 d1)::put_down( d2 c1)::pick_up( d2 c1)::put_down( d2 c1)::pick_up( d1 c3)::stack( d3 d2)::put_down( d1 c3)
unstack( d3 d2)::put_down( d3 c1)::unstack( d2 d1)::put_down( d2 c2)::pick_up( d1 c3)::put_down( d1 c3)::unstack( d2 d1)::put_down( d3 c2)::pick_up( d3 c1)::put_down( d3 c1)::pick_up( d2 c2)::put_down( d2 c2)::unstack( d2 d1)::pick_up( d2 c1)::pick_up( d3 c1)::put_down( d3 c1)::pick_up( d2 c2)::pick_up( d2 c3)::pick_up( d3 c2)::stack( d3 d2)
unstack( d3 d2)::stack( d3 d2)::unstack( d3 d2)::put_down( d3 c1)::pick_up( d3 c1)::put_down( d3 c2)::pick_up( d3 c2)::put_down( d3 c1)::pick_up( d3 c1)::stack( d3 d2)::unstack( d3 d2)::stack( d2 d1)
unstack( d3 d2)::put_down( d3 c2)::unstack( d2 d1)::stack( d2 d1)::unstack( d2 d1)::stack( d2 d1)::pick_up( d3 c2)::put_down( d3 c2)::unstack( d2 d1)::stack( d2 d1)::pick_up( d3 c2)::pick_up( d3 c3)
unstack( d3 d2)::put_down( d3 c1)::unstack( d2 d1)::stack( d2 d1)::pick_up( d3 c1)::put_down( d3 c2)::unstack( d2 d1)::stack( d2 d1)::unstack( d2 d1)::put_down( d2 c1)::pick_up( d2 c1)::stack( d2 d1)::unstack( d2 d1)::put_down( d2 c1)::pick_up( d2 c1)::put_down( d2 c1)::pick_up( d2 c1)::put_down( d2 c1)::pick_up( d3 c2)::put_down( d2 c3)
unstack( d3 d2)::put_down( d3 c2)::pick_up( d3 c2)::put_down( d3 c2)::pick_up( d3 c2)::put_down( d3 c2)::pick_up( d3 c2)::stack( d3 d2)::unstack( d3 d2)::put_down( d2 c3)
unstack( d3 d2)::unstack( d3 d1)::put_down( d3 c1)
unstack( d3 d2)::stack( d3 d2)::unstack( d3 d2)::put_down( d3 c2)::unstack( d2 d1)::put_down( d2 c1)::pick_up( d1 c3)::put_down( d1 c3)::pick_up( d1 c3)::put_down( d1 c3)::pick_up( d3 c2)::put_down( d3 c2)::pick_up( d2 c1)::stack( d2 d1)::put_down( d2 c3)
unstack( d3 d2)::stack( d3 d2)::pick_up( d1 c3)::unstack( d3 d2)::stack( d3 d2)::unstack( d3 d2)::put_down( d3 c2)::pick_up( d3 c2)::stack( d3 d2)::pick_up( d1 c3)::unstack( d3 d2)
unstack( d3 d2)::put_down( d3 c1)::unstack( d2 d1)::put_down( d2 c2)::pick_up( d3 c1)::pick_up( d1 c2)
unstack( d3 d2)::put_down( d3 c2)::unstack( d2 d1)::stack( d2 d1)::unstack( d2 d1)::stack( d2 d1)::unstack( d2 d1)::put_down( d2 c1)::pick_up( d2 c1)::stack( d2 d1)::put_down( d3 c2)
pick_up( d3 c1)::pick_up( d3 c2)::unstack( d3 d2)::stack( d3 d2)
unstack( d3 d2)::put_down( d3 c1)::pick_up( d3 c1)::pick_up( d2 c1)::stack( d3 d2)::unstack( d3 d2)::put_down( d3 c1)::unstack( d2 d1)::put_down( d2 c2)::pick_up( d3 c1)::pick_up( d1 c3)::put_down( d3 c1)::pick_up( d1 c3)::put_down( d1 c3)::put_down( d2 c3)::pick_up( d1 c3)::put_down( d1 c3)::pick_up( d1 c3)::put_down( d2 c1)
put_down( d3 c1)::pick_up( d2 c3)::unstack( d3 d2)::put_down( d3 c2)::unstack( d2 d1)::pick_up( d2 c2)::stack( d2 d1)::pick_up( d3 c2)::pick_up( d1 c3)
unstack( d3 d2)::put_down( d3 c1)::pick_up( d3 c1)::stack( d3 d2)::unstack( d3 d2)::stack( d2 d1)
unstack( d3 d2)::put_down( d3 c1)::pick_up( d3 c1)::put_down( d3 c2)::unstack( d2 d1)::stack( d2 d1)::pick_up( d3 c2)::put_down( d3 c2)::pick_up( d3 c2)::put_down( d3 c2)::stack( d3 d2)
unstack( d3 d2)::stack( d3 d2)::pick_up( d2 c3)::unstack( d3 d2)::stack( d3 d2)::unstack( d3 d2)::put_down( d3 c1)::pick_up( d3 c1)::put_down( d3 c2)::unstack( d2 d1)::stack( d2 d1)::pick_up( d3 c2)::put_down( d3 c1)
unstack( d2 d1)::unstack( d3 d2)::put_down( d3 c1)::unstack( d2 d1)::put_down( d2 c2)::pick_up( d1 c3)::put_down( d1 c3)::pick_up( d1 c3)::put_down( d1 c3)::pick_up( d1 c3)
unstack( d3 d2)::stack( d3 d2)::unstack( d3 d2)::put_down( d3 c1)::unstack( d2 d1)::put_down( d2 c2)::pick_up( d3 c1)::put_down( d3 c1)::put_down( d3 c3)::pick_up( d3 c1)::put_down( d3 c1)::pick_up( d1 c3)::pick_up( d2 c1)
unstack( d3 d2)::put_down( d3 c2)::pick_up( d3 c2)::stack( d3 d2)::put_down( d3 c3)::unstack( d3 d2)::put_down( d2 c1)::put_down( d3 c1)::unstack( d2 d1)::put_down( d2 c2)::pick_up( d3 c1)::put_down( d3 c1)::pick_up( d3 c1)::pick_up( d2 c1)
pick_up( d3 c2)::unstack( d3 d2)::stack( d3 d2)::unstack( d3 d2)::put_down( d3 c1)::pick_up( d3 c1)::put_down( d3 c1)::pick_up( d3 c1)
unstack( d3 d2)::put_down( d3 c1)::pick_up( d3 c1)::put_down( d3 c2)::pick_up( d3 c2)::put_down( d3 c2)::pick_up( d3 c2)::put_down( d1 c1)
unstack( d3 d2)::pick_up( d1 c3)::stack( d3 d2)::unstack( d3 d2)::pick_up( d3 c1)::put_down( d3 c2)::unstack( d2 d1)::put_down( d2 c1)::pick_up( d3 c2)::stack( d3 d1)::put_down( d1 c3)::put_down( d1 c3)::unstack( d3 d1)::stack( d3 d2)::pick_up( d1 c3)
unstack( d3 d2)::stack( d3 d2)::unstack( d3 d2)::stack( d3 d2)::unstack( d3 d2)::stack( d3 d2)::stack( d2 d1)
unstack( d3 d2)::put_down( d2 c3)::put_down( d3 c1)::pick_up( d3 c1)::put_down( d3 c2)::put_down( d2 c1)::unstack( d2 d1)
unstack( d3 d2)::stack( d3 d2)::pick_up( d1 c3)::unstack( d3 d2)::put_down( d3 c2)::put_down( d2 c1)::pick_up( d3 c2)::pick_up( d2 c2)::stack( d3 d2)::unstack( d3 d2)::put_down( d3 c1)::pick_up( d3 c1)::put_down( d3 c3)
pick_up( d2 c2)::unstack( d3 d2)::stack( d3 d2)::put_down( d1 c3)::unstack( d3 d2)::stack( d3 d2)::unstack( d3 d2)::stack( d3 d2)::stack( d3 d1)::unstack( d3 d2)::put_down( d3 c2)::unstack( d2 d1)::put_down( d1 c2)::put_down( d2 c1)::pick_up( d3 c2)::put_down( d2 c2)::pick_up( d2 c2)::put_down( d1 c3)::put_down( d3 c2)::pick_up( d2 c1)
unstack( d3 d2)::put_down( d3 c2)::unstack( d2 d1)::stack( d2 d1)::unstack( d2 d1)::put_down( d2 c1)::pick_up( d2 c1)::pick_up( d1 c3)
unstack( d3 d2)::stack( d3 d2)::unstack( d3 d2)::put_down( d3 c1)::pick_up( d2 c1)
unstack( d3 d2)::stack( d3 d2)::pick_up( d2 c2)::unstack( d3 d2)::put_down( d3 c2)::put_down( d3 c2)::pick_up( d3 c2)::put_down( d3 c2)::pick_up( d3 c2)::stack( d3 d2)
unstack( d3 d2)::stack( d3 d2)::unstack( d3 d2)::put_down( d1 c3)
put_down( d3 c2)::stack( d3 d2)::unstack( d3 d2)::stack( d3 d2)::pick_up( d2 c3)::unstack( d3 d2)::put_down( d3 c2)::pick_up( d3 c2)::stack( d3 d2)::unstack( d3 d2)::stack( d3 d2)::unstack( d3 d2)::put_down( d3 c1)::stack( d3 d1)::unstack( d2 d1)
unstack( d3 d2)::put_down( d2 c3)::unstack( d3 d1)::stack( d3 d2)::unstack( d3 d2)
unstack( d3 d2)::stack( d3 d2)::unstack( d3 d2)::put_down( d2 c3)::put_down( d3 c1)::unstack( d2 d1)::stack( d2 d1)::stack( d2 d1)::pick_up( d3 c1)::stack( d3 d2)::put_down( d3 c3)::unstack( d3 d2)::put_down( d3 c2)::unstack( d2 d1)::stack( d2 d1)
unstack( d3 d2)::stack( d3 d2)::unstack( d3 d2)::put_down( d3 c1)::unstack( d2 d1)::pick_up( d1 c2)::stack( d2 d1)::pick_up( d3 c1)::stack( d2 d1)::put_down( d3 c1)::pick_up( d3 c1)::put_down( d3 c1)::pick_up( d3 c1)::stack( d3 d2)::unstack( d3 d2)::stack( d3 d2)
stack( d3 d2)::unstack( d3 d2)
unstack( d3 d2)::stack( d3 d2)::unstack( d3 d2)::put_down( d3 c1)::unstack( d2 d1)::put_down( d2 c2)::pick_up( d1 c3)::put_down( d1 c3)::put_down( d2 c3)
unstack( d3 d2)::put_down( d3 c2)::pick_up( d3 c2)::put_down( d3 c2)::pick_up( d3 c2)::put_down( d3 c1)::unstack( d2 d1)::pick_up( d2 c3)
unstack( d3 d2)::stack( d3 d2)::unstack( d3 d2)::put_down( d3 c1)::unstack( d2 d1)::stack( d2 d1)::pick_up( d3 c1)::put_down( d3 c1)::unstack( d2 d1)::stack( d2 d1)::put_down( d1 c2)::unstack( d2 d1)::put_down( d2 c2)::pick_up( d3 c1)::stack( d3 d2)
unstack( d3 d2)::put_down( d3 c2)::pick_up( d3 c2)::put_down( d3 c1)::pick_up( d3 c1)::stack( d3 d2)::unstack( d3 d2)::stack( d3 d2)::unstack( d3 d2)::put_down( d3 c1)::pick_up( d3 c1)::stack( d3 d2)::unstack( d3 d2)::put_down( d3 c2)::unstack( d2 d1)::put_down( d2 c1)::pick_up( d2 c1)::stack( d2 d1)::pick_up( d3 c2)::put_down( d3 c1)::unstack( d2 d1)::put_down( d2 c2)::pick_up( d1 c3)::put_down( d1 c3)::pick_up( d2 c2)::stack( d2 d1)::put_down( d2 c3)
pick_up( d2 c1)::pick_up( d2 c1)::unstack( d2 d1)
unstack( d3 d2)::stack( d3 d2)::unstack( d3 d1)::unstack( d3 d2)::stack( d3 d2)::unstack( d3 d2)::unstack( d3 d2)::put_down( d3 c1)::unstack( d2 d1)::put_down( d2 c2)
pick_up( d2 c3)::unstack( d3 d2)::put_down( d3 c1)::unstack( d2 d1)::put_down( d2 c2)::pick_up( d2 c2)::put_down( d2 c2)::pick_up( d2 c2)::put_down( d3 c2)::stack( d2 d1)::unstack( d2 d1)::stack( d2 d1)::unstack( d2 d1)::stack( d2 d1)::pick_up( d3 c1)::put_down( d3 c2)
pick_up( d3 c2)::put_down( d2 c1)::unstack( d3 d2)::put_down( d3 c1)::unstack( d2 d1)::stack( d2 d1)::put_down( d1 c2)::pick_up( d3 c1)::put_down( d3 c1)::pick_up( d3 c1)::put_down( d3 c1)::pick_up( d3 c1)
unstack( d3 d2)::pick_up( d2 c1)::stack( d3 d2)::unstack( d3 d1)::unstack( d3 d2)
unstack( d3 d2)::put_down( d3 c1)::pick_up( d1 c3)::unstack( d2 d1)::put_down( d2 c2)::pick_up( d3 c1)::unstack( d3 d2)
unstack( d3 d2)::stack( d3 d2)::pick_up( d3 c1)::pick_up( d1 c1)::unstack( d3 d2)::put_down( d3 c1)
unstack( d3 d2)::stack( d3 d2)::unstack( d3 d2)::put_down( d3 c2)::pick_up( d3 c2)::put_down( d3 c2)::pick_up( d3 c2)::stack( d3 d2)::pick_up( d2 c2)
unstack( d3 d2)::put_down( d3 c2)::unstack( d2 d1)::put_down( d2 c1)::pick_up( d2 c1)::put_down( d2 c1)::pick_up( d2 c1)::stack( d2 d1)::unstack( d2 d1)::put_down( d2 c1)::pick_up( d2 c1)::put_down( d2 c1)::pick_up( d3 c2)::stack( d3 d2)::put_down( d3 c1)::unstack( d3 d2)::unstack( d2 d1)::stack( d3 d1)::pick_up( d2 c1)
unstack( d3 d2)::stack( d3 d2)::unstack( d2 d1)::unstack( d3 d2)::pick_up( d2 c1)::stack( d3 d2)::unstack( d3 d2)::stack( d3 d2)::unstack( d3 d2)::put_down( d3 c2)::unstack( d3 d2)::pick_up( d3 c3)::unstack( d2 d1)::put_down( d2 c1)::pick_up( d1 c3)::put_down( d1 c3)::pick_up( d3 c2)::stack( d3 d2)::pick_up( d1 c3)::pick_up( d3 c3)
unstack( d3 d2)::put_down( d3 c2)::unstack( d2 d1)::stack( d2 d1)::unstack( d2 d1)::pick_up( d3 c3)
unstack( d3 d2)::put_down( d3 c1)::pick_up( d3 c1)::put_down( d3 c1)::unstack( d2 d1)::unstack( d3 d1)::put_down( d2 c2)::pick_up( d3 c1)::put_down( d3 c1)::pick_up( d1 c3)::put_down( d1 c3)::pick_up( d2 c2)::put_down( d2 c2)::pick_up( d2 c2)::stack( d3 d2)::put_down( d2 c3)::put_down( d1 c1)::put_down( d2 c2)::pick_up( d3 c1)
unstack( d3 d2)::put_down( d1 c2)::put_down( d3 c1)::unstack( d2 d1)::put_down( d2 c2)::put_down( d3 c1)::pick_up( d3 c1)::pick_up( d2 c2)
pick_up( d1 c3)::unstack( d3 d2)::pick_up( d2 c1)::put_down( d3 c2)::unstack( d2 d1)::stack( d2 d1)::pick_up( d3 c2)::stack( d3 d2)::unstack( d3 d2)::put_down( d3 c1)::pick_up( d3 c1)::put_down( d3 c1)::put_down( d1 c1)::unstack( d2 d1)::stack( d2 d1)::unstack( d2 d1)
unstack( d3 d2)::put_down( d3 c1)::unstack( d2 d1)::stack( d2 d1)::unstack( d2 d1)::put_down( d2 c2)::pick_up( d2 c2)::put_down( d2 c2)::pick_up( d2 c2)::stack( d2 d1)::unstack( d2 d1)::stack( d2 d1)::pick_up( d3 c1)::put_down( d3 c1)::unstack( d2 d1)::stack( d2 d1)::pick_up( d3 c1)::pick_up( d3 c3)::stack( d3 d2)
unstack( d3 d2)::put_down( d3 c2)::pick_up( d3 c2)::pick_up( d1 c1)::put_down( d1 c3)::put_down( d3 c1)::pick_up( d3 c1)::put_down( d1 c3)::put_down( d2 c3)::put_down( d3 c1)::put_down( d3 c2)::pick_up( d3 c1)::stack( d3 d2)::put_down( d2 c1)::unstack( d3 d2)::stack( d3 d2)::unstack( d3 d2)::pick_up( d3 c3)::put_down( d3 c1)
put_down( d1 c1)::unstack( d3 d2)::put_down( d3 c2)::pick_up( d3 c2)::stack( d3 d2)::unstack( d3 d2)::put_down( d3 c2)::put_down( d1 c2)::unstack( d2 d1)::pick_up( d2 c3)::put_down( d1 c3)
pick_up( d1 c1)::unstack( d3 d2)::put_down( d3 c1)::put_down( d1 c2)::unstack( d2 d1)::put_down( d2 c2)::pick_up( d2 c2)
unstack( d3 d2)::stack( d3 d2)::unstack( d3 d2)::put_down( d3 c1)::unstack( d2 d1)::put_down( d2 c2)::pick_up( d1 c2)::pick_up( d3 c1)::stack( d3 d1)
unstack( d3 d2)::put_down( d3 c1)::pick_up( d3 c1)::pick_up( d2 c1)::put_down( d3 c2)::unstack( d2 d1)::pick_up( d2 c2)::stack( d2 d1)::unstack( d2 d1)::put_down( d1 c1)::stack( d3 d2)::put_down( d2 c1)::put_down( d1 c1)::pick_up( d1 c3)::pick_up( d2 c2)::put_down( d1 c3)::unstack( d2 d1)::pick_up( d3 c2)
unstack( d3 d2)::put_down( d1 c3)
unstack( d3 d2)::put_down( d3 c1)::pick_up( d3 c1)::stack( d3 d2)::unstack( d3 d2)::stack( d3 d2)::pick_up( d3 c2)::unstack( d3 d2)::put_down( d3 c2)::pick_up( d3 c2)::put_down( d3 c2)::unstack( d2 d1)::pick_up( d2 c3)::pick_up( d2 c1)::stack( d2 d1)::unstack( d2 d1)
pick_up( d1 c1)::unstack( d3 d2)::stack( d3 d2)::unstack( d3 d2)::put_down( d3 c1)::unstack( d2 d1)::put_down( d1 c3)::unstack( d2 d1)::put_down( d2 c2)::stack( d3 d2)
pick_up( d3 c3)::unstack( d3 d2)::pick_up( d3 c2)::put_down( d3 c2)::pick_up( d3 c2)::stack( d3 d2)::unstack( d3 d2)::put_down( d3 c2)::pick_up( d3 c2)
unstack( d3 d2)::stack( d3 d2)::unstack( d3 d2)::put_down( d3 c1)::pick_up( d3 c1)::put_down( d3 c1)::put_down( d3 c3)::pick_up( d3 c2)::unstack( d2 d1)::put_down( d2 c2)
unstack( d3 d2)::put_down( d1 c3)::put_down( d3 c2)::pick_up( d3 c2)::stack( d3 d2)::unstack( d3 d2)::put_down( d3 c2)::pick_up( d3 c2)::put_down( d3 c2)::unstack( d2 d1)::put_down( d2 c1)::pick_up( d2 c1)::put_down( d2 c1)
unstack( d3 d2)::put_down( d2 c3)::put_down( d3 c1)::unstack( d3 d2)::unstack( d2 d1)::put_down( d3 c1)::pick_up( d3 c2)::put_down( d2 c2)::pick_up( d1 c3)::put_down( d1 c3)::pick_up( d3 c1)::stack( d3 d2)::unstack( d3 d2)::pick_up( d1 c3)::stack( d3 d2)::unstack( d3 d2)
unstack( d3 d2)::put_down( d3 c1)::pick_up( d3 c1)::stack( d3 d2)::unstack( d3 d2)::stack( d3 d2)::put_down( d3 c2)
unstack( d3 d2)::pick_up( d2 c2)::put_down( d3 c1)::unstack( d2 d1)::stack( d3 d2)::put_down( d2 c2)::pick_up( d3 c1)::stack( d3 d1)::put_down( d3 c2)::pick_up( d3 c3)::unstack( d3 d1)::put_down( d2 c1)::put_down( d3 c1)
unstack( d3 d2)::put_down( d3 c1)::pick_up( d3 c1)::pick_up( d2 c3)::put_down( d3 c1)::pick_up( d3 c1)::stack( d3 d2)::unstack( d3 d2)::put_down( d3 c1)::stack( d3 d1)::unstack( d2 d1)::put_down( d2 c2)::pick_up( d1 c3)::put_down( d1 c3)::pick_up( d3 c1)::put_down( d3 c1)::put_down( d2 c1)::pick_up( d3 c1)::stack( d3 d2)::unstack( d3 d2)
unstack( d3 d2)::put_down( d3 c1)::unstack( d2 d1)::put_down( d2 c2)::pick_up( d2 c2)::put_down( d2 c2)::pick_up( d1 c3)::put_down( d2 c2)
unstack( d3 d2)::put_down( d3 c2)::unstack( d2 d1)::put_down( d2 c1)::pick_up( d1 c3)::put_down( d1 c3)::pick_up( d1 c3)::put_down( d1 c3)::pick_up( d1 c3)::put_down( d1 c3)::put_down( d1 c2)::pick_up( d3 c2)::stack( d3 d2)::unstack( d3 d2)::stack( d3 d1)::pick_up( d2 c1)::unstack( d3 d2)::put_down( d2 c2)::unstack( d3 d1)
unstack( d3 d2)::put_down( d2 c3)::put_down( d3 c1)::unstack( d2 d1)::stack( d2 d1)::unstack( d2 d1)::stack( d2 d1)::unstack( d2 d1)::put_down( d2 c2)::pick_up( d3 c1)::stack( d3 d1)::pick_up( d2 c2)::put_down( d2 c1)::stack( d3 d2)::unstack( d3 d1)::stack( d3 d1)
unstack( d3 d2)::put_down( d2 c1)::stack( d3 d2)::unstack( d3 d2)::stack( d3 d2)
unstack( d3 d2)::put_down( d3 c2)::pick_up( d3 c2)::put_down( d3 c1)::pick_up( d3 c1)::stack( d3 d2)::unstack( d3 d2)::put_down( d3 c1)::unstack( d2 d1)::put_down( d2 c2)::put_down( d3 c1)
unstack( d3 d2)::stack( d3 d2)::unstack( d3 d2)::pick_up( d3 c3)::put_down( d3 c1)::unstack( d2 d1)::stack( d2 d1)::pick_up( d3 c1)::put_down( d3 c1)::unstack( d2 d1)::put_down( d2 c2)::pick_up( d3 c1)::put_down( d3 c1)::unstack( d2 d1)::pick_up( d3 c1)::stack( d3 d2)::put_down( d1 c1)::pick_up( d3 c2)
unstack( d3 d2)::put_down( d2 c1)::stack( d3 d2)::pick_up( d2 c1)::unstack( d3 d2)::unstack( d3 d1)::pick_up( d1 c2)::put_down( d3 c3)::stack( d3 d2)::unstack( d3 d2)::put_down( d3 c1)::pick_up( d3 c1)::stack( d3 d2)::unstack( d3 d2)
unstack( d3 d2)::put_down( d3 c2)::pick_up( d3 c2)::stack( d3 d2)::unstack( d3 d2)::stack( d3 d2)::put_down( d1 c3)::unstack( d3 d2)::put_down( d3 c2)::unstack( d2 d1)::pick_up( d2 c2)::put_down( d2 c2)
unstack( d3 d2)::stack( d3 d2)::unstack( d3 d2)::stack( d3 d2)::unstack( d3 d2)::put_down( d3 c1)::pick_up( d3 c1)::stack( d3 d2)::unstack( d3 d2)::put_down( d3 c1)::unstack( d2 d1)::stack( d3 d2)::stack( d2 d1)
unstack( d3 d2)::stack( d3 d2)::unstack( d3 d2)::stack( d3 d2)::unstack( d3 d2)::stack( d3 d2)::unstack( d3 d2)::put_down( d2 c3)::put_down( d1 c3)::put_down( d2 c3)::stack( d3 d2)::unstack( d2 d1)::unstack( d3 d2)::put_down( d3 c1)::unstack( d2 d1)
unstack( d3 d2)::stack( d3 d2)::pick_up( d3 c1)::unstack( d3 d2)::stack( d2 d1)::stack( d3 d2)::pick_up( d1 c1)::unstack( d3 d2)::pick_up( d2 c2)::put_down( d3 c2)::pick_up( d1 c2)::unstack( d2 d1)::put_down( d2 c1)::pick_up( d3 c2)::stack( d3 d1)::unstack( d3 d1)::stack( d3 d1)::unstack( d3 d1)::stack( d3 d2)::unstack( d3 d2)
unstack( d3 d2)::pick_up( d3 c3)::put_down( d3 c1)::unstack( d2 d1)::stack( d2 d1)::unstack( d2 d1)::stack( d2 d1)::unstack( d3 d1)::pick_up( d3 c1)::put_down( d3 c2)
unstack( d3 d2)::put_down( d3 c1)::pick_up( d3 c1)::put_down( d3 c2)::unstack( d2 d1)::put_down( d2 c1)::put_down( d3 c3)
unstack( d3 d2)::put_down( d3 c2)::unstack( d2 d1)::put_down( d1 c2)::stack( d2 d1)
unstack( d3 d2)::put_down( d3 c2)::unstack( d2 d1)::stack( d2 d1)::unstack( d2 d1)::put_down( d2 c1)::pick_up( d1 c3)::put_down( d1 c3)::pick_up( d3 c2)::stack( d3 d2)::pick_up( d1 c3)::put_down( d1 c3)::pick_up( d1 c3)::put_down( d1 c2)::stack( d3 d2)
unstack( d3 d2)::put_down( d3 c2)::unstack( d2 d1)::put_down( d2 c1)::pick_up( d2 c1)::pick_up( d1 c2)
put_down( d3 c2)::unstack( d3 d2)::unstack( d3 d1)::put_down( d3 c1)::pick_up( d3 c1)::put_down( d3 c1)::unstack( d2 d1)::put_down( d2 c2)::put_down( d2 c2)::pick_up( d3 c1)::put_down( d3 c1)::pick_up( d2 c2)::pick_up( d2 c1)::put_down( d2 c2)::pick_up( d2 c2)::stack( d2 d1)::pick_up( d1 c3)::pick_up( d3 c1)::unstack( d2 d1)
unstack( d3 d2)::put_down( d3 c2)::pick_up( d3 c2)::put_down( d3 c2)::unstack( d2 d1)::put_down( d2 c1)::pick_up( d3 c1)::pick_up( d3 c2)::put_down( d3 c2)::pick_up( d2 c1)::stack( d2 d1)::put_down( d1 c2)::unstack( d3 d2)::pick_up( d3 c2)::stack( d3 d2)::put_down( d2 c2)
unstack( d3 d2)::put_down( d3 c2)::pick_up( d3 c2)::pick_up( d2 c3)
unstack( d3 d2)::put_down( d3 c1)::unstack( d2 d1)::put_down( d2 c2)::pick_up( d1 c1)::put_down( d1 c3)::pick_up( d1 c3)::put_down( d2 c3)::stack( d3 d1)
unstack( d3 d2)::put_down( d3 c2)::unstack( d2 d1)::unstack( d2 d1)::put_down( d2 c1)::pick_up( d1 c3)::put_down( d1 c3)::unstack( d2 d1)::pick_up( d3 c2)::stack( d3 d1)::pick_up( d2 c1)
