move( f3-3f f3-2f left)::move( f0-0f f1-0f down)::move( f1-1f f0-1f up)::move( f0-1f f0-2f right)
move( f3-3f f3-2f left)::push( f1-1f f1-2f f1-3f right box1)::push( f0-2f f1-2f f2-2f down box1)::push( f3-3f f3-2f f3-1f left box1)::move( f3-2f f2-2f up)::move( f2-1f f3-1f down)::move( f1-2f f1-3f right)::move( f3-1f f3-0f left)
move( f3-3f f3-2f left)::move( f3-2f f2-2f up)::move( f2-2f f2-1f left)::push( f2-1f f1-1f f0-1f up box0)::move( f1-1f f2-1f down)::move( f2-1f f1-1f up)::move( f1-1f f1-0f left)::push( f1-2f f1-1f f1-0f left box0)::move( f1-0f f2-0f down)::move( f2-0f f1-0f up)
move( f3-3f f2-3f up)::move( f2-3f f1-3f up)::move( f0-0f f1-0f down)
move( f3-3f f2-3f up)::move( f2-3f f2-2f left)::move( f2-2f f1-2f up)::move( f1-2f f0-2f up)::move( f0-2f f0-3f right)::move( f0-3f f0-2f left)::move( f0-2f f0-3f right)::push( f2-1f f1-1f f0-1f up box1)
move( f3-3f f2-3f up)::move( f2-3f f1-3f up)::move( f1-3f f1-2f left)::push( f1-2f f1-1f f1-0f left box0)::move( f1-1f f1-2f right)::move( f1-2f f1-1f left)::move( f1-1f f2-1f down)::move( f2-3f f1-3f up)
move( f3-3f f3-2f left)::move( f3-2f f2-2f up)::move( f2-2f f3-2f down)::push( f3-2f f3-1f f3-0f left box1)::move( f3-1f f2-1f up)::move( f2-1f f2-0f left)::move( f2-0f f2-1f right)::push( f2-3f f2-2f f2-1f left box0)::move( f2-1f f3-1f down)::move( f3-1f f3-2f right)
move( f3-3f f3-2f left)::push( f0-1f f1-1f f2-1f down box1)::push( f3-2f f3-1f f3-0f left box1)::move( f3-1f f2-1f up)::push( f2-0f f2-1f f2-2f right box1)
move( f3-3f f2-3f up)::move( f2-3f f1-3f up)::move( f1-3f f1-2f left)::move( f1-2f f2-2f down)::move( f2-2f f3-2f down)::move( f3-2f f2-2f up)::move( f2-2f f2-1f left)::move( f2-1f f2-2f right)::move( f2-2f f2-3f right)::move( f2-3f f1-3f up)::move( f1-3f f2-3f down)::move( f2-3f f2-2f left)::move( f2-2f f3-2f down)::push( f3-2f f3-1f f3-0f left box1)::move( f3-1f f3-2f right)::move( f3-2f f2-2f up)::move( f2-2f f3-2f down)::move( f3-2f f3-1f left)::move( f3-1f f3-2f right)::move( f3-2f f2-2f up)::move( f2-2f f3-2f down)::move( f3-2f f3-1f left)::move( f3-1f f3-2f right)::move( f3-2f f2-2f up)::move( f2-2f f1-2f up)::move( f1-2f f1-3f right)::move( f0-2f f1-2f down)
move( f3-3f f3-2f left)::move( f1-3f f2-3f down)::push( f3-2f f3-1f f3-0f left box1)
move( f3-3f f2-3f up)::move( f2-3f f2-2f left)::move( f2-2f f2-1f left)::move( f2-1f f2-2f right)::move( f2-2f f2-1f left)::move( f2-1f f2-2f right)::move( f1-1f f2-1f down)::move( f2-2f f1-2f up)::push( f0-2f f0-1f f0-0f left box1)::move( f1-2f f1-3f right)
push( f3-3f f3-2f f3-1f left box1)::move( f3-3f f3-2f left)::move( f2-2f f2-1f left)
move( f3-3f f2-3f up)::move( f2-3f f2-2f left)::move( f2-2f f1-2f up)::push( f1-1f f2-1f f3-1f down box1)
push( f2-1f f1-1f f0-1f up box1)::push( f1-0f f1-1f f1-2f right box1)::push( f0-2f f1-2f f2-2f down box1)::move( f3-3f f2-3f up)::push( f0-3f f1-3f f2-3f down box0)::move( f2-3f f1-3f up)::push( f3-3f f2-3f f1-3f up box1)::move( f1-3f f2-3f down)::move( f2-3f f2-2f left)
move( f3-3f f2-3f up)::move( f2-3f f2-2f left)::move( f2-2f f1-2f up)::move( f1-2f f1-3f right)::move( f1-3f f2-3f down)::move( f2-3f f1-3f up)::move( f1-3f f2-3f down)::move( f2-3f f1-3f up)::move( f1-3f f2-3f down)::move( f2-3f f1-3f up)::move( f1-3f f2-3f down)::move( f2-3f f2-2f left)::move( f2-2f f1-2f up)::move( f1-2f f1-3f right)::move( f1-3f f2-3f down)::move( f2-3f f1-3f up)::move( f1-3f f0-3f up)::move( f0-3f f0-2f left)::move( f0-2f f0-3f right)::move( f0-3f f0-2f left)::push( f0-3f f1-3f f2-3f down box1)
move( f1-2f f0-2f up)
move( f3-3f f3-2f left)::move( f3-2f f2-2f up)::move( f2-2f f1-2f up)::move( f1-2f f0-2f up)::move( f0-2f f0-3f right)::move( f0-3f f1-3f down)::move( f1-3f f1-2f left)::move( f1-2f f1-3f right)::move( f1-3f f1-2f left)::move( f1-2f f2-2f down)::move( f2-2f f1-2f up)::move( f2-3f f2-2f left)
push( f0-1f f0-2f f0-3f right box1)::move( f3-3f f3-2f left)::move( f3-2f f2-2f up)::move( f2-2f f2-3f right)::move( f2-3f f1-3f up)::move( f2-2f f2-3f right)::move( f1-3f f0-3f up)::move( f1-1f f2-1f down)::push( f2-3f f2-2f f2-1f left box1)::move( f0-3f f0-2f left)
move( f3-3f f3-2f left)::move( f3-2f f2-2f up)::move( f2-2f f1-2f up)::move( f1-2f f0-2f up)::move( f0-2f f1-2f down)::push( f1-2f f1-1f f1-0f left box0)::move( f1-1f f1-2f right)::move( f1-2f f1-1f left)::move( f1-1f f2-1f down)::move( f2-1f f1-1f up)::move( f1-1f f2-1f down)::move( f2-1f f1-1f up)::move( f1-1f f0-1f up)::move( f0-1f f1-1f down)::move( f1-1f f1-2f right)::move( f1-2f f2-2f down)::move( f2-2f f1-2f up)::push( f0-0f f0-1f f0-2f right box1)
move( f3-3f f3-2f left)::move( f0-3f f1-3f down)::push( f3-2f f3-1f f3-0f left box1)
move( f3-3f f2-3f up)::move( f1-2f f0-2f up)::move( f2-3f f1-3f up)::move( f1-3f f0-3f up)::move( f0-3f f0-2f left)::move( f3-3f f3-2f left)::move( f0-2f f1-2f down)::move( f1-2f f1-3f right)
move( f3-3f f3-2f left)::move( f3-2f f2-2f up)::move( f2-2f f2-1f left)::push( f2-1f f1-1f f0-1f up box0)::move( f1-1f f1-2f right)::move( f1-2f f1-3f right)::push( f1-2f f1-1f f1-0f left box1)
move( f3-3f f3-2f left)::push( f3-2f f3-1f f3-0f left box1)::push( f1-2f f1-1f f1-0f left box1)::push( f3-2f f3-1f f3-0f left box1)::move( f0-1f f1-1f down)::move( f3-1f f3-2f right)
move( f1-1f f0-1f up)::move( f1-1f f1-0f left)::move( f3-3f f3-2f left)::push( f3-2f f3-1f f3-0f left box1)::push( f0-1f f0-2f f0-3f right box0)::move( f3-1f f2-1f up)
move( f3-3f f3-2f left)::push( f3-2f f3-1f f3-0f left box1)::move( f1-2f f1-1f left)::move( f3-1f f3-2f right)::move( f3-2f f2-2f up)::move( f2-2f f1-2f up)::move( f1-2f f2-2f down)::move( f3-0f f2-0f up)::move( f2-2f f1-2f up)
move( f3-3f f3-2f left)::push( f3-2f f3-1f f3-0f left box1)::move( f3-1f f3-0f left)::move( f3-1f f2-1f up)::move( f0-1f f0-0f left)::push( f2-1f f1-1f f0-1f up box0)::move( f1-1f f1-2f right)::move( f1-2f f1-3f right)::move( f1-3f f0-3f up)
move( f1-1f f2-1f down)
move( f3-3f f2-3f up)::move( f2-3f f1-3f up)::move( f2-1f f2-2f right)::move( f1-3f f2-3f down)::move( f2-3f f1-3f up)::move( f1-3f f2-3f down)::move( f2-3f f2-2f left)::move( f2-2f f2-1f left)::move( f0-2f f0-1f left)
move( f2-1f f2-2f right)::move( f3-3f f3-2f left)::move( f3-2f f2-2f up)::push( f2-1f f2-2f f2-3f right box1)::move( f2-2f f3-2f down)::push( f0-0f f1-0f f2-0f down box1)::move( f1-0f f2-0f down)::push( f3-2f f3-1f f3-0f left box1)::move( f3-1f f3-2f right)
move( f3-3f f2-3f up)::push( f0-2f f0-1f f0-0f left box1)::move( f2-3f f1-3f up)::move( f1-3f f1-2f left)::move( f2-1f f2-2f right)
move( f3-3f f3-2f left)::move( f3-2f f2-2f up)::move( f2-2f f2-3f right)::move( f1-0f f0-0f up)
move( f3-3f f2-3f up)::push( f1-1f f1-2f f1-3f right box1)::push( f1-2f f2-2f f3-2f down box1)::move( f2-3f f1-3f up)::push( f2-1f f1-1f f0-1f up box0)::move( f1-3f f0-3f up)::move( f0-3f f0-2f left)::push( f1-2f f1-1f f1-0f left box1)
move( f3-3f f3-2f left)::push( f3-2f f3-1f f3-0f left box1)::move( f3-1f f2-1f up)::move( f2-1f f2-2f right)::move( f2-2f f2-1f left)::move( f2-1f f2-0f left)::move( f2-0f f1-0f up)::push( f1-0f f1-1f f1-2f right box0)::push( f1-1f f1-2f f1-3f right box0)::move( f1-2f f1-1f left)::move( f1-1f f1-2f right)::push( f3-2f f2-2f f1-2f up box1)
push( f2-3f f2-2f f2-1f left box0)::push( f3-3f f3-2f f3-1f left box0)::move( f0-2f f0-3f right)::move( f3-3f f2-3f up)::move( f2-3f f1-3f up)::move( f1-3f f1-2f left)
push( f3-3f f3-2f f3-1f left box1)
move( f3-3f f3-2f left)::move( f3-2f f2-2f up)::move( f2-2f f3-2f down)::move( f3-2f f2-2f up)::move( f2-2f f3-2f down)::move( f3-2f f2-2f up)::push( f3-2f f3-1f f3-0f left box1)
move( f3-3f f2-3f up)::move( f2-3f f2-2f left)::move( f2-2f f3-2f down)::move( f3-2f f2-2f up)::move( f2-2f f3-2f down)::push( f3-2f f3-1f f3-0f left box1)::move( f2-3f f1-3f up)::move( f3-1f f2-1f up)::move( f2-1f f2-0f left)
push( f2-2f f1-2f f0-2f up box1)::move( f3-3f f2-3f up)::move( f2-3f f1-3f up)::push( f0-1f f0-2f f0-3f right box0)::move( f1-3f f2-3f down)::move( f2-3f f2-2f left)::move( f2-2f f1-2f up)::move( f1-2f f1-3f right)::move( f1-3f f2-3f down)::move( f2-3f f2-2f left)
move( f3-3f f3-2f left)::move( f3-2f f2-2f up)::move( f2-2f f2-1f left)::move( f2-1f f2-0f left)::move( f1-1f f1-0f left)
move( f3-3f f3-2f left)::push( f3-0f f3-1f f3-2f right box0)::move( f3-2f f2-2f up)::move( f2-2f f3-2f down)::move( f3-2f f2-2f up)::move( f1-2f f0-2f up)::move( f2-2f f2-3f right)::move( f2-3f f1-3f up)::move( f1-3f f1-2f left)
move( f3-3f f2-3f up)::move( f2-3f f1-3f up)::move( f1-3f f0-3f up)::move( f0-3f f0-2f left)::move( f0-2f f1-2f down)::move( f1-2f f1-3f right)::push( f1-0f f1-1f f1-2f right box1)
move( f3-3f f2-3f up)::move( f2-3f f1-3f up)::move( f1-3f f0-3f up)::move( f0-3f f0-2f left)::move( f0-2f f0-1f left)::push( f0-1f f1-1f f2-1f down box0)::move( f1-1f f1-2f right)::move( f1-2f f1-3f right)::move( f1-3f f1-2f left)::move( f1-2f f1-1f left)::move( f0-1f f1-1f down)
move( f3-3f f3-2f left)::move( f0-3f f0-2f left)::push( f2-2f f1-2f f0-2f up box1)::move( f3-2f f2-2f up)::move( f2-2f f1-2f up)::move( f1-2f f1-3f right)::move( f1-3f f1-2f left)::move( f1-2f f1-3f right)
move( f3-3f f2-3f up)::move( f0-1f f1-1f down)::move( f2-3f f1-3f up)
move( f3-3f f3-2f left)::push( f3-2f f3-1f f3-0f left box1)::move( f3-1f f3-2f right)::move( f3-2f f2-2f up)::move( f2-2f f2-1f left)::push( f1-0f f1-1f f1-2f right box1)
move( f3-3f f3-2f left)::push( f3-2f f3-1f f3-0f left box1)::move( f3-1f f3-2f right)::move( f3-2f f3-1f left)::move( f3-1f f3-2f right)::push( f2-1f f2-2f f2-3f right box0)::move( f3-2f f3-1f left)::move( f3-1f f2-1f up)::push( f2-1f f1-1f f0-1f up box0)
move( f3-3f f3-2f left)::move( f3-2f f2-2f up)::move( f2-2f f1-2f up)::move( f1-0f f2-0f down)::move( f1-2f f0-2f up)
move( f3-3f f2-3f up)::move( f2-3f f2-2f left)::move( f3-0f f3-1f right)
push( f0-2f f0-1f f0-0f left box1)::push( f1-0f f2-0f f3-0f down box0)::move( f3-3f f2-3f up)::move( f2-3f f1-3f up)
move( f3-3f f3-2f left)::push( f3-2f f3-1f f3-0f left box1)::move( f3-1f f3-2f right)::move( f3-2f f3-1f left)::move( f3-1f f2-1f up)::move( f2-1f f3-1f down)::move( f3-1f f2-1f up)::move( f2-1f f2-2f right)::move( f2-2f f2-1f left)::push( f2-1f f1-1f f0-1f up box0)::move( f1-1f f2-1f down)::move( f2-1f f3-1f down)::move( f3-1f f2-1f up)::move( f2-1f f2-0f left)::push( f2-0f f2-1f f2-2f right box0)
move( f3-3f f2-3f up)::move( f2-3f f1-3f up)::move( f1-3f f0-3f up)::move( f0-3f f1-3f down)::move( f1-3f f2-3f down)::move( f2-3f f2-2f left)::move( f2-2f f1-2f up)::move( f1-2f f1-3f right)::move( f1-3f f2-3f down)::move( f2-3f f2-2f left)::move( f0-3f f1-3f down)
move( f3-3f f3-2f left)::move( f3-2f f2-2f up)::push( f1-0f f2-0f f3-0f down box1)::move( f2-2f f3-2f down)::push( f3-3f f2-3f f1-3f up box0)
move( f3-3f f2-3f up)::move( f2-3f f2-2f left)::move( f2-2f f3-2f down)::move( f3-2f f2-2f up)::move( f2-2f f3-2f down)::push( f3-2f f3-1f f3-0f left box1)::move( f3-1f f2-1f up)::move( f2-1f f2-2f right)::move( f2-2f f1-2f up)::push( f3-0f f2-0f f1-0f up box0)
move( f3-3f f3-2f left)::move( f1-0f f0-0f up)::move( f3-2f f2-2f up)::move( f2-2f f2-1f left)::push( f3-2f f2-2f f1-2f up box0)
move( f3-3f f3-2f left)::push( f0-2f f0-1f f0-0f left box1)::push( f3-2f f3-1f f3-0f left box1)::move( f3-1f f2-1f up)::push( f1-1f f2-1f f3-1f down box0)::move( f2-1f f2-2f right)
move( f3-3f f2-3f up)::move( f2-0f f1-0f up)::move( f2-3f f1-3f up)::move( f1-3f f0-3f up)::move( f0-3f f1-3f down)::move( f1-3f f0-3f up)::move( f0-3f f0-2f left)::move( f0-2f f0-1f left)
move( f3-3f f2-3f up)::move( f2-3f f1-3f up)::move( f1-3f f2-3f down)::move( f2-3f f2-2f left)::move( f2-2f f2-3f right)::push( f0-1f f1-1f f2-1f down box1)
push( f0-3f f0-2f f0-1f left box1)::move( f1-3f f0-3f up)::push( f1-1f f2-1f f3-1f down box0)::move( f3-3f f3-2f left)::push( f3-2f f3-1f f3-0f left box1)::move( f3-1f f2-1f up)::move( f2-1f f2-2f right)::move( f2-2f f2-3f right)::move( f2-3f f2-2f left)
move( f3-3f f3-2f left)::push( f3-2f f3-1f f3-0f left box1)::push( f0-1f f1-1f f2-1f down box0)::push( f1-3f f1-2f f1-1f left box1)::move( f3-1f f2-1f up)::move( f2-1f f2-2f right)::move( f2-2f f2-3f right)
move( f1-1f f0-1f up)::move( f3-3f f2-3f up)::move( f2-3f f2-2f left)::move( f2-2f f2-3f right)::move( f2-3f f2-2f left)::move( f2-2f f2-1f left)::push( f2-1f f1-1f f0-1f up box0)::move( f1-1f f2-1f down)::move( f2-1f f2-2f right)::move( f2-2f f3-2f down)
move( f1-3f f2-3f down)::move( f0-1f f0-0f left)::move( f3-3f f2-3f up)::move( f2-3f f1-3f up)::move( f3-1f f2-1f up)::move( f1-3f f0-3f up)::move( f0-3f f1-3f down)
move( f3-3f f2-3f up)::move( f2-2f f2-1f left)::move( f2-3f f1-3f up)
push( f3-3f f3-2f f3-1f left box1)::move( f3-0f f2-0f up)::move( f3-3f f3-2f left)::move( f3-2f f2-2f up)::move( f2-2f f2-1f left)::push( f2-1f f1-1f f0-1f up box0)::move( f1-1f f1-0f left)
move( f3-3f f2-3f up)::move( f2-3f f2-2f left)::move( f2-2f f2-3f right)::move( f2-3f f1-3f up)::push( f1-3f f1-2f f1-1f left box1)
move( f3-3f f2-3f up)::move( f2-3f f1-3f up)::move( f1-3f f1-2f left)::move( f1-2f f0-2f up)::move( f0-2f f0-1f left)::move( f2-0f f3-0f down)
move( f3-3f f2-3f up)::move( f2-3f f1-3f up)::move( f1-3f f2-3f down)::move( f2-3f f1-3f up)::move( f1-3f f0-3f up)::move( f0-3f f1-3f down)::move( f1-3f f2-3f down)::move( f2-3f f1-3f up)::move( f3-2f f2-2f up)
move( f3-3f f2-3f up)::move( f2-3f f1-3f up)::move( f1-3f f1-2f left)::move( f1-2f f0-2f up)::move( f0-2f f1-2f down)::push( f0-3f f1-3f f2-3f down box0)::move( f1-2f f2-2f down)
move( f3-3f f2-3f up)::move( f2-3f f1-3f up)::move( f1-3f f0-3f up)::move( f0-3f f1-3f down)::move( f1-3f f2-3f down)::move( f2-3f f2-2f left)::move( f2-2f f2-3f right)::move( f2-3f f1-3f up)::move( f1-3f f1-2f left)::move( f1-2f f2-2f down)::move( f2-2f f2-3f right)::push( f2-3f f1-3f f0-3f up box0)
move( f3-3f f2-3f up)::move( f2-3f f2-2f left)::move( f2-2f f1-2f up)::move( f1-2f f2-2f down)::move( f2-2f f1-2f up)::move( f1-2f f2-2f down)::move( f2-0f f2-1f right)::move( f2-2f f2-3f right)::move( f2-3f f2-2f left)::move( f2-2f f2-3f right)
move( f2-2f f3-2f down)::move( f3-3f f2-3f up)::push( f0-1f f0-2f f0-3f right box1)::move( f2-3f f1-3f up)
move( f3-3f f3-2f left)::move( f3-2f f2-2f up)::move( f2-0f f3-0f down)
move( f3-3f f3-2f left)::push( f1-2f f2-2f f3-2f down box1)::move( f3-2f f2-2f up)::move( f2-2f f3-2f down)::push( f1-3f f1-2f f1-1f left box0)::move( f3-2f f2-2f up)::move( f2-2f f2-1f left)
move( f1-1f f1-2f right)
push( f3-0f f2-0f f1-0f up box0)::move( f3-3f f2-3f up)
move( f3-3f f2-3f up)::move( f2-3f f1-3f up)::move( f1-3f f0-3f up)::move( f3-3f f3-2f left)
move( f3-3f f3-2f left)::move( f3-2f f2-2f up)::push( f0-2f f1-2f f2-2f down box0)
move( f3-3f f2-3f up)::move( f2-3f f1-3f up)::move( f1-3f f1-2f left)::push( f1-2f f1-1f f1-0f left box0)::move( f3-0f f3-1f right)
push( f2-0f f1-0f f0-0f up box1)::move( f3-3f f2-3f up)::move( f2-3f f1-3f up)
move( f3-3f f3-2f left)::push( f3-2f f3-1f f3-0f left box1)::move( f3-1f f2-1f up)::push( f2-1f f1-1f f0-1f up box0)::move( f1-1f f1-0f left)::move( f1-0f f2-0f down)::push( f3-2f f2-2f f1-2f up box0)::move( f2-0f f1-0f up)::move( f1-0f f0-0f up)::push( f0-0f f0-1f f0-2f right box0)
move( f3-3f f2-3f up)::push( f0-1f f0-2f f0-3f right box1)::move( f2-3f f1-3f up)::move( f1-3f f1-2f left)
move( f3-3f f2-3f up)::move( f2-3f f1-3f up)::move( f1-3f f2-3f down)::move( f2-3f f2-2f left)::move( f2-2f f3-2f down)::push( f1-3f f1-2f f1-1f left box1)::push( f3-2f f3-1f f3-0f left box1)::move( f3-1f f2-1f up)::move( f2-1f f2-0f left)::move( f2-0f f2-1f right)
move( f3-3f f3-2f left)::push( f1-1f f1-2f f1-3f right box1)::move( f3-3f f2-3f up)::push( f3-2f f3-1f f3-0f left box1)::move( f3-1f f3-2f right)::move( f3-2f f2-2f up)::push( f2-1f f2-2f f2-3f right box0)::move( f2-2f f2-1f left)::move( f2-1f f2-0f left)::move( f2-0f f1-0f up)
push( f2-1f f2-2f f2-3f right box1)::move( f3-3f f2-3f up)::move( f2-3f f2-2f left)::move( f2-2f f3-2f down)::push( f3-3f f2-3f f1-3f up box0)::push( f3-1f f2-1f f1-1f up box1)::push( f3-2f f3-1f f3-0f left box1)::push( f3-1f f2-1f f1-1f up box0)::move( f3-1f f2-1f up)
push( f1-2f f2-2f f3-2f down box1)
move( f3-3f f3-2f left)::push( f3-2f f3-1f f3-0f left box1)::push( f2-0f f2-1f f2-2f right box1)::move( f3-1f f3-2f right)::move( f3-2f f3-1f left)::move( f0-0f f0-1f right)::push( f0-0f f1-0f f2-0f down box0)::move( f3-1f f3-2f right)
move( f3-3f f2-3f up)::move( f1-0f f2-0f down)::push( f0-3f f0-2f f0-1f left box1)::move( f2-3f f1-3f up)::move( f1-3f f2-3f down)::move( f2-3f f2-2f left)::push( f1-2f f2-2f f3-2f down box1)
push( f3-0f f2-0f f1-0f up box0)::move( f3-3f f2-3f up)::push( f2-2f f2-1f f2-0f left box0)::push( f0-0f f0-1f f0-2f right box1)
move( f3-3f f2-3f up)::move( f2-3f f1-3f up)::move( f1-3f f2-3f down)::push( f3-3f f2-3f f1-3f up box1)::push( f2-0f f1-0f f0-0f up box0)::move( f2-3f f1-3f up)::move( f1-3f f0-3f up)::move( f0-3f f0-2f left)::move( f0-2f f0-1f left)
move( f3-3f f3-2f left)::push( f3-2f f3-1f f3-0f left box1)::move( f3-1f f2-1f up)::move( f2-1f f3-1f down)::move( f3-1f f3-2f right)::move( f3-2f f2-2f up)::move( f2-2f f3-2f down)::move( f3-2f f2-2f up)::move( f2-2f f1-2f up)::move( f1-2f f2-2f down)::move( f1-2f f1-1f left)
push( f3-3f f2-3f f1-3f up box1)::move( f3-3f f3-2f left)::push( f0-0f f0-1f f0-2f right box1)::push( f0-3f f0-2f f0-1f left box0)::push( f3-2f f3-1f f3-0f left box1)
move( f3-3f f3-2f left)::move( f3-2f f2-2f up)::move( f1-0f f1-1f right)::move( f2-2f f1-2f up)
move( f3-3f f2-3f up)::move( f2-3f f1-3f up)::move( f1-3f f1-2f left)::push( f1-2f f1-1f f1-0f left box0)::move( f1-1f f2-1f down)::move( f2-1f f1-1f up)::move( f1-1f f2-1f down)::move( f2-3f f1-3f up)
move( f3-3f f2-3f up)::move( f2-3f f2-2f left)::push( f2-0f f1-0f f0-0f up box1)::move( f2-2f f2-1f left)
move( f3-3f f2-3f up)::move( f2-3f f2-2f left)::move( f2-2f f2-3f right)::move( f0-3f f0-2f left)::push( f2-2f f1-2f f0-2f up box1)::move( f2-3f f2-2f left)::move( f3-1f f2-1f up)
push( f0-2f f0-1f f0-0f left box0)::move( f3-3f f2-3f up)::move( f2-3f f2-2f left)::push( f2-2f f2-1f f2-0f left box1)::move( f2-2f f1-2f up)::move( f1-2f f0-2f up)::move( f0-2f f0-1f left)
move( f3-3f f2-3f up)::move( f2-3f f2-2f left)::push( f2-1f f1-1f f0-1f up box1)::move( f2-2f f1-2f up)::move( f1-2f f0-2f up)::move( f0-2f f1-2f down)::move( f1-2f f0-2f up)
move( f3-3f f3-2f left)::push( f3-2f f3-1f f3-0f left box1)::move( f3-1f f2-1f up)::move( f0-1f f0-2f right)::move( f2-1f f2-0f left)::move( f2-0f f1-0f up)::move( f1-2f f0-2f up)::push( f1-0f f1-1f f1-2f right box0)::move( f1-1f f2-1f down)
move( f2-1f f1-1f up)::push( f3-3f f3-2f f3-1f left box0)::move( f1-1f f1-0f left)::move( f3-3f f3-2f left)::push( f0-3f f1-3f f2-3f down box1)::push( f3-2f f2-2f f1-2f up box0)::push( f3-2f f3-1f f3-0f left box1)::move( f3-1f f3-2f right)
move( f3-3f f2-3f up)::push( f0-0f f1-0f f2-0f down box1)
move( f3-3f f2-3f up)::move( f2-3f f1-3f up)::push( f1-3f f1-2f f1-1f left box1)::move( f1-3f f0-3f up)::move( f0-3f f1-3f down)::move( f1-3f f2-3f down)
push( f0-3f f0-2f f0-1f left box1)::move( f3-3f f2-3f up)::move( f2-3f f1-3f up)::move( f1-3f f2-3f down)::move( f2-3f f1-3f up)::move( f2-2f f1-2f up)
push( f3-0f f3-1f f3-2f right box1)::move( f1-2f f0-2f up)::move( f3-3f f3-2f left)::push( f2-0f f1-0f f0-0f up box0)
move( f3-3f f3-2f left)::push( f3-2f f3-1f f3-0f left box1)::move( f3-1f f2-1f up)::move( f2-1f f3-1f down)::move( f3-1f f3-2f right)::move( f1-1f f1-2f right)
move( f3-3f f2-3f up)::move( f2-3f f1-3f up)::move( f1-3f f0-3f up)::move( f0-3f f1-3f down)::move( f1-3f f1-2f left)::move( f2-1f f2-0f left)
move( f3-3f f2-3f up)::move( f2-3f f2-2f left)::move( f2-2f f3-2f down)::push( f1-2f f1-1f f1-0f left box0)::move( f3-2f f2-2f up)::move( f2-2f f2-1f left)::push( f2-1f f1-1f f0-1f up box0)::push( f2-1f f1-1f f0-1f up box1)::move( f1-1f f1-0f left)::move( f1-2f f1-1f left)
move( f3-3f f3-2f left)::move( f3-2f f2-2f up)::move( f2-2f f2-1f left)::push( f0-1f f1-1f f2-1f down box0)::push( f2-1f f1-1f f0-1f up box0)::move( f2-1f f3-1f down)::move( f1-3f f1-2f left)::push( f0-1f f1-1f f2-1f down box1)
move( f3-3f f2-3f up)::move( f2-3f f2-2f left)::move( f3-2f f2-2f up)
move( f1-2f f1-3f right)::move( f3-3f f2-3f up)::move( f2-3f f1-3f up)::move( f1-3f f2-3f down)::move( f2-3f f2-2f left)::move( f2-2f f3-2f down)::move( f3-2f f2-2f up)::move( f2-2f f3-2f down)::move( f3-2f f2-2f up)
move( f3-3f f2-3f up)::move( f2-3f f1-3f up)::move( f0-3f f0-2f left)::move( f1-3f f2-3f down)::push( f2-1f f2-2f f2-3f right box1)::move( f2-3f f1-3f up)::move( f1-3f f2-3f down)::move( f0-1f f0-0f left)
move( f3-3f f3-2f left)::push( f3-2f f3-1f f3-0f left box1)::move( f3-1f f2-1f up)::move( f2-1f f3-1f down)::move( f3-1f f2-1f up)::push( f2-1f f1-1f f0-1f up box0)::push( f3-0f f2-0f f1-0f up box0)
move( f3-3f f3-2f left)::push( f3-2f f3-1f f3-0f left box0)::push( f3-2f f3-1f f3-0f left box1)::move( f3-1f f2-1f up)::move( f3-3f f3-2f left)
push( f0-1f f1-1f f2-1f down box1)::move( f3-3f f2-3f up)::push( f1-2f f2-2f f3-2f down box0)::move( f2-3f f2-2f left)::move( f1-1f f2-1f down)::move( f2-2f f1-2f up)
move( f3-3f f2-3f up)::move( f0-3f f1-3f down)::move( f2-3f f2-2f left)::move( f2-2f f1-2f up)::move( f1-2f f1-3f right)::move( f1-3f f2-3f down)::move( f2-3f f1-3f up)
move( f3-3f f3-2f left)::push( f3-2f f3-1f f3-0f left box1)::move( f3-1f f3-2f right)::move( f3-2f f2-2f up)::move( f1-1f f1-0f left)
move( f3-3f f2-3f up)::move( f1-3f f2-3f down)::move( f2-3f f2-2f left)
move( f1-3f f1-2f left)::move( f3-3f f2-3f up)::move( f2-3f f1-3f up)::move( f1-3f f1-2f left)::move( f1-2f f0-2f up)
push( f1-0f f1-1f f1-2f right box0)::move( f3-3f f3-2f left)::push( f3-2f f3-1f f3-0f left box1)::push( f1-2f f1-1f f1-0f left box0)::move( f2-2f f2-3f right)::move( f3-1f f2-1f up)
move( f3-3f f2-3f up)::move( f2-0f f3-0f down)::move( f2-3f f1-3f up)::move( f1-3f f1-2f left)::move( f1-2f f2-2f down)::move( f2-2f f2-1f left)::move( f0-2f f0-1f left)::move( f2-1f f2-0f left)::move( f2-0f f1-0f up)::push( f1-0f f1-1f f1-2f right box0)
move( f3-3f f2-3f up)::move( f2-3f f1-3f up)::move( f1-3f f2-3f down)::move( f2-3f f2-2f left)::move( f2-2f f1-2f up)::move( f1-2f f0-2f up)::move( f0-2f f0-3f right)::move( f0-3f f1-3f down)::push( f0-0f f0-1f f0-2f right box1)
move( f3-3f f3-2f left)::move( f3-2f f2-2f up)::move( f2-2f f2-1f left)::move( f2-1f f2-2f right)::move( f2-2f f3-2f down)::push( f3-2f f3-1f f3-0f left box1)::move( f3-1f f3-2f right)::move( f3-2f f2-2f up)::move( f2-2f f1-2f up)::push( f2-1f f2-2f f2-3f right box1)
push( f0-2f f1-2f f2-2f down box0)::move( f3-3f f3-2f left)::move( f3-2f f2-2f up)::move( f2-2f f1-2f up)::push( f1-2f f1-1f f1-0f left box0)::move( f1-1f f2-1f down)::move( f2-1f f2-0f left)
move( f3-3f f3-2f left)::push( f3-2f f3-1f f3-0f left box1)::move( f3-1f f3-2f right)::move( f3-2f f2-2f up)::move( f2-2f f1-2f up)::push( f2-1f f1-1f f0-1f up box0)
move( f3-3f f3-2f left)::push( f3-2f f3-1f f3-0f left box1)::move( f3-1f f2-1f up)::move( f2-1f f2-2f right)::move( f2-1f f1-1f up)::move( f2-2f f2-1f left)::move( f2-1f f2-2f right)
move( f3-3f f3-2f left)::push( f3-2f f3-1f f3-0f left box1)::move( f3-1f f2-1f up)::move( f0-2f f1-2f down)::move( f2-1f f3-1f down)::move( f3-1f f2-1f up)::move( f2-1f f2-2f right)::move( f2-2f f3-2f down)::move( f3-2f f2-2f up)::move( f2-2f f2-3f right)
move( f3-3f f2-3f up)::move( f2-3f f1-3f up)::move( f1-3f f2-3f down)::push( f3-3f f3-2f f3-1f left box0)::move( f2-3f f2-2f left)::push( f2-0f f2-1f f2-2f right box1)
push( f3-2f f2-2f f1-2f up box0)::move( f3-3f f2-3f up)::move( f2-3f f2-2f left)::move( f2-2f f2-1f left)
push( f3-0f f2-0f f1-0f up box0)
move( f3-3f f3-2f left)::move( f3-2f f2-2f up)::move( f2-2f f2-1f left)::move( f2-1f f2-0f left)::move( f2-0f f3-0f down)::move( f3-0f f2-0f up)::push( f1-0f f1-1f f1-2f right box1)
move( f3-3f f2-3f up)::push( f0-3f f0-2f f0-1f left box0)::move( f2-3f f2-2f left)::move( f2-2f f1-2f up)::move( f1-2f f1-3f right)::move( f1-3f f1-2f left)::push( f1-2f f1-1f f1-0f left box0)::move( f1-1f f2-1f down)::move( f2-1f f2-2f right)
move( f3-3f f3-2f left)::move( f3-2f f2-2f up)::push( f2-2f f1-2f f0-2f up box1)::move( f2-2f f3-2f down)::move( f3-2f f2-2f up)
move( f3-3f f3-2f left)::move( f3-2f f2-2f up)::move( f2-2f f2-3f right)::move( f2-3f f1-3f up)::move( f0-2f f1-2f down)::move( f1-3f f0-3f up)
move( f3-3f f2-3f up)::move( f0-2f f0-1f left)::move( f2-3f f1-3f up)::move( f1-2f f0-2f up)
move( f3-3f f3-2f left)::move( f3-2f f2-2f up)::move( f2-2f f2-1f left)::move( f2-1f f2-2f right)::move( f2-2f f3-2f down)::move( f3-2f f2-2f up)::push( f3-3f f2-3f f1-3f up box0)
move( f3-3f f3-2f left)::move( f3-2f f2-2f up)::move( f2-2f f2-1f left)::push( f3-0f f2-0f f1-0f up box1)::move( f2-1f f2-0f left)::move( f2-0f f2-1f right)::move( f1-3f f2-3f down)::move( f3-0f f3-1f right)::move( f2-1f f2-0f left)::move( f2-0f f3-0f down)
push( f3-1f f2-1f f1-1f up box0)::move( f3-3f f2-3f up)::move( f2-3f f2-2f left)::move( f2-2f f1-2f up)::push( f1-2f f1-1f f1-0f left box0)::push( f3-2f f2-2f f1-2f up box1)
move( f3-3f f3-2f left)::push( f3-2f f3-1f f3-0f left box1)::move( f3-1f f3-2f right)::move( f3-2f f3-1f left)::move( f3-1f f2-1f up)::move( f2-1f f3-1f down)::move( f3-1f f3-2f right)::move( f3-2f f2-2f up)::move( f2-2f f2-3f right)::move( f2-3f f2-2f left)::move( f2-2f f3-2f down)::push( f0-2f f0-1f f0-0f left box1)
move( f1-0f f1-1f right)::move( f0-2f f1-2f down)::push( f0-3f f1-3f f2-3f down box1)::push( f0-3f f1-3f f2-3f down box1)::move( f3-3f f3-2f left)::move( f3-2f f2-2f up)::push( f0-0f f0-1f f0-2f right box1)::move( f2-2f f1-2f up)::move( f1-2f f0-2f up)::move( f1-2f f1-3f right)
move( f3-3f f2-3f up)::move( f2-3f f1-3f up)::push( f0-0f f0-1f f0-2f right box1)::push( f1-2f f1-1f f1-0f left box1)::move( f1-3f f0-3f up)::move( f0-3f f1-3f down)::move( f1-3f f2-3f down)
push( f2-1f f2-2f f2-3f right box0)::move( f3-3f f3-2f left)::push( f3-2f f3-1f f3-0f left box1)::push( f2-1f f2-2f f2-3f right box1)::push( f2-2f f1-2f f0-2f up box1)
move( f3-3f f2-3f up)::push( f2-1f f1-1f f0-1f up box1)
move( f3-3f f3-2f left)::move( f3-2f f2-2f up)::move( f2-2f f2-1f left)::move( f2-1f f2-2f right)::move( f2-2f f3-2f down)::move( f1-0f f0-0f up)
move( f3-3f f3-2f left)::move( f3-2f f2-2f up)::move( f2-2f f1-2f up)::push( f1-2f f1-1f f1-0f left box0)::move( f1-1f f1-2f right)::move( f2-2f f2-1f left)::move( f1-2f f0-2f up)::move( f0-2f f0-3f right)::move( f0-3f f0-2f left)::move( f0-2f f1-2f down)
move( f3-3f f3-2f left)::push( f3-2f f3-1f f3-0f left box1)::move( f3-1f f2-1f up)::move( f2-1f f2-0f left)::move( f2-0f f1-0f up)::move( f0-3f f1-3f down)::move( f1-0f f2-0f down)::move( f2-0f f1-0f up)::push( f1-0f f1-1f f1-2f right box0)
move( f3-3f f3-2f left)::move( f3-2f f2-2f up)::move( f2-2f f3-2f down)::move( f2-2f f1-2f up)
move( f2-1f f1-1f up)
move( f3-3f f3-2f left)::move( f3-2f f2-2f up)::move( f2-2f f2-1f left)::move( f2-1f f2-2f right)::move( f2-2f f2-3f right)::move( f2-3f f2-2f left)::move( f2-2f f1-2f up)::move( f1-2f f1-3f right)::push( f2-2f f1-2f f0-2f up box0)
move( f3-3f f2-3f up)::move( f2-3f f1-3f up)::move( f1-3f f0-3f up)::move( f0-3f f0-2f left)::move( f0-2f f1-2f down)::move( f1-2f f0-2f up)::move( f0-2f f0-1f left)::push( f0-1f f1-1f f2-1f down box0)::move( f1-1f f0-1f up)::move( f0-1f f1-1f down)::move( f1-1f f0-1f up)::move( f1-1f f2-1f down)
push( f3-3f f3-2f f3-1f left box1)::move( f1-3f f0-3f up)::move( f1-0f f1-1f right)::move( f3-3f f3-2f left)::push( f1-0f f1-1f f1-2f right box1)
move( f3-3f f3-2f left)::push( f3-2f f3-1f f3-0f left box1)::push( f2-3f f1-3f f0-3f up box1)::move( f3-3f f3-2f left)
move( f3-1f f3-2f right)::move( f3-3f f3-2f left)::push( f3-2f f3-1f f3-0f left box1)::push( f0-2f f1-2f f2-2f down box0)::move( f0-3f f0-2f left)::move( f3-1f f2-1f up)::push( f0-1f f0-2f f0-3f right box1)::move( f2-1f f3-1f down)::move( f3-1f f2-1f up)::move( f2-1f f3-1f down)
move( f3-3f f2-3f up)::move( f2-3f f2-2f left)::move( f2-2f f1-2f up)::move( f1-2f f1-3f right)::move( f1-3f f0-3f up)::move( f0-3f f1-3f down)::push( f2-0f f1-0f f0-0f up box1)
move( f3-3f f3-2f left)::push( f3-2f f3-1f f3-0f left box1)::move( f3-1f f2-1f up)::move( f2-1f f2-2f right)::move( f2-2f f3-2f down)::push( f0-2f f0-1f f0-0f left box1)
move( f3-3f f3-2f left)::move( f3-2f f2-2f up)::push( f3-3f f2-3f f1-3f up box1)::move( f2-2f f1-2f up)::push( f1-2f f1-1f f1-0f left box0)::move( f1-1f f1-2f right)::move( f1-2f f2-2f down)
move( f3-3f f3-2f left)::push( f3-2f f3-1f f3-0f left box1)::move( f3-1f f2-1f up)::move( f2-1f f2-0f left)::move( f2-0f f1-0f up)::move( f1-0f f2-0f down)::move( f2-0f f1-0f up)::push( f1-0f f1-1f f1-2f right box0)::move( f1-1f f0-1f up)::move( f0-1f f0-2f right)::move( f0-2f f0-3f right)::move( f0-3f f0-2f left)::push( f0-2f f1-2f f2-2f down box0)::move( f1-2f f0-2f up)::push( f0-1f f0-2f f0-3f right box1)
move( f3-3f f3-2f left)::move( f3-2f f2-2f up)::move( f2-2f f2-3f right)::push( f0-3f f0-2f f0-1f left box0)::move( f2-3f f2-2f left)::move( f2-2f f2-1f left)::move( f2-1f f2-0f left)::move( f2-0f f3-0f down)::push( f0-3f f1-3f f2-3f down box1)::move( f3-0f f2-0f up)
move( f3-3f f3-2f left)::push( f3-0f f2-0f f1-0f up box1)::push( f3-2f f3-1f f3-0f left box1)::move( f3-1f f2-1f up)::push( f0-3f f0-2f f0-1f left box1)::move( f2-1f f2-2f right)::move( f2-2f f2-3f right)::move( f3-3f f2-3f up)::move( f2-3f f1-3f up)::move( f1-3f f2-3f down)
move( f3-3f f2-3f up)::move( f2-2f f1-2f up)::move( f2-3f f2-2f left)::push( f2-2f f1-2f f0-2f up box1)::move( f2-2f f2-3f right)::push( f3-2f f2-2f f1-2f up box0)::move( f2-3f f2-2f left)::move( f2-2f f1-2f up)::move( f1-2f f2-2f down)
move( f3-3f f3-2f left)::push( f3-2f f3-1f f3-0f left box1)::move( f3-1f f3-2f right)::move( f3-2f f2-2f up)::move( f2-2f f2-3f right)::move( f2-1f f2-2f right)
push( f1-1f f1-2f f1-3f right box0)::move( f3-3f f3-2f left)::move( f1-1f f0-1f up)
move( f3-3f f3-2f left)::push( f0-3f f1-3f f2-3f down box0)::move( f3-2f f2-2f up)::move( f2-2f f2-1f left)
move( f3-3f f3-2f left)::move( f3-2f f2-2f up)::move( f2-2f f2-3f right)::move( f2-3f f2-2f left)::move( f2-2f f2-3f right)::move( f2-3f f1-3f up)::push( f2-1f f1-1f f0-1f up box0)
move( f3-3f f3-2f left)::move( f3-2f f2-2f up)::push( f3-2f f3-1f f3-0f left box1)
push( f3-0f f3-1f f3-2f right box1)::move( f1-2f f2-2f down)::move( f3-3f f3-2f left)::push( f3-2f f3-1f f3-0f left box1)::move( f3-1f f2-1f up)::move( f2-1f f2-2f right)
move( f3-3f f2-3f up)::move( f3-2f f2-2f up)::move( f2-3f f1-3f up)::move( f1-3f f0-3f up)
move( f3-3f f3-2f left)::push( f3-2f f3-1f f3-0f left box1)::move( f3-1f f2-1f up)::move( f2-1f f3-1f down)::move( f3-1f f3-2f right)::move( f1-1f f2-1f down)
move( f3-3f f3-2f left)::move( f2-2f f2-3f right)::move( f3-2f f2-2f up)::push( f0-3f f1-3f f2-3f down box0)::move( f1-1f f0-1f up)::move( f2-2f f1-2f up)::move( f1-2f f0-2f up)::move( f0-2f f0-1f left)
move( f0-3f f1-3f down)::move( f3-3f f3-2f left)::push( f3-2f f3-1f f3-0f left box1)::move( f3-1f f3-2f right)::push( f2-2f f2-1f f2-0f left box1)::move( f3-2f f2-2f up)::push( f0-0f f0-1f f0-2f right box1)::move( f2-2f f1-2f up)::move( f1-2f f0-2f up)::push( f3-0f f3-1f f3-2f right box1)
move( f3-2f f2-2f up)::move( f1-2f f0-2f up)::move( f3-3f f3-2f left)::move( f3-2f f2-2f up)
move( f3-3f f3-2f left)::push( f3-2f f3-1f f3-0f left box1)::move( f3-1f f3-2f right)::move( f3-2f f3-1f left)::push( f0-3f f0-2f f0-1f left box1)
move( f3-3f f2-3f up)::move( f2-3f f2-2f left)::move( f2-2f f3-2f down)::push( f3-2f f3-1f f3-0f left box1)::move( f3-1f f2-1f up)::move( f2-1f f2-0f left)::move( f2-0f f2-1f right)::push( f2-1f f1-1f f0-1f up box0)::move( f0-1f f0-2f right)
move( f3-3f f2-3f up)::move( f2-3f f2-2f left)::move( f2-2f f1-2f up)::move( f1-2f f1-3f right)::move( f1-3f f2-3f down)::move( f2-3f f1-3f up)::push( f0-1f f1-1f f2-1f down box1)
move( f3-3f f2-3f up)::move( f2-3f f1-3f up)::push( f3-3f f3-2f f3-1f left box1)::push( f0-3f f0-2f f0-1f left box1)::move( f1-3f f1-2f left)::move( f1-2f f2-2f down)::push( f3-2f f2-2f f1-2f up box0)
move( f3-3f f3-2f left)::move( f3-2f f2-2f up)::push( f0-1f f1-1f f2-1f down box0)::move( f2-2f f2-3f right)::move( f2-3f f1-3f up)::move( f1-3f f0-3f up)::move( f0-3f f1-3f down)
move( f3-3f f3-2f left)::push( f3-2f f3-1f f3-0f left box1)::push( f2-3f f1-3f f0-3f up box1)::move( f3-1f f3-2f right)::move( f3-2f f2-2f up)::move( f2-2f f1-2f up)::move( f1-2f f2-2f down)::push( f1-1f f2-1f f3-1f down box0)
move( f3-3f f2-3f up)::push( f2-2f f1-2f f0-2f up box1)::move( f2-3f f1-3f up)::move( f1-3f f1-2f left)::move( f1-2f f0-2f up)
move( f2-2f f2-1f left)::push( f2-1f f2-2f f2-3f right box0)::move( f3-3f f2-3f up)::push( f3-0f f2-0f f1-0f up box0)::move( f2-3f f2-2f left)::move( f2-2f f2-3f right)::move( f2-3f f2-2f left)::move( f2-2f f1-2f up)::push( f1-2f f1-1f f1-0f left box0)
move( f3-3f f3-2f left)::push( f0-2f f0-1f f0-0f left box0)
move( f3-3f f3-2f left)::push( f3-2f f3-1f f3-0f left box1)::move( f3-1f f3-2f right)::push( f0-0f f0-1f f0-2f right box1)::move( f3-2f f3-1f left)::move( f3-1f f3-2f right)::move( f3-2f f3-1f left)::move( f3-1f f2-1f up)::move( f2-1f f2-0f left)
push( f2-2f f2-1f f2-0f left box1)::move( f3-3f f3-2f left)::move( f3-2f f2-2f up)::move( f2-2f f2-3f right)
move( f3-3f f2-3f up)::move( f2-3f f1-3f up)::move( f1-1f f2-1f down)::push( f1-2f f2-2f f3-2f down box0)
move( f3-3f f2-3f up)::move( f2-3f f2-2f left)::move( f3-0f f2-0f up)::move( f2-2f f1-2f up)::move( f1-2f f0-2f up)::move( f0-2f f0-1f left)::move( f0-1f f0-2f right)::move( f0-2f f0-1f left)::push( f0-1f f1-1f f2-1f down box0)
move( f3-3f f2-3f up)::move( f2-3f f1-3f up)::move( f1-3f f1-2f left)::move( f3-1f f2-1f up)::move( f2-2f f2-3f right)::move( f1-2f f2-2f down)
push( f3-2f f3-1f f3-0f left box1)::move( f3-3f f2-3f up)::move( f2-3f f2-2f left)::move( f2-2f f3-2f down)::push( f3-2f f3-1f f3-0f left box1)::move( f3-1f f3-2f right)::move( f3-2f f2-2f up)::move( f2-2f f2-3f right)
move( f3-3f f3-2f left)::push( f3-2f f2-2f f1-2f up box0)::push( f0-2f f1-2f f2-2f down box0)::move( f3-2f f2-2f up)
push( f0-2f f1-2f f2-2f down box1)::move( f3-3f f3-2f left)::move( f3-2f f2-2f up)::move( f2-2f f3-2f down)::push( f3-2f f3-1f f3-0f left box1)::push( f1-1f f2-1f f3-1f down box0)::move( f3-1f f2-1f up)::move( f2-1f f2-0f left)::move( f2-0f f2-1f right)
move( f3-3f f2-3f up)::move( f2-3f f1-3f up)::move( f1-3f f0-3f up)::push( f3-3f f3-2f f3-1f left box0)::move( f0-3f f0-2f left)
move( f3-3f f3-2f left)::push( f3-2f f3-1f f3-0f left box1)::move( f1-3f f1-2f left)::move( f3-1f f2-1f up)::move( f2-1f f2-0f left)
move( f3-3f f2-3f up)::move( f2-3f f2-2f left)::move( f2-2f f2-3f right)::push( f3-3f f3-2f f3-1f left box0)::move( f2-3f f2-2f left)::move( f2-2f f3-2f down)::move( f3-2f f2-2f up)
push( f2-2f f2-1f f2-0f left box0)::move( f3-3f f3-2f left)::push( f0-0f f0-1f f0-2f right box1)::move( f3-2f f2-2f up)::move( f2-2f f2-3f right)::move( f2-3f f2-2f left)::move( f2-2f f3-2f down)::move( f3-2f f2-2f up)
move( f3-3f f3-2f left)::push( f3-2f f3-1f f3-0f left box1)::move( f3-1f f3-2f right)::move( f3-2f f2-2f up)::move( f2-2f f2-3f right)::move( f2-3f f2-2f left)::move( f2-2f f2-1f left)::move( f2-3f f2-2f left)::move( f2-1f f2-2f right)
move( f3-3f f3-2f left)::push( f3-2f f3-1f f3-0f left box1)::move( f3-1f f3-2f right)::move( f3-2f f2-2f up)::move( f2-2f f2-1f left)::move( f2-1f f2-0f left)::move( f2-0f f1-0f up)::move( f1-0f f2-0f down)::move( f2-0f f1-0f up)::push( f2-2f f2-1f f2-0f left box0)
push( f3-3f f3-2f f3-1f left box0)::move( f3-1f f2-1f up)::move( f3-3f f3-2f left)::push( f1-1f f1-2f f1-3f right box0)::move( f3-2f f2-2f up)::move( f2-2f f2-3f right)::move( f2-3f f2-2f left)
move( f3-3f f3-2f left)::push( f3-0f f2-0f f1-0f up box0)
move( f3-3f f2-3f up)::move( f2-3f f1-3f up)::move( f1-3f f0-3f up)::push( f0-0f f0-1f f0-2f right box1)
move( f3-3f f3-2f left)::move( f3-2f f2-2f up)::move( f1-2f f1-3f right)
move( f3-3f f2-3f up)::push( f2-0f f1-0f f0-0f up box0)::move( f2-3f f2-2f left)::move( f2-2f f1-2f up)::move( f1-2f f2-2f down)::move( f2-2f f1-2f up)::move( f1-2f f2-2f down)::move( f2-2f f2-1f left)
move( f3-3f f3-2f left)::push( f2-1f f1-1f f0-1f up box0)
move( f3-3f f2-3f up)::move( f2-3f f2-2f left)::move( f2-2f f2-3f right)::move( f2-3f f1-3f up)::move( f1-3f f1-2f left)::move( f1-2f f2-2f down)::move( f2-2f f3-2f down)::push( f3-2f f3-1f f3-0f left box1)::move( f3-1f f3-2f right)::move( f3-2f f2-2f up)::move( f2-2f f2-1f left)::push( f2-1f f1-1f f0-1f up box0)::move( f1-1f f2-1f down)::push( f3-2f f2-2f f1-2f up box1)
move( f3-3f f2-3f up)::move( f2-3f f2-2f left)::move( f2-2f f2-3f right)::move( f1-0f f2-0f down)::move( f2-3f f2-2f left)::move( f2-2f f3-2f down)::move( f2-3f f2-2f left)::push( f3-2f f3-1f f3-0f left box1)::move( f3-1f f3-2f right)
move( f3-3f f2-3f up)::move( f2-3f f1-3f up)::move( f1-3f f2-3f down)::move( f2-3f f2-2f left)::move( f2-2f f2-3f right)::push( f3-1f f2-1f f1-1f up box0)
move( f3-3f f3-2f left)::move( f3-2f f2-2f up)::move( f2-2f f1-2f up)::move( f1-2f f0-2f up)::move( f0-2f f0-3f right)::push( f3-3f f3-2f f3-1f left box1)
move( f3-3f f2-3f up)::move( f2-3f f1-3f up)::move( f1-3f f2-3f down)::move( f2-3f f2-2f left)::move( f2-2f f3-2f down)::push( f1-2f f2-2f f3-2f down box1)
move( f3-3f f2-3f up)::move( f2-3f f1-3f up)::move( f1-3f f0-3f up)::move( f0-1f f0-2f right)
move( f3-1f f2-1f up)::move( f3-3f f3-2f left)::move( f3-2f f2-2f up)::move( f2-2f f2-3f right)::move( f2-3f f2-2f left)::move( f2-2f f1-2f up)::push( f1-2f f1-1f f1-0f left box0)::move( f1-1f f0-1f up)::move( f0-1f f0-2f right)::move( f0-2f f0-3f right)
move( f2-2f f3-2f down)::move( f3-3f f3-2f left)::move( f3-2f f2-2f up)::move( f2-2f f2-1f left)::move( f3-1f f3-0f left)::move( f2-2f f2-3f right)::push( f3-1f f2-1f f1-1f up box0)
move( f2-1f f1-1f up)::move( f3-3f f2-3f up)::move( f2-3f f1-3f up)::move( f2-2f f2-1f left)::move( f2-0f f2-1f right)::push( f0-2f f0-1f f0-0f left box1)::move( f1-3f f1-2f left)::move( f1-2f f1-3f right)
move( f3-3f f2-3f up)::move( f2-3f f2-2f left)::move( f2-2f f2-1f left)::move( f2-1f f2-0f left)::move( f2-0f f1-0f up)::move( f1-0f f2-0f down)::move( f2-0f f2-1f right)::move( f2-1f f2-2f right)::move( f3-0f f3-1f right)
move( f3-3f f2-3f up)::move( f2-3f f2-2f left)::move( f1-3f f1-2f left)::push( f2-1f f2-2f f2-3f right box0)::move( f2-2f f2-3f right)
push( f2-0f f2-1f f2-2f right box0)::move( f3-3f f2-3f up)
move( f3-3f f2-3f up)::move( f0-0f f0-1f right)::push( f1-0f f1-1f f1-2f right box1)::move( f2-3f f1-3f up)
move( f3-3f f3-2f left)::push( f3-2f f3-1f f3-0f left box1)::move( f3-1f f3-2f right)::push( f3-3f f3-2f f3-1f left box1)
move( f3-3f f2-3f up)::move( f2-3f f2-2f left)::move( f2-2f f1-2f up)::move( f1-2f f2-2f down)::move( f2-2f f2-3f right)::move( f3-0f f3-1f right)
move( f3-3f f2-3f up)::move( f2-3f f1-3f up)::move( f1-3f f1-2f left)::move( f1-2f f2-2f down)::move( f2-2f f1-2f up)::push( f2-3f f2-2f f2-1f left box0)::push( f1-2f f1-1f f1-0f left box0)::move( f1-1f f0-1f up)
push( f1-1f f1-2f f1-3f right box0)::move( f3-3f f3-2f left)::move( f3-2f f2-2f up)::move( f2-1f f2-2f right)::push( f0-1f f1-1f f2-1f down box0)::move( f2-2f f2-3f right)
move( f3-3f f2-3f up)::move( f0-2f f1-2f down)
move( f3-3f f2-3f up)::move( f2-3f f1-3f up)::move( f1-3f f0-3f up)::move( f3-0f f3-1f right)::move( f3-1f f2-1f up)::move( f0-3f f0-2f left)::move( f0-2f f0-1f left)::move( f0-1f f0-2f right)::move( f0-2f f0-1f left)::push( f1-2f f2-2f f3-2f down box0)
move( f3-3f f2-3f up)::move( f2-3f f1-3f up)::move( f1-3f f2-3f down)::move( f1-3f f0-3f up)::move( f2-3f f1-3f up)::push( f2-0f f2-1f f2-2f right box1)::move( f1-3f f0-3f up)::move( f0-3f f0-2f left)::move( f0-2f f0-1f left)::move( f0-1f f0-2f right)
move( f3-3f f3-2f left)::move( f3-2f f2-2f up)::move( f2-2f f3-2f down)::push( f3-2f f3-1f f3-0f left box1)::move( f3-1f f2-1f up)::move( f2-1f f2-0f left)::move( f2-0f f2-1f right)::push( f0-2f f1-2f f2-2f down box1)
move( f2-1f f2-0f left)::move( f3-3f f3-2f left)::move( f3-2f f2-2f up)::move( f2-2f f2-3f right)::move( f2-3f f1-3f up)::move( f1-3f f0-3f up)::move( f0-3f f1-3f down)::move( f1-3f f2-3f down)::move( f1-1f f0-1f up)::move( f2-3f f2-2f left)
move( f3-3f f3-2f left)::move( f3-2f f2-2f up)::move( f2-2f f2-3f right)::move( f3-1f f3-2f right)
move( f3-3f f2-3f up)::move( f2-3f f1-3f up)::push( f2-1f f1-1f f0-1f up box0)::push( f2-1f f2-2f f2-3f right box1)::move( f1-3f f1-2f left)
move( f1-1f f1-2f right)::move( f3-3f f3-2f left)::push( f3-2f f3-1f f3-0f left box1)::push( f0-3f f1-3f f2-3f down box1)::move( f3-1f f3-2f right)
move( f3-3f f3-2f left)::push( f3-2f f3-1f f3-0f left box1)::move( f3-1f f3-2f right)::move( f3-2f f2-2f up)::move( f2-2f f1-2f up)::push( f1-2f f1-1f f1-0f left box0)::move( f1-1f f1-2f right)::move( f1-2f f1-3f right)::move( f3-0f f2-0f up)
move( f3-3f f2-3f up)::move( f2-3f f2-2f left)::move( f2-2f f3-2f down)::push( f3-2f f3-1f f3-0f left box1)::move( f1-2f f1-1f left)::move( f3-1f f3-2f right)::move( f3-2f f2-2f up)::move( f2-2f f1-2f up)
move( f3-3f f3-2f left)::push( f3-2f f3-1f f3-0f left box1)::move( f3-1f f2-1f up)::push( f2-1f f1-1f f0-1f up box0)::move( f3-0f f2-0f up)
push( f3-3f f3-2f f3-1f left box0)::push( f0-1f f0-2f f0-3f right box1)::move( f3-3f f3-2f left)::move( f3-2f f2-2f up)::move( f2-2f f3-2f down)
move( f3-3f f2-3f up)::move( f2-0f f1-0f up)::move( f2-3f f2-2f left)::move( f2-2f f1-2f up)::push( f1-2f f1-1f f1-0f left box0)::move( f1-1f f1-2f right)::move( f2-3f f1-3f up)
move( f3-3f f3-2f left)::move( f3-2f f2-2f up)::push( f3-3f f3-2f f3-1f left box0)
push( f3-1f f2-1f f1-1f up box0)::move( f3-3f f3-2f left)::push( f3-2f f3-1f f3-0f left box1)::move( f3-1f f2-1f up)
move( f1-1f f2-1f down)::move( f3-3f f2-3f up)
move( f3-3f f2-3f up)::move( f1-0f f0-0f up)::move( f2-3f f1-3f up)::push( f3-0f f2-0f f1-0f up box0)::move( f1-3f f2-3f down)::move( f2-3f f1-3f up)
move( f3-3f f2-3f up)::move( f2-3f f2-2f left)::move( f2-2f f2-1f left)::move( f0-2f f1-2f down)::push( f2-1f f1-1f f0-1f up box0)::push( f2-0f f2-1f f2-2f right box0)::move( f1-1f f1-2f right)
push( f3-3f f3-2f f3-1f left box1)::move( f3-3f f3-2f left)::push( f3-0f f2-0f f1-0f up box1)
move( f3-3f f3-2f left)::push( f3-2f f3-1f f3-0f left box1)::move( f3-1f f2-1f up)::push( f2-1f f1-1f f0-1f up box0)::move( f0-2f f0-3f right)::move( f1-1f f1-0f left)
move( f3-3f f3-2f left)::move( f3-2f f2-2f up)::move( f2-2f f2-3f right)::move( f2-3f f1-3f up)::move( f1-3f f0-3f up)::move( f0-3f f0-2f left)::move( f0-2f f0-3f right)::move( f0-3f f0-2f left)::move( f0-2f f0-3f right)::move( f0-3f f1-3f down)::push( f2-2f f2-1f f2-0f left box1)
push( f2-0f f1-0f f0-0f up box0)::move( f1-2f f2-2f down)::move( f1-3f f2-3f down)
move( f3-3f f2-3f up)::push( f0-2f f0-1f f0-0f left box0)::move( f2-3f f2-2f left)::move( f2-2f f3-2f down)::push( f3-2f f3-1f f3-0f left box1)
move( f3-3f f2-3f up)::move( f2-3f f2-2f left)::move( f2-2f f3-2f down)::push( f3-2f f3-1f f3-0f left box1)::move( f3-1f f3-2f right)::move( f3-2f f2-2f up)::move( f2-2f f3-2f down)::move( f3-2f f2-2f up)::move( f2-2f f3-2f down)::move( f3-2f f3-1f left)::move( f3-1f f2-1f up)::push( f2-1f f1-1f f0-1f up box0)::move( f1-1f f1-0f left)::move( f1-0f f1-1f right)::move( f1-1f f2-1f down)::move( f1-1f f1-2f right)
move( f3-3f f2-3f up)::move( f2-3f f1-3f up)::push( f1-0f f1-1f f1-2f right box0)::move( f1-3f f2-3f down)::move( f2-3f f1-3f up)
move( f3-3f f3-2f left)::move( f3-2f f2-2f up)::move( f1-0f f1-1f right)::move( f1-3f f0-3f up)::move( f2-2f f2-1f left)::move( f2-1f f2-2f right)::move( f2-2f f3-2f down)
move( f3-3f f3-2f left)::push( f3-2f f3-1f f3-0f left box1)::move( f3-1f f2-1f up)::move( f2-1f f2-0f left)::move( f2-0f f1-0f up)::push( f0-0f f1-0f f2-0f down box1)
move( f3-3f f3-2f left)::move( f3-2f f2-2f up)::move( f2-2f f1-2f up)::move( f1-2f f1-3f right)::move( f1-3f f0-3f up)::move( f0-3f f0-2f left)::push( f1-2f f2-2f f3-2f down box0)
move( f3-3f f3-2f left)::move( f3-2f f2-2f up)::move( f2-2f f1-2f up)::move( f1-2f f1-3f right)::move( f1-3f f1-2f left)::move( f1-2f f1-3f right)::move( f1-3f f1-2f left)::push( f1-2f f1-1f f1-0f left box0)::move( f1-1f f0-1f up)::move( f0-1f f0-2f right)::move( f1-1f f0-1f up)
move( f3-3f f3-2f left)::push( f3-2f f3-1f f3-0f left box1)::push( f1-1f f2-1f f3-1f down box0)::push( f0-3f f1-3f f2-3f down box0)::move( f3-1f f3-2f right)::move( f3-2f f3-1f left)::move( f3-1f f3-2f right)::push( f0-0f f1-0f f2-0f down box0)::move( f3-2f f2-2f up)
move( f3-3f f2-3f up)::move( f2-3f f2-2f left)::move( f2-2f f2-3f right)::move( f2-3f f2-2f left)::push( f0-1f f0-2f f0-3f right box1)
move( f1-3f f2-3f down)::move( f3-3f f2-3f up)
move( f3-3f f2-3f up)::move( f2-3f f1-3f up)::move( f2-2f f3-2f down)::move( f1-3f f0-3f up)
move( f3-3f f3-2f left)::move( f3-2f f2-2f up)::move( f2-2f f3-2f down)::push( f3-2f f3-1f f3-0f left box1)::push( f3-1f f2-1f f1-1f up box0)
push( f0-3f f1-3f f2-3f down box1)::move( f3-3f f3-2f left)::move( f3-1f f3-2f right)::push( f3-2f f3-1f f3-0f left box1)::move( f3-1f f2-1f up)::move( f0-2f f0-3f right)::move( f2-1f f2-0f left)::move( f2-1f f3-1f down)::push( f0-0f f1-0f f2-0f down box1)
push( f2-0f f1-0f f0-0f up box1)::move( f3-3f f2-3f up)::move( f2-3f f1-3f up)::move( f3-3f f3-2f left)::move( f1-3f f0-3f up)::move( f0-3f f0-2f left)::move( f0-2f f1-2f down)
