digraph fsa{
rankdir=LR
graph [bgcolor=white];
start [shape=none]
node [shape = doublecircle]; 0 1 3 6 0 1 3 6 0 1 3 6 0 2 4 7 11 18 25 87 104 124 144 171 192 298 236 87 104 1 3 6 0 2 4 7 11 18 25 2 4 7 11 16 22 29 39 50 63 77 34 90 108 153 11 18 25 34 11 16 1 3 39 2 0 1 3 6 0 2 4 7 11 18 25 34 11 18 25 34 11 18 25 87 104 1 3 6 0 1 3 6 0 1 3 6 0 1 3 6 0 2 0 1 3 6 0 2 0 2 0 1 3 6 0 1 3 6 0 2 4 7 11 18 25 34 11 1 3 6 0 2 0 2 4 7 11 18 25 87 34 104 144 1 3 6 0 2 0 1 3 6 0 1 3 6 0 2 0 2 0 1 3 6 0 2 4 7 11 16 1 3 39 90 108 153 18 57 25 87 34 104 144 171 192 34 11 1 3 6 0 2 0 1 3 6 0 1 3 1 3 6 0 1 3 6 0 1 3 6 0 2 4 7 11 18 25 34 11 18 25 34 11 1 3 6 0 1 3 6 0 1 3 6 0 2 4 7 11 16 1 3 39 50 63 87 104 1 3 6 0 1 3 6 0 2 4 7 11 16 22 1 3 6 0 1 3 6 0 2 0 2 4 7 11 18 25 87 104 124 144 171 192 298 34 236 11 18 25 1 3 6 0 1 3 6 0 2 4 7 11 18 25 87 104 77 34 236 11 18 25 34 11 16 1 3 39 2 4 7 11 18 25 34 11 16 1 3 39 90 108 29 39 50 34 63 205 18 25 34 11 18 25 2 4 7 11 16 22 35 18 57 25 2 4 7 11 16 22 35 18 57 25 34 11 18 25 34 11 18 25 87 34 104 144 171 192 298 34 236 11 2 4 7 11 18 25 34 11 18 25 87 104 124 144 164 185 205 18 171 192 34 11 18 25 34 11 1 3 6 0 1 3 6 0 1 3 6 0 2 0 1 3 6 0 1 3 6 0 2 4 7 11 16 22 2 4 7 11 18 25 34 11 18 25 87 34 104 144 164 18 29 39 1 3 6 0 1 3 6 0 2 4 7 11 16 22 35 18 57 25 34 11 18 25 87 104 124 144 2 4 7 11 18 25 34 11 16 22 29 39 90 108 29 39 2 4 7 11 18 25 34 11 16 1 3 39 90 108 153 11 16 1 3 39 90 108 29 39 50 34 63 205 18 25 2 0 1 3 6 0 1 3 6 0 2 4 7 11 16 22 35 18 57 25 87 34 104 144 171 192 34 11 2 4 7 11 16 22 35 18 57 25 87 34 104 144 171 192 2 0 2 4 7 11 16 1 3 39 90 108 29 39 50 63 1 3 6 0 1 3 6 0 2 0 1 3 6 0 2 0 1 3 6 0 1 3 6 0 1 3 6 0 2 0 2 4 7 11 16 22 35 0;
start->0
0 -> 2[label = "turn-doorknob-start( robot1 room1 room2 door1 grip)"]
0 -> 1[label = "pick-start( robot1 ball1 room1 grip)"]
192 -> 298[label = "drop-start( robot1 ball2 room2 grip)"]
192 -> 34[label = "move-start( robot1 room2 room1 door1)"]
1 -> 3[label = "pick-end( robot1 ball1 room1 grip)"]
2 -> 0[label = "turn-doorknob-end( robot1 room1 room2 door1 grip)"]
2 -> 4[label = "open-door-start( robot1 room1 room2 door1 grip)"]
3 -> 6[label = "drop-start( robot1 ball1 room1 grip)"]
3 -> 39[label = "move-end( robot1 room1 room2 door1)"]
4 -> 7[label = "open-door-end( robot1 room1 room2 door1 grip)"]
6 -> 0[label = "drop-end( robot1 ball1 room1 grip)"]
7 -> 11[label = "turn-doorknob-end( robot1 room1 room2 door1 grip)"]
11 -> 18[label = "move-start( robot1 room1 room2 door1)"]
11 -> 16[label = "pick-start( robot1 ball1 room1 grip)"]
77 -> 34[label = "move-start( robot1 room2 room1 door1)"]
205 -> 18[label = "move-start( robot1 room1 room2 door1)"]
16 -> 1[label = "move-start( robot1 room1 room2 door1)"]
16 -> 22[label = "pick-end( robot1 ball1 room1 grip)"]
144 -> 164[label = "drop-start( robot1 ball2 room1 grip)"]
144 -> 171[label = "move-start( robot1 room1 room2 door1)"]
18 -> 29[label = "drop-end( robot1 ball2 room1 grip)"]
18 -> 171[label = "pick-end( robot1 ball2 room1 grip)"]
18 -> 57[label = "drop-end( robot1 ball1 room1 grip)"]
18 -> 25[label = "move-end( robot1 room1 room2 door1)"]
22 -> 29[label = "move-start( robot1 room1 room2 door1)"]
22 -> 35[label = "drop-start( robot1 ball1 room1 grip)"]
87 -> 104[label = "pick-end( robot1 ball2 room2 grip)"]
87 -> 34[label = "move-start( robot1 room2 room1 door1)"]
25 -> 87[label = "pick-start( robot1 ball2 room2 grip)"]
25 -> 34[label = "move-start( robot1 room2 room1 door1)"]
153 -> 18[label = "move-start( robot1 room1 room2 door1)"]
153 -> 11[label = "drop-end( robot1 ball1 room1 grip)"]
90 -> 108[label = "move-end( robot1 room2 room1 door1)"]
29 -> 39[label = "move-end( robot1 room1 room2 door1)"]
34 -> 104[label = "pick-end( robot1 ball2 room2 grip)"]
34 -> 90[label = "pick-end( robot1 ball1 room2 grip)"]
34 -> 11[label = "move-end( robot1 room2 room1 door1)"]
34 -> 236[label = "drop-end( robot1 ball2 room2 grip)"]
34 -> 63[label = "drop-end( robot1 ball1 room2 grip)"]
35 -> 18[label = "move-start( robot1 room1 room2 door1)"]
35 -> 0[label = "drop-end( robot1 ball1 room1 grip)"]
164 -> 185[label = "drop-end( robot1 ball2 room1 grip)"]
164 -> 18[label = "move-start( robot1 room1 room2 door1)"]
39 -> 50[label = "drop-start( robot1 ball1 room2 grip)"]
39 -> 90[label = "move-start( robot1 room2 room1 door1)"]
104 -> 144[label = "move-end( robot1 room2 room1 door1)"]
104 -> 77[label = "drop-start( robot1 ball2 room2 grip)"]
104 -> 124[label = "move-start( robot1 room2 room1 door1)"]
298 -> 236[label = "drop-end( robot1 ball2 room2 grip)"]
298 -> 34[label = "move-start( robot1 room2 room1 door1)"]
171 -> 192[label = "move-end( robot1 room1 room2 door1)"]
108 -> 29[label = "move-start( robot1 room1 room2 door1)"]
108 -> 153[label = "drop-start( robot1 ball1 room1 grip)"]
236 -> 87[label = "pick-start( robot1 ball2 room2 grip)"]
236 -> 11[label = "move-end( robot1 room2 room1 door1)"]
50 -> 34[label = "move-start( robot1 room2 room1 door1)"]
50 -> 63[label = "drop-end( robot1 ball1 room2 grip)"]
57 -> 25[label = "move-end( robot1 room1 room2 door1)"]
185 -> 205[label = "pick-start( robot1 ball2 room1 grip)"]
124 -> 144[label = "move-end( robot1 room2 room1 door1)"]
63 -> 87[label = "pick-start( robot1 ball2 room2 grip)"]
63 -> 205[label = "move-end( robot1 room2 room1 door1)"]
63 -> 77[label = "pick-start( robot1 ball1 room2 grip)"]
}
