digraph fsa{
rankdir=LR
graph [bgcolor=white];
start [shape=none]
node [shape = doublecircle]; 0 1 3 6 0 1 3 6 0 1 3 6 0 1 3 6 0 2 4 7 11 19 27 66 83 123 140 66 36 83 146 164 69 1 3 6 0 2 4 7 11 17 25 1 3 6 0 1 3 6 0 1 3 6 0 1 3 6 0 2 0 2 0 1 3 6 0 1 3 6 0 1 3 6 0 1 3 6 0 2 4 7 11 19 27 66 36 83 146 19 27 2 4 7 11 17 1 3 44 57 73 89 36 65 25 93 44 57 36 73 247 262 275 288 298 306 146 164 69 1 3 6 0 2 4 7 11 17 25 2 4 7 11 17 25 34 11 19 27 66 83 123 36 140 11 19 27 36 11 17 25 2 0 1 3 6 0 1 3 6 0 2 4 7 11 19 27 66 36 83 146 2 4 7 11 19 27 36 11 19 27 66 36 83 146 164 19 69 27 36 11 19 27 2 4 7 11 19 27 36 11 17 25 93 44 57 73 2 0 2 4 7 11 19 27 36 11 19 27 36 11 19 27 66 83 1 3 6 0 1 3 6 0 1 3 6 0 2 0 1 3 6 0 1 3 6 0 2 0 1 3 6 0 1 3 6 0 2 4 7 11 17 25 93 44 65 25 1 3 6 0 1 3 6 0 1 3 1 3 6 0 2 0 2 4 7 11 17 25 93 44 65 25 34 11 19 27 36 11 19 27 36 11 19 27 66 83 2 4 7 11 17 1 3 44 65 25 93 44 65 25 34 11 19 27 36 11 1 3 6 0 2 0 1 3 6 0 1 3 1 3 6 0 1 3 6 0 1 3 6 0 2 4 7 11 1 3 6 0 1 3 6 0 1 3 6 0 1 3 6 0 2 4 7 11 17 1 3 44 65 25 93 44 65 25 93 44 57 73 291 247 262 275 36 11 1 3 6 0 1 3 6 0 1 3 6 0 1 3 6 0 1 3 6 0 1 3 2 0 2 4 7 11 19 27 66 83 36 11 1 3 6 0 2 4 7 11 19 27 36 11 19 27 66 83 123 140 66 36 83 146 164 69 19 27 36 11 17 25 2 4 7 11 17 1 3 44 65 25 34 19 69 27 36 11 17 25 34 19 69 27 66 83 1 3 6 0 1 3 6 0 1 3 2 0 1 3 6 0 2 4 7 11 19 27 2 0 2 0 1 3 6 0 1 3 6 0 1 3 6 0 2 4 7 11 17 1 3 44 2 4 7 11 17 25 34 19 69 27 36 11 17 1 3 44 65 25 93 44 57 36 73 247 1 3 6 0 1 3 6 0 1 3 6 0 2 4 7 11 19 27 66 36 83 146 19 27 89 36 140 11 17 25;
start->0
0 -> 2[label = "turn-doorknob-start( robot1 room1 room2 door1 grip)"]
0 -> 1[label = "pick-start( robot1 ball1 room1 grip)"]
1 -> 3[label = "pick-end( robot1 ball1 room1 grip)"]
65 -> 25[label = "move-end( robot1 room2 room1 door1)"]
2 -> 0[label = "turn-doorknob-end( robot1 room1 room2 door1 grip)"]
2 -> 4[label = "open-door-start( robot1 room1 room2 door1 grip)"]
66 -> 83[label = "pick-end( robot1 ball2 room2 grip)"]
66 -> 36[label = "move-start( robot1 room2 room1 door1)"]
3 -> 6[label = "drop-start( robot1 ball1 room1 grip)"]
3 -> 44[label = "move-end( robot1 room1 room2 door1)"]
4 -> 7[label = "open-door-end( robot1 room1 room2 door1 grip)"]
69 -> 19[label = "move-start( robot1 room1 room2 door1)"]
69 -> 27[label = "move-end( robot1 room1 room2 door1)"]
6 -> 0[label = "drop-end( robot1 ball1 room1 grip)"]
262 -> 275[label = "move-end( robot1 room1 room2 door1)"]
7 -> 11[label = "turn-doorknob-end( robot1 room1 room2 door1 grip)"]
73 -> 247[label = "move-end( robot1 room2 room1 door1)"]
73 -> 89[label = "pick-start( robot1 ball1 room2 grip)"]
73 -> 291[label = "move-start( robot1 room2 room1 door1)"]
11 -> 19[label = "move-start( robot1 room1 room2 door1)"]
11 -> 17[label = "pick-start( robot1 ball1 room1 grip)"]
140 -> 66[label = "pick-start( robot1 ball2 room2 grip)"]
140 -> 11[label = "move-end( robot1 room2 room1 door1)"]
17 -> 1[label = "move-start( robot1 room1 room2 door1)"]
17 -> 25[label = "pick-end( robot1 ball1 room1 grip)"]
146 -> 164[label = "drop-start( robot1 ball2 room1 grip)"]
146 -> 19[label = "move-start( robot1 room1 room2 door1)"]
19 -> 69[label = "drop-end( robot1 ball2 room1 grip)"]
19 -> 69[label = "drop-end( robot1 ball1 room1 grip)"]
19 -> 27[label = "move-end( robot1 room1 room2 door1)"]
83 -> 146[label = "move-end( robot1 room2 room1 door1)"]
83 -> 123[label = "drop-start( robot1 ball2 room2 grip)"]
83 -> 36[label = "move-start( robot1 room2 room1 door1)"]
275 -> 288[label = "pick-start( robot1 ball2 room2 grip)"]
275 -> 36[label = "move-start( robot1 room2 room1 door1)"]
25 -> 34[label = "drop-start( robot1 ball1 room1 grip)"]
25 -> 93[label = "move-start( robot1 room1 room2 door1)"]
89 -> 36[label = "move-start( robot1 room2 room1 door1)"]
27 -> 66[label = "pick-start( robot1 ball2 room2 grip)"]
27 -> 89[label = "drop-start( robot1 ball2 room2 grip)"]
27 -> 36[label = "move-start( robot1 room2 room1 door1)"]
93 -> 44[label = "move-end( robot1 room1 room2 door1)"]
288 -> 298[label = "pick-end( robot1 ball2 room2 grip)"]
34 -> 19[label = "move-start( robot1 room1 room2 door1)"]
34 -> 11[label = "drop-end( robot1 ball1 room1 grip)"]
291 -> 247[label = "move-end( robot1 room2 room1 door1)"]
36 -> 83[label = "pick-end( robot1 ball2 room2 grip)"]
36 -> 65[label = "pick-end( robot1 ball1 room2 grip)"]
36 -> 11[label = "move-end( robot1 room2 room1 door1)"]
36 -> 140[label = "drop-end( robot1 ball2 room2 grip)"]
36 -> 73[label = "drop-end( robot1 ball1 room2 grip)"]
164 -> 69[label = "drop-end( robot1 ball2 room1 grip)"]
164 -> 19[label = "move-start( robot1 room1 room2 door1)"]
298 -> 306[label = "move-start( robot1 room2 room1 door1)"]
44 -> 57[label = "drop-start( robot1 ball1 room2 grip)"]
44 -> 65[label = "move-start( robot1 room2 room1 door1)"]
306 -> 146[label = "move-end( robot1 room2 room1 door1)"]
247 -> 262[label = "move-start( robot1 room1 room2 door1)"]
57 -> 36[label = "move-start( robot1 room2 room1 door1)"]
57 -> 73[label = "drop-end( robot1 ball1 room2 grip)"]
123 -> 140[label = "drop-end( robot1 ball2 room2 grip)"]
123 -> 36[label = "move-start( robot1 room2 room1 door1)"]
}
