digraph fsa{
rankdir=LR
graph [bgcolor=white];
start [shape=none]
node [shape = doublecircle]; 0 1 2 3 4 6 0 1 2 3 4 6 0 1 2 3 4 6 0 1 2 3 5 7 9 12 15 18 21 26 31 41 49 18 21 26 31 37 45 53 67 77 31 1 2 3 5 7 9 11 14 17 20 25 9 11 14 17 23 28 33 39 47 17 23 28 33 39 47 17 20 25 9 11 14 17 23 28 33 39 47 17 23 28 33 39 47 17 1 2 3 5 7 9 11 14 17 20 25 9 12 15 18 21 26 31 1 2 3 4 6 0 1 2 3 4 6 0 1 2 3 4 6 0 1 2 3 4 6 0 1 2 3 4 6 0 1 2 3 5 7 9 12 15 18 21 26 31 37 45 53 67 77 31 37 45 53 67 77 31 37 45 53 67 77 31 1 2 3 5 7 9 12 15 18 21 26 31 37 45 53 62 72 82 91 101 53 67 77 31 37 45 53 67 77 31 1 2 3 4 6 0 1 2 3 5 7 9 12 15 18 21 26 31 41 49 18 21 26 31 41 49 18 1 2 3 4 6 0 1 2 3 4 6 0 1 2 3 5 7 9 12 15 18 21 26 31 1 2 3 4 6 0 1 2 3 5 7 9 12 15 18 21 26 31 37 45 53 1 2 3 5 7 9 11 14 17 20 25 9 11 14 17 23 28 33 39 47 17 23 28 33 39 47 17 1 2 3 5 7 9 11 14 17 23 28 33 39 47 17 23 28 33 39 47 17 23 28 33 39 47 17 23 28 33 39 47 17 20 25 9 12 15 18 21 26 31 1 2 3 4 6 0 1 2 3 5 7 9 12 15 18 21 26 31 1 2 3 5 7 9 11 14 17 20 25 9 11 14 17 20 25 9 1 2 3 4 6 0 1 2 3 5 7 9 11 14 17 20 25 9 1 2 3 4 6 0 1 2 3 5 7 9 11 14 17 20 25 9 11 14 17 20 25 9 11 14 17 23 28 33 1 2 3 4 6 0 1 2 3 5 7 9 12 15 18 21 26 31 41 49 18 21 26 31 41 49 18 21 26 31 1 2 3 4 6 0 1 2 3 4 6 0 1 2 3 5 7 9 1 2 3 5 7 9 11 14 17 20 25 9 11 14 17 1 2 3 5 7 9 11 14 17 20 25 9 11 14 17 23 28 33 39 47 17 20 25 9 12 15 18 21 26 31 41 49 18 21 26 31 37 45 53 67 77 31 41 49 18 1 2 3 4 6 0 1 2 3 5 7 9 12 15 18 21 26 31 1 2 3 5 7 9 12 15 18 21 26 31 37 45 53 67 77 31 41 49 18 21 26 31 1 2 3 5 7 9 12 15 18 21 26 31 37 45 53 67 77 31 1 2 3 4 6 0 1 2 3 4 6 0 1 2 3 5 7 9 1 2 3 5 7 9 12 15 18 21 26 31 37 45 53 62 72 82 91 101 53 67 77 31 37 45 53 62 72 82 91 101 53 62 72 82 91 101 53 67 77 31 41 49 18 1 2 3 4 6 0 1 2 3 5 7 9 11 14 17 20 25 9 12 15 18 21 26 31 37 45 53 67 77 31 37 45 53 67 77 31 1 2 3 4 6 0 1 2 3 4 6 0 1 2 3 5 7 9 12 15 18 21 26 31 41 49 18 1 2 3 5 7 9 12 15 18 21 26 31 37 45 53 62 72 82 91 101 53 62 72 82 91 101 53 67 77 31 37 45 53 67 77 31 37 45 53 1 2 3 4 6 0 1 2 3 4 6 0 1 2 3 5 7 9 12 15 18 21 26 31 37 45 53 1 2 3 5 7 9 12 15 18 21 26 31 41 49 18 1 2 3 4 6 0 1 2 3 4 6 0 1 2 3;
start->0
0 -> 1[label = "move-start( player f0-0f f1-0f down)"]
1 -> 2[label = "move-inv( player f0-0f f1-0f down)"]
2 -> 3[label = "move-end( player f0-0f f1-0f down)"]
3 -> 4[label = "move-start( player f1-0f f0-0f up)"]
3 -> 5[label = "push-start( player box0 f1-0f f1-1f f1-2f right)"]
67 -> 77[label = "move-inv( player f1-0f f1-1f right)"]
4 -> 6[label = "move-inv( player f1-0f f0-0f up)"]
5 -> 7[label = "push-inv( player box0 f1-0f f1-1f f1-2f right)"]
6 -> 0[label = "move-end( player f1-0f f0-0f up)"]
7 -> 9[label = "push-end( player box0 f1-0f f1-1f f1-2f right)"]
72 -> 82[label = "move-end( player f1-0f f0-0f up)"]
9 -> 11[label = "move-start( player f1-1f f1-0f left)"]
9 -> 12[label = "push-start( player box0 f1-1f f1-2f f1-3f right)"]
11 -> 14[label = "move-inv( player f1-1f f1-0f left)"]
12 -> 15[label = "push-inv( player box0 f1-1f f1-2f f1-3f right)"]
77 -> 31[label = "move-end( player f1-0f f1-1f right)"]
14 -> 17[label = "move-end( player f1-1f f1-0f left)"]
15 -> 18[label = "push-end( player box0 f1-1f f1-2f f1-3f right)"]
17 -> 23[label = "move-start( player f1-0f f0-0f up)"]
17 -> 20[label = "move-start( player f1-0f f1-1f right)"]
18 -> 21[label = "move-start( player f1-2f f1-1f left)"]
82 -> 91[label = "move-start( player f0-0f f1-0f down)"]
20 -> 25[label = "move-inv( player f1-0f f1-1f right)"]
21 -> 26[label = "move-inv( player f1-2f f1-1f left)"]
23 -> 28[label = "move-inv( player f1-0f f0-0f up)"]
25 -> 9[label = "move-end( player f1-0f f1-1f right)"]
26 -> 31[label = "move-end( player f1-2f f1-1f left)"]
91 -> 101[label = "move-inv( player f0-0f f1-0f down)"]
28 -> 33[label = "move-end( player f1-0f f0-0f up)"]
31 -> 41[label = "move-start( player f1-1f f1-2f right)"]
31 -> 37[label = "move-start( player f1-1f f1-0f left)"]
33 -> 39[label = "move-start( player f0-0f f1-0f down)"]
37 -> 45[label = "move-inv( player f1-1f f1-0f left)"]
101 -> 53[label = "move-end( player f0-0f f1-0f down)"]
39 -> 47[label = "move-inv( player f0-0f f1-0f down)"]
41 -> 49[label = "move-inv( player f1-1f f1-2f right)"]
45 -> 53[label = "move-end( player f1-1f f1-0f left)"]
47 -> 17[label = "move-end( player f0-0f f1-0f down)"]
49 -> 18[label = "move-end( player f1-1f f1-2f right)"]
53 -> 62[label = "move-start( player f1-0f f0-0f up)"]
53 -> 67[label = "move-start( player f1-0f f1-1f right)"]
62 -> 72[label = "move-inv( player f1-0f f0-0f up)"]
}
