digraph fsa{
rankdir=LR
graph [bgcolor=white];
start [shape=none]
node [shape = doublecircle]; 0 1 2 3 4 6 8 10 13 16 19 24 29 34 42 16 19 24 29 34 42 16 19 24 29 34 42 16 19 24 29 1 2 3 5 7 0 1 2 3 4 6 8 10 13 16 19 24 29 34 42 16 1 2 3 4 6 8 10 13 16 19 24 29 36 44 52 1 2 3 4 6 8 12 15 18 21 26 31 37 45 18 23 28 8 10 13 16 19 24 29 36 44 52 61 71 81 91 106 52 140 157 29 34 42 16 1 2 3 4 6 8 10 13 16 19 24 29 36 44 52 61 71 81 91 106 52 61 71 81 91 106 52 140 157 29 36 44 52 140 157 29 34 42 16 19 24 29 34 42 16 1 2 3 5 7 0 1 2 3 5 7 0 1 2 3 5 7 0 1 2 3 4 6 8 10 13 16 1 2 3 5 7 0 1 2 3 5 7 0 1 2 3 4 6 8 12 15 18 21 26 31 37 45 18 1 2 3 5 7 0 1 2 3 4 6 8 12 15 18 23 28 8 12 15 18 23 28 8 12 15 18 21 26 31 1 2 3 5 7 0 1 2 3 5 7 0 1 2 3 4 6 8 12 15 18 21 26 31 37 45 18 1 2 3 5 7 0 1 2 3 4 6 8 12 15 18 1 2 3 5 7 0 1 2 3 5 7 0 1 2 3 5 7 0 1 2 3 5 7 0 1 2 3 5 7 0 1 2 3 5 7 0 1 2 3 1 2 3 4 6 8 10 13 16 19 24 29 36 44 52 61 71 81 1 2 3 4 6 8 10 13 16 19 24 29 36 44 52 61 71 81 91 106 52 140 157 29 36 44 52 140 157 29 34 42 16 19 24 29 36 44 52 61 71 81 1 2 3 5 7 0 1 2 3 5 7 0 1 2 3 5 7 0 1 2 3 4 6 8 10 13 16 19 24 29 34 42 16 19 24 29 36 44 52 140 157 29 1 2 3 4 6 8 12 15 18 23 28 8 12 15 18 21 26 31 37 45 18 23 28 8 10 13 16 1 2 3 4 6 8 10 13 16 19 24 29 34 42 16 19 24 29 34 42 16 19 24 29 1 2 3 4 6 8 12 15 18 21 26 31 37 45 18 21 26 31 37 45 18 23 28 8 12 15 18 21 26 31 37 45 18 21 26 31 37 45 18 21 26 31 37 45 18 1 2 3 5 7 0 1 2 3 5 7 0 1 2 3 4 6 8 12 15 18 23 28 8 12 15 18 23 28 8 12 15 18 1 2 3 5 7 0 1 2 3 5 7 0 1 2 3 4 6 8 12 15 18 23 28 8 10 13 16 19 24 29 36 44 52 140 157 29 1 2 3 5 7 0 1 2 3 4 6 8 12 15 18 23 28 8 10 13 16 19 24 29 36 44 52 140 157 29 34 42 16 19 24 29 36 44 52 1 2 3 4 6 8 10 13 16 19 24 29 36 44 52 61 71 81 1 2 3 5 7 0 1 2 3 5 7 0 1 2 3 4 6 8 10 13 16 19 24 29 34 42 16 19 24 29 36 44 52 61 71 81 91 106 52 61 71 81 91 106 52 1 2 3 5 7 0 1 2 3 5 7 0 1 2 3 5 7 0 1 2 3 4 6 8 1 2 3 4 6 8 12 15 18 23 28 8 10 13 16 19 24 29 36 44 52 140 157 29 1 2 3 4 6 8 12 15 18 21 26 31 37 45 18 23 28 8 10 13 16 19 24 29 34 42 16 19 24 29 36 44 52 140 157 29 36 44 52 140 157 29 34 42 16 1 2 3 4 6 8 12 15 18 21 26 31 37 45 18 23 28 8 12 15 18 21 26 31 37 45 18 23 28 8 12 15 18 23 28 8 10 13 16 1 2 3 5 7 0 1 2 3 4 6 8 10 13 16 19 24 29 36 44 52 61 71 81 91 106 52 140 157 29 36 44 52 61 71 81 91 106 52 1 2 3 4 6 8 12 15 18 23 28 8 10 13 16 19 24 29 34 42 16 19 24 29 36 44 52 140 157 29 36 44 52 61 71 81 91 106 52 1 2 3 4 6 8 12 15 18 23 28 8 12 15 18 21 26 31 37 45 18 1 2 3 4 6 8 12 15 18 21 26 31 37 45 18 23 28 8 10 13 16 19 24 29 34 42 16;
start->0
0 -> 1[label = "move-start( player f0-0f f1-0f down)"]
1 -> 2[label = "move-inv( player f0-0f f1-0f down)"]
2 -> 3[label = "move-end( player f0-0f f1-0f down)"]
3 -> 5[label = "move-start( player f1-0f f0-0f up)"]
3 -> 4[label = "push-start( player box0 f1-0f f1-1f f1-2f right)"]
4 -> 6[label = "push-inv( player box0 f1-0f f1-1f f1-2f right)"]
5 -> 7[label = "move-inv( player f1-0f f0-0f up)"]
6 -> 8[label = "push-end( player box0 f1-0f f1-1f f1-2f right)"]
7 -> 0[label = "move-end( player f1-0f f0-0f up)"]
71 -> 81[label = "move-end( player f1-0f f0-0f up)"]
8 -> 12[label = "move-start( player f1-1f f1-0f left)"]
8 -> 10[label = "push-start( player box0 f1-1f f1-2f f1-3f right)"]
10 -> 13[label = "push-inv( player box0 f1-1f f1-2f f1-3f right)"]
12 -> 15[label = "move-inv( player f1-1f f1-0f left)"]
140 -> 157[label = "move-inv( player f1-0f f1-1f right)"]
13 -> 16[label = "push-end( player box0 f1-1f f1-2f f1-3f right)"]
15 -> 18[label = "move-end( player f1-1f f1-0f left)"]
16 -> 19[label = "move-start( player f1-2f f1-1f left)"]
81 -> 91[label = "move-start( player f0-0f f1-0f down)"]
18 -> 21[label = "move-start( player f1-0f f0-0f up)"]
18 -> 23[label = "move-start( player f1-0f f1-1f right)"]
19 -> 24[label = "move-inv( player f1-2f f1-1f left)"]
21 -> 26[label = "move-inv( player f1-0f f0-0f up)"]
23 -> 28[label = "move-inv( player f1-0f f1-1f right)"]
24 -> 29[label = "move-end( player f1-2f f1-1f left)"]
26 -> 31[label = "move-end( player f1-0f f0-0f up)"]
91 -> 106[label = "move-inv( player f0-0f f1-0f down)"]
28 -> 8[label = "move-end( player f1-0f f1-1f right)"]
29 -> 34[label = "move-start( player f1-1f f1-2f right)"]
29 -> 36[label = "move-start( player f1-1f f1-0f left)"]
157 -> 29[label = "move-end( player f1-0f f1-1f right)"]
31 -> 37[label = "move-start( player f0-0f f1-0f down)"]
34 -> 42[label = "move-inv( player f1-1f f1-2f right)"]
36 -> 44[label = "move-inv( player f1-1f f1-0f left)"]
37 -> 45[label = "move-inv( player f0-0f f1-0f down)"]
42 -> 16[label = "move-end( player f1-1f f1-2f right)"]
106 -> 52[label = "move-end( player f0-0f f1-0f down)"]
44 -> 52[label = "move-end( player f1-1f f1-0f left)"]
45 -> 18[label = "move-end( player f0-0f f1-0f down)"]
52 -> 61[label = "move-start( player f1-0f f0-0f up)"]
52 -> 140[label = "move-start( player f1-0f f1-1f right)"]
61 -> 71[label = "move-inv( player f1-0f f0-0f up)"]
}
