digraph fsa{
rankdir=LR
graph [bgcolor=white];
start [shape=none]
node [shape = doublecircle]; 0 1 4 9 15 21 27 33 39 1 4 9 15 21 27 33 39 2 5 10 16 22 27 33 39 1 4 9 15 21 27 33 39 2 3 5 16 22 27 33 39 1 4 9 15 21 27 33 39 3 7 10 16 22 27 33 39 3 7 10 16 22 27 33 39 2 5 10 16 22 27 33 39 2 3 5 16 22 27 33 39 1 4 9 15 21 27 33 39 2 3 5 16 22 27 33 39 3 7 10 16 22 27 33 39 1 4 9 15 21 27 33 39 1 4 9 15 21 27 33 39 2 3 5 16 22 27 33 39 1 4 9 15 21 27 33 39 3 7 13 19 25 31 37 39 1 4 9 15 21 27 33 39 3 2 7 16 22 27 33 39 2 3 5 16 22 27 33 39 2 5 10 16 22 27 33 39 1 4 9 15 21 27 33 39 3 7 13 19 25 31 37 39 1 4 9 15 21 27 33 39 1 4 9 15 21 27 33 39 3 7 13 19 25 31 37 39 3 2 7 16 22 27 33 39 2 5 10 16 22 27 33 39 1 4 9 15 21 27 33 39;
start->0
0 -> 3[label = "jump-start( pos-0-2 pos-0-1 pos-0-0)"]
0 -> 1[label = "jump-start( pos-0-2 pos-1-2 pos-2-2)"]
0 -> 2[label = "jump-start( pos-1-2 pos-1-1 pos-1-0)"]
1 -> 4[label = "jump-end( pos-0-2 pos-1-2 pos-2-2)"]
33 -> 39[label = "jump-end( pos-2-0 pos-2-1 pos-2-2)"]
2 -> 3[label = "jump-start( pos-0-2 pos-0-1 pos-0-0)"]
2 -> 5[label = "jump-end( pos-1-2 pos-1-1 pos-1-0)"]
2 -> 7[label = "jump-end( pos-0-2 pos-0-1 pos-0-0)"]
3 -> 5[label = "jump-end( pos-1-2 pos-1-1 pos-1-0)"]
3 -> 7[label = "jump-end( pos-0-2 pos-0-1 pos-0-0)"]
3 -> 2[label = "jump-start( pos-1-2 pos-1-1 pos-1-0)"]
4 -> 9[label = "jump-start( pos-2-2 pos-2-1 pos-2-0)"]
5 -> 10[label = "jump-start( pos-0-2 pos-0-1 pos-0-0)"]
5 -> 16[label = "jump-end( pos-0-2 pos-0-1 pos-0-0)"]
37 -> 39[label = "jump-end( pos-0-2 pos-1-2 pos-2-2)"]
7 -> 16[label = "jump-end( pos-1-2 pos-1-1 pos-1-0)"]
7 -> 13[label = "jump-start( pos-2-1 pos-1-1 pos-0-1)"]
7 -> 10[label = "jump-start( pos-1-2 pos-1-1 pos-1-0)"]
9 -> 15[label = "jump-end( pos-2-2 pos-2-1 pos-2-0)"]
10 -> 16[label = "jump-end( pos-1-2 pos-1-1 pos-1-0)"]
10 -> 16[label = "jump-end( pos-0-2 pos-0-1 pos-0-0)"]
13 -> 19[label = "jump-end( pos-2-1 pos-1-1 pos-0-1)"]
15 -> 21[label = "jump-start( pos-0-1 pos-1-1 pos-2-1)"]
16 -> 22[label = "jump-start( pos-0-0 pos-1-0 pos-2-0)"]
19 -> 25[label = "jump-start( pos-0-0 pos-0-1 pos-0-2)"]
21 -> 27[label = "jump-end( pos-0-1 pos-1-1 pos-2-1)"]
22 -> 27[label = "jump-end( pos-0-0 pos-1-0 pos-2-0)"]
25 -> 31[label = "jump-end( pos-0-0 pos-0-1 pos-0-2)"]
27 -> 33[label = "jump-start( pos-2-0 pos-2-1 pos-2-2)"]
31 -> 37[label = "jump-start( pos-0-2 pos-1-2 pos-2-2)"]
}
