digraph fsa{
rankdir=LR
graph [bgcolor=white];
start [shape=none]
node [shape = doublecircle]; 0 1 2 5 15 21 27 33 39 1 5 10 15 21 27 33 39 2 1 8 15 21 27 33 39 2 1 8 15 21 27 33 39 1 2 5 15 21 27 33 39 2 1 8 15 21 27 33 39 3 7 12 18 24 27 33 39 1 5 10 15 21 27 33 39 3 7 12 18 24 27 33 39 3 7 12 18 24 27 33 39 1 2 5 15 21 27 33 39 2 1 8 15 21 27 33 39 1 2 5 15 21 27 33 39 3 7 12 18 24 27 33 39 3 7 12 18 24 27 33 39 3 7 12 18 24 27 33 39 2 8 10 15 21 27 33 39 1 5 10 15 21 27 33 39 3 7 12 18 24 27 33 39 1 5 10 15 21 27 33 39 2 1 8 15 21 27 33 39 3 7 12 18 24 27 33 39 3 7 12 18 24 27 33 39 3 7 12 18 24 27 33 39 3 7 12 18 24 27 33 39 2 1 8 15 21 27 33 39 1 5 10 15 21 27 33 39 3 7 12 18 24 27 33 39 2 8 14 20 26 32 38 39 2 1 8 15 21 27 33 39;
start->0
0 -> 2[label = "jump-start( pos-0-2 pos-0-1 pos-0-0)"]
0 -> 3[label = "jump-start( pos-0-2 pos-1-2 pos-2-2)"]
0 -> 1[label = "jump-start( pos-1-2 pos-1-1 pos-1-0)"]
32 -> 38[label = "jump-start( pos-0-2 pos-1-2 pos-2-2)"]
1 -> 2[label = "jump-start( pos-0-2 pos-0-1 pos-0-0)"]
1 -> 5[label = "jump-end( pos-1-2 pos-1-1 pos-1-0)"]
1 -> 8[label = "jump-end( pos-0-2 pos-0-1 pos-0-0)"]
33 -> 39[label = "jump-end( pos-2-0 pos-2-1 pos-2-2)"]
2 -> 5[label = "jump-end( pos-1-2 pos-1-1 pos-1-0)"]
2 -> 8[label = "jump-end( pos-0-2 pos-0-1 pos-0-0)"]
2 -> 1[label = "jump-start( pos-1-2 pos-1-1 pos-1-0)"]
3 -> 7[label = "jump-end( pos-0-2 pos-1-2 pos-2-2)"]
5 -> 10[label = "jump-start( pos-0-2 pos-0-1 pos-0-0)"]
5 -> 15[label = "jump-end( pos-0-2 pos-0-1 pos-0-0)"]
38 -> 39[label = "jump-end( pos-0-2 pos-1-2 pos-2-2)"]
7 -> 12[label = "jump-start( pos-2-2 pos-2-1 pos-2-0)"]
8 -> 15[label = "jump-end( pos-1-2 pos-1-1 pos-1-0)"]
8 -> 14[label = "jump-start( pos-2-1 pos-1-1 pos-0-1)"]
8 -> 10[label = "jump-start( pos-1-2 pos-1-1 pos-1-0)"]
10 -> 15[label = "jump-end( pos-1-2 pos-1-1 pos-1-0)"]
10 -> 15[label = "jump-end( pos-0-2 pos-0-1 pos-0-0)"]
12 -> 18[label = "jump-end( pos-2-2 pos-2-1 pos-2-0)"]
14 -> 20[label = "jump-end( pos-2-1 pos-1-1 pos-0-1)"]
15 -> 21[label = "jump-start( pos-0-0 pos-1-0 pos-2-0)"]
18 -> 24[label = "jump-start( pos-0-1 pos-1-1 pos-2-1)"]
20 -> 26[label = "jump-start( pos-0-0 pos-0-1 pos-0-2)"]
21 -> 27[label = "jump-end( pos-0-0 pos-1-0 pos-2-0)"]
24 -> 27[label = "jump-end( pos-0-1 pos-1-1 pos-2-1)"]
26 -> 32[label = "jump-end( pos-0-0 pos-0-1 pos-0-2)"]
27 -> 33[label = "jump-start( pos-2-0 pos-2-1 pos-2-2)"]
}
