digraph fsa{
rankdir=LR
graph [bgcolor=white];
start [shape=none]
node [shape = doublecircle]; 0 1 3 5 7 11 15 22 33 43 1 3 5 7 11 7 11 13 15 33 43 2 4 6 8 12 17 8 14 46 1 3 5 7 13 7 13 11 20 33 51 2 4 6 8 12 8 12 14 17 57 46 1 3 5 7 13 20 27 38 49 54 62 27 2 4 6 8 12 8 12 14 17 57 46 1 3 5 7 13 7 13 11 20 33 51 2 4 6 8 14 8 14 12 46 57 51 2 4 6 8 14 8 14 12 46 57 51 1 3 5 7 13 7 13 11 20 33 51 1 3 5 7 13 20 22 33 51 1 3 5 7 11 7 11 13 15 33 43 1 3 5 7 13 20 22 33 51 1 3 5 7 11 15 22 33 43 1 3 5 7 11 15 30 41 52 60 68 51 1 3 5 7 11 15 30 41 52 60 68 51 1 3 5 7 11 15 22 33 43 2 4 6 8 12 17 31 42 53 61 69 51 1 3 5 7 13 7 13 11 20 33 51 1 3 5 7 11 15 22 33 43 1 3 5 7 13 7 13 11 20 33 51 1 3 5 7 13 7 13 11 20 33 51 1 3 5 7 13 20 32 43 54 62 38 74 75 51 1 3 5 7 13 20 22 33 51 2 4 6 8 12 8 12 14 17 57 46 1 3 5 7 13 20 22 33 51 2 4 6 8 12 8 12 14 17 57 46 2 4 6 8 14 8 14 12 46 57 51 1 3 5 7 11 7 11 13 15 33 43;
start->0
0 -> 1[label = "jump-start( pos-0-2 pos-0-1 pos-0-0)"]
0 -> 2[label = "jump-start( pos-2-0 pos-1-0 pos-0-0)"]
1 -> 3[label = "jump-inv( pos-0-2 pos-0-1 pos-0-0)"]
2 -> 4[label = "jump-inv( pos-2-0 pos-1-0 pos-0-0)"]
3 -> 5[label = "jump-end( pos-0-2 pos-0-1 pos-0-0)"]
4 -> 6[label = "jump-end( pos-2-0 pos-1-0 pos-0-0)"]
68 -> 51[label = "jump-end( pos-2-0 pos-1-0 pos-0-0)"]
5 -> 7[label = "jump-start( pos-2-1 pos-1-1 pos-0-1)"]
5 -> 7[label = "jump-start( pos-2-2 pos-1-2 pos-0-2)"]
69 -> 51[label = "jump-end( pos-0-0 pos-0-1 pos-0-2)"]
6 -> 8[label = "jump-start( pos-2-2 pos-2-1 pos-2-0)"]
6 -> 8[label = "jump-start( pos-1-2 pos-1-1 pos-1-0)"]
7 -> 13[label = "jump-inv( pos-2-2 pos-1-2 pos-0-2)"]
7 -> 11[label = "jump-inv( pos-2-1 pos-1-1 pos-0-1)"]
8 -> 12[label = "jump-inv( pos-2-2 pos-2-1 pos-2-0)"]
8 -> 14[label = "jump-inv( pos-1-2 pos-1-1 pos-1-0)"]
74 -> 75[label = "jump-inv( pos-1-0 pos-1-1 pos-1-2)"]
11 -> 15[label = "jump-end( pos-2-1 pos-1-1 pos-0-1)"]
11 -> 13[label = "jump-inv( pos-2-2 pos-1-2 pos-0-2)"]
11 -> 7[label = "jump-start( pos-2-2 pos-1-2 pos-0-2)"]
11 -> 20[label = "jump-end( pos-2-2 pos-1-2 pos-0-2)"]
75 -> 51[label = "jump-end( pos-1-0 pos-1-1 pos-1-2)"]
12 -> 46[label = "jump-end( pos-1-2 pos-1-1 pos-1-0)"]
12 -> 17[label = "jump-end( pos-2-2 pos-2-1 pos-2-0)"]
12 -> 8[label = "jump-start( pos-1-2 pos-1-1 pos-1-0)"]
12 -> 14[label = "jump-inv( pos-1-2 pos-1-1 pos-1-0)"]
13 -> 15[label = "jump-end( pos-2-1 pos-1-1 pos-0-1)"]
13 -> 7[label = "jump-start( pos-2-1 pos-1-1 pos-0-1)"]
13 -> 20[label = "jump-end( pos-2-2 pos-1-2 pos-0-2)"]
13 -> 11[label = "jump-inv( pos-2-1 pos-1-1 pos-0-1)"]
14 -> 46[label = "jump-end( pos-1-2 pos-1-1 pos-1-0)"]
14 -> 8[label = "jump-start( pos-2-2 pos-2-1 pos-2-0)"]
14 -> 17[label = "jump-end( pos-2-2 pos-2-1 pos-2-0)"]
14 -> 12[label = "jump-inv( pos-2-2 pos-2-1 pos-2-0)"]
15 -> 33[label = "jump-inv( pos-2-2 pos-1-2 pos-0-2)"]
15 -> 22[label = "jump-start( pos-2-2 pos-1-2 pos-0-2)"]
15 -> 30[label = "jump-start( pos-0-0 pos-0-1 pos-0-2)"]
17 -> 31[label = "jump-start( pos-0-2 pos-1-2 pos-2-2)"]
17 -> 8[label = "jump-start( pos-1-2 pos-1-1 pos-1-0)"]
17 -> 57[label = "jump-inv( pos-1-2 pos-1-1 pos-1-0)"]
20 -> 27[label = "jump-start( pos-1-0 pos-1-1 pos-1-2)"]
20 -> 22[label = "jump-start( pos-2-1 pos-1-1 pos-0-1)"]
20 -> 32[label = "jump-start( pos-2-0 pos-2-1 pos-2-2)"]
20 -> 33[label = "jump-inv( pos-2-1 pos-1-1 pos-0-1)"]
22 -> 33[label = "jump-inv( pos-2-2 pos-1-2 pos-0-2)"]
22 -> 33[label = "jump-inv( pos-2-1 pos-1-1 pos-0-1)"]
27 -> 38[label = "jump-inv( pos-1-0 pos-1-1 pos-1-2)"]
30 -> 41[label = "jump-inv( pos-0-0 pos-0-1 pos-0-2)"]
31 -> 42[label = "jump-inv( pos-0-2 pos-1-2 pos-2-2)"]
32 -> 43[label = "jump-inv( pos-2-0 pos-2-1 pos-2-2)"]
33 -> 51[label = "jump-end( pos-2-1 pos-1-1 pos-0-1)"]
33 -> 43[label = "jump-end( pos-2-2 pos-1-2 pos-0-2)"]
38 -> 49[label = "jump-end( pos-1-0 pos-1-1 pos-1-2)"]
38 -> 74[label = "jump-end( pos-2-0 pos-2-1 pos-2-2)"]
41 -> 52[label = "jump-end( pos-0-0 pos-0-1 pos-0-2)"]
42 -> 53[label = "jump-end( pos-0-2 pos-1-2 pos-2-2)"]
43 -> 54[label = "jump-start( pos-1-0 pos-1-1 pos-1-2)"]
46 -> 57[label = "jump-inv( pos-2-2 pos-2-1 pos-2-0)"]
49 -> 54[label = "jump-start( pos-2-0 pos-2-1 pos-2-2)"]
52 -> 60[label = "jump-start( pos-2-0 pos-1-0 pos-0-0)"]
53 -> 61[label = "jump-start( pos-0-0 pos-0-1 pos-0-2)"]
54 -> 62[label = "jump-inv( pos-2-0 pos-2-1 pos-2-2)"]
57 -> 46[label = "jump-end( pos-1-2 pos-1-1 pos-1-0)"]
57 -> 51[label = "jump-end( pos-2-2 pos-2-1 pos-2-0)"]
60 -> 68[label = "jump-inv( pos-2-0 pos-1-0 pos-0-0)"]
61 -> 69[label = "jump-inv( pos-0-0 pos-0-1 pos-0-2)"]
62 -> 38[label = "jump-inv( pos-1-0 pos-1-1 pos-1-2)"]
62 -> 27[label = "jump-end( pos-2-0 pos-2-1 pos-2-2)"]
}
