digraph fsa{
rankdir=LR
graph [bgcolor=white];
start [shape=none]
node [shape = doublecircle]; 0 1 3 5 7 11 7 11 14 22 42 47 2 4 6 8 12 16 24 37 50 63 73 55 2 4 6 8 12 16 24 37 50 63 73 55 1 3 5 7 11 7 11 14 22 42 47 2 4 6 8 13 17 25 38 25 38 48 83 88 55 2 4 6 8 12 8 12 13 16 46 55 1 3 5 7 14 7 14 11 21 42 55 2 4 6 8 13 8 13 12 17 46 33 2 4 6 8 12 8 12 13 16 46 55 1 3 5 7 14 21 29 42 55 1 3 5 7 11 22 29 42 47 2 4 6 8 13 17 25 38 25 38 48 83 88 55 1 3 5 7 11 22 31 44 57 68 78 55 1 3 5 7 14 21 32 45 58 60 70 32 2 4 6 8 13 8 13 12 17 46 33 2 4 6 8 12 8 12 13 16 46 55 2 4 6 8 12 8 12 13 16 46 55 2 4 6 8 13 8 13 12 17 46 33 2 4 6 8 12 16 24 37 50 63 73 55 1 3 5 7 11 7 11 14 22 42 47 2 4 6 8 12 16 33 46 55 1 3 5 7 14 21 34 47 60 70 45 86 89 55 2 4 6 8 13 8 13 12 17 46 33 2 4 6 8 12 8 12 13 16 46 55 2 4 6 8 12 16 33 46 55 2 4 6 8 12 16 24 37 50 63 73 55 2 4 6 8 12 16 33 46 55 1 3 5 7 11 22 29 42 47 2 4 6 8 13 17 35 48 61 71 81 55 1 3 5 7 11 7 11 14 22 42 47;
start->0
0 -> 2[label = "jump-start( pos-0-2 pos-0-1 pos-0-0)"]
0 -> 1[label = "jump-start( pos-2-0 pos-1-0 pos-0-0)"]
1 -> 3[label = "jump-inv( pos-2-0 pos-1-0 pos-0-0)"]
2 -> 4[label = "jump-inv( pos-0-2 pos-0-1 pos-0-0)"]
3 -> 5[label = "jump-end( pos-2-0 pos-1-0 pos-0-0)"]
4 -> 6[label = "jump-end( pos-0-2 pos-0-1 pos-0-0)"]
5 -> 7[label = "jump-start( pos-1-2 pos-1-1 pos-1-0)"]
5 -> 7[label = "jump-start( pos-2-2 pos-2-1 pos-2-0)"]
6 -> 8[label = "jump-start( pos-2-1 pos-1-1 pos-0-1)"]
6 -> 8[label = "jump-start( pos-2-2 pos-1-2 pos-0-2)"]
7 -> 14[label = "jump-inv( pos-2-2 pos-2-1 pos-2-0)"]
7 -> 11[label = "jump-inv( pos-1-2 pos-1-1 pos-1-0)"]
8 -> 13[label = "jump-inv( pos-2-2 pos-1-2 pos-0-2)"]
8 -> 12[label = "jump-inv( pos-2-1 pos-1-1 pos-0-1)"]
11 -> 22[label = "jump-end( pos-1-2 pos-1-1 pos-1-0)"]
11 -> 7[label = "jump-start( pos-2-2 pos-2-1 pos-2-0)"]
11 -> 21[label = "jump-end( pos-2-2 pos-2-1 pos-2-0)"]
11 -> 14[label = "jump-inv( pos-2-2 pos-2-1 pos-2-0)"]
12 -> 16[label = "jump-end( pos-2-1 pos-1-1 pos-0-1)"]
12 -> 13[label = "jump-inv( pos-2-2 pos-1-2 pos-0-2)"]
12 -> 8[label = "jump-start( pos-2-2 pos-1-2 pos-0-2)"]
12 -> 17[label = "jump-end( pos-2-2 pos-1-2 pos-0-2)"]
13 -> 16[label = "jump-end( pos-2-1 pos-1-1 pos-0-1)"]
13 -> 8[label = "jump-start( pos-2-1 pos-1-1 pos-0-1)"]
13 -> 17[label = "jump-end( pos-2-2 pos-1-2 pos-0-2)"]
13 -> 12[label = "jump-inv( pos-2-1 pos-1-1 pos-0-1)"]
14 -> 22[label = "jump-end( pos-1-2 pos-1-1 pos-1-0)"]
14 -> 7[label = "jump-start( pos-1-2 pos-1-1 pos-1-0)"]
14 -> 21[label = "jump-end( pos-2-2 pos-2-1 pos-2-0)"]
14 -> 11[label = "jump-inv( pos-1-2 pos-1-1 pos-1-0)"]
16 -> 46[label = "jump-inv( pos-2-2 pos-1-2 pos-0-2)"]
16 -> 24[label = "jump-start( pos-0-0 pos-0-1 pos-0-2)"]
16 -> 33[label = "jump-start( pos-2-2 pos-1-2 pos-0-2)"]
17 -> 25[label = "jump-start( pos-1-0 pos-1-1 pos-1-2)"]
17 -> 35[label = "jump-start( pos-2-0 pos-2-1 pos-2-2)"]
17 -> 46[label = "jump-inv( pos-2-1 pos-1-1 pos-0-1)"]
21 -> 34[label = "jump-start( pos-0-2 pos-1-2 pos-2-2)"]
21 -> 32[label = "jump-start( pos-0-1 pos-1-1 pos-2-1)"]
21 -> 29[label = "jump-start( pos-1-2 pos-1-1 pos-1-0)"]
21 -> 42[label = "jump-inv( pos-1-2 pos-1-1 pos-1-0)"]
22 -> 29[label = "jump-start( pos-2-2 pos-2-1 pos-2-0)"]
22 -> 42[label = "jump-inv( pos-2-2 pos-2-1 pos-2-0)"]
22 -> 31[label = "jump-start( pos-0-0 pos-1-0 pos-2-0)"]
24 -> 37[label = "jump-inv( pos-0-0 pos-0-1 pos-0-2)"]
25 -> 38[label = "jump-inv( pos-1-0 pos-1-1 pos-1-2)"]
29 -> 42[label = "jump-inv( pos-2-2 pos-2-1 pos-2-0)"]
29 -> 42[label = "jump-inv( pos-1-2 pos-1-1 pos-1-0)"]
31 -> 44[label = "jump-inv( pos-0-0 pos-1-0 pos-2-0)"]
32 -> 45[label = "jump-inv( pos-0-1 pos-1-1 pos-2-1)"]
33 -> 46[label = "jump-inv( pos-2-2 pos-1-2 pos-0-2)"]
34 -> 47[label = "jump-inv( pos-0-2 pos-1-2 pos-2-2)"]
35 -> 48[label = "jump-inv( pos-2-0 pos-2-1 pos-2-2)"]
37 -> 50[label = "jump-end( pos-0-0 pos-0-1 pos-0-2)"]
38 -> 25[label = "jump-start( pos-2-0 pos-2-1 pos-2-2)"]
38 -> 48[label = "jump-inv( pos-2-0 pos-2-1 pos-2-2)"]
42 -> 55[label = "jump-end( pos-1-2 pos-1-1 pos-1-0)"]
42 -> 47[label = "jump-end( pos-2-2 pos-2-1 pos-2-0)"]
44 -> 57[label = "jump-end( pos-0-0 pos-1-0 pos-2-0)"]
45 -> 58[label = "jump-end( pos-0-1 pos-1-1 pos-2-1)"]
45 -> 86[label = "jump-end( pos-0-2 pos-1-2 pos-2-2)"]
46 -> 33[label = "jump-end( pos-2-1 pos-1-1 pos-0-1)"]
46 -> 55[label = "jump-end( pos-2-2 pos-1-2 pos-0-2)"]
47 -> 60[label = "jump-start( pos-0-1 pos-1-1 pos-2-1)"]
48 -> 83[label = "jump-end( pos-1-0 pos-1-1 pos-1-2)"]
48 -> 61[label = "jump-end( pos-2-0 pos-2-1 pos-2-2)"]
50 -> 63[label = "jump-start( pos-2-0 pos-1-0 pos-0-0)"]
57 -> 68[label = "jump-start( pos-0-2 pos-0-1 pos-0-0)"]
58 -> 60[label = "jump-start( pos-0-2 pos-1-2 pos-2-2)"]
60 -> 70[label = "jump-inv( pos-0-2 pos-1-2 pos-2-2)"]
61 -> 71[label = "jump-start( pos-0-0 pos-1-0 pos-2-0)"]
63 -> 73[label = "jump-inv( pos-2-0 pos-1-0 pos-0-0)"]
68 -> 78[label = "jump-inv( pos-0-2 pos-0-1 pos-0-0)"]
70 -> 45[label = "jump-inv( pos-0-1 pos-1-1 pos-2-1)"]
70 -> 32[label = "jump-end( pos-0-2 pos-1-2 pos-2-2)"]
71 -> 81[label = "jump-inv( pos-0-0 pos-1-0 pos-2-0)"]
73 -> 55[label = "jump-end( pos-2-0 pos-1-0 pos-0-0)"]
78 -> 55[label = "jump-end( pos-0-2 pos-0-1 pos-0-0)"]
81 -> 55[label = "jump-end( pos-0-0 pos-1-0 pos-2-0)"]
83 -> 88[label = "jump-inv( pos-2-0 pos-2-1 pos-2-2)"]
86 -> 89[label = "jump-inv( pos-0-1 pos-1-1 pos-2-1)"]
88 -> 55[label = "jump-end( pos-2-0 pos-2-1 pos-2-2)"]
89 -> 55[label = "jump-end( pos-0-1 pos-1-1 pos-2-1)"]
}
