digraph fsa{
rankdir=LR
graph [bgcolor=white];
start [shape=none]
node [shape = doublecircle]; 0 1 5 9 1 7 11 39 59 135 39 210 157 264 293 157 264 13 1 6 1 6 5 14 94 122 39 181 211 157 264 13 1 7 11 12 29 67 39 59 135 39 194 12 1 7 11 1 5 13 5 50 1 5 50 8 272 12 29 122 381 406 431 456 431 456 528 306 334 16 6 622 635 275 304 1 8 12 29 49 12 29 12 29 140 1 8 13 5 39 210 13 5 7 1 8 13 5 7 6 384 186 194 216 94 340 122 11 59 122 11 59 216 94 71 1 5 13 5 50 13 5 1 5 8 9 8 12 29 62 1 8 281 7 12 29 7 14 94 67 1 5 9 1 7 71 7 127 156 186 216 172 275 304 172 186 384 186 434 459 264 13 1 5 9 1 7 1 7 29 157 7 29 133 1 7 29 133 6 71 7 29 6 11 67 59 216 94 71 1 8 14 1 5 13 5 58 13 5 9 172 275 306 334 360 16 6 16 6 485 16 6 14 1 6 1 6 8 16 6 8 159 1 6 8 159 5 39 59 8 159 5 7 16 6 8 5 7 135 264 9 267 91 9 267 345 489 12 1 6 16 6 14 1 6 14 94 1 6 14 94 8 16 6 7 29 14 94 8 11 67 172 186 194 296 202 638 194 659 638 194 12 1 6 14 1 5 9 1 7 71 7 211 157 7 211 8 71 7 29 71 7 29 512 71 7 29 135 264 13 1 5 9 1 8 12 29 133 12 29 222 8 281 310 181 296 306 334 377 172 489 12 1 8 14 1 7 1 7 6 11 59 135 39 194 12 1 7 1 7 6 11 59 135 39 194 13 5 50 1 5 50 8 272 12 29 122 381 406 1 5 13 5 50 13 5 13 5 58 1 5 58 8 340 122 381 272 12 29 49 39 194 29 49 94 122 381 71 7 12 29 7 12 29 7 698 1 8 7 698 94 340 489 16 6 156 186 59 216 94 71 1 5 13 5 58 1 5 58 7 13 5 7 1 5 7 6 9 267 6 11 59 1 6 8 135 264 429 210 587 459 264 13 1 5 13 5 50 1 5 50 6 1 5 50 6 7 1 5 50 6 7 29 13 5 6 7 29 122 59 135 264 71 7 29 135 264 13 1 8 14 1 7 71 7 127 1 7 127 6 1 7 127 6 5 156 186 59 194 156 186 59 194 598 71 7 6 5 11 59 194 304 194 12 1 7 11 12 29 12 29 140 12 29 67 172 202 13 5 216 172 202 16 6 91 9 181 345 94 71 1 8 12 29 49 1 8 13 5 12 29 5 67 181 345 156 186 216 172 275 306 334 542 563 94 71 1 7 11 39 59 16 6 14 1 6 14 94 1 6 14 94 8 16 6 5 8 135 5 8 9 8 14 1 8 1 8 7 14 94 67 172 202 216 172 275 304 1 8 1 8 6 12 29 6 159 1 8 6 159 5 12 29 6 5 12 29 6 5 49 12 29 6 5 67 59 194 304 194 172 202 186 406 699 71 7 698 71 7 11 1 7 11 12 29 12 29 49 12 29 157 264 293 157 264 1 8 6 67 59 431 456 545 306 334 377 39 194 12 1 7 11 1 5 1 5 6 13 5 6 58 13 5 6 9 181 211 157 264 157 264 293 157 264 13 1 8 12 29 62 12 29 67 172 202 13 5 63 1 5 63 6 13 5 6 9 181 211 1 5 13 5 63 91 9 1 5 7 9 267 296 306 334 377 157 264 13 1 6 1 6 7 1 6 7 94 71 7 94 67 181 345 39 210 429 210 478 429 210 429 210 587 459 264 13 1 6 1 6 5 14 94 122 1 8 12 29 133 1 8 71 7 12 29 7 12 29 7 434 459 264 94 340 489 12;
start->0
0 -> 1[label = "light_match-start( match1)"]
0 -> 1[label = "light_match-start( match0)"]
0 -> 1[label = "light_match-start( match3)"]
0 -> 1[label = "light_match-start( match2)"]
384 -> 186[label = "light_match-inv( match1)"]
512 -> 71[label = "mend_fuse-end( fuse1 match3)"]
1 -> 7[label = "light_match-inv( match3)"]
1 -> 8[label = "light_match-inv( match1)"]
1 -> 6[label = "light_match-inv( match2)"]
1 -> 5[label = "light_match-inv( match0)"]
5 -> 13[label = "mend_fuse-start( fuse0 match0)"]
5 -> 7[label = "light_match-inv( match3)"]
5 -> 49[label = "mend_fuse-inv( fuse2 match1)"]
5 -> 216[label = "mend_fuse-inv( fuse2 match0)"]
5 -> 58[label = "mend_fuse-inv( fuse3 match0)"]
5 -> 8[label = "light_match-inv( match1)"]
5 -> 6[label = "light_match-inv( match2)"]
5 -> 63[label = "mend_fuse-inv( fuse0 match0)"]
5 -> 156[label = "mend_fuse-end( fuse1 match3)"]
5 -> 1[label = "light_match-start( match1)"]
5 -> 11[label = "light_match-end( match3)"]
5 -> 67[label = "light_match-end( match1)"]
5 -> 14[label = "light_match-end( match2)"]
5 -> 12[label = "mend_fuse-end( fuse3 match2)"]
5 -> 13[label = "mend_fuse-start( fuse3 match0)"]
5 -> 9[label = "light_match-end( match0)"]
5 -> 12[label = "mend_fuse-end( fuse2 match1)"]
5 -> 39[label = "light_match-start( match3)"]
5 -> 1[label = "light_match-start( match2)"]
5 -> 12[label = "mend_fuse-start( fuse2 match1)"]
5 -> 13[label = "mend_fuse-start( fuse1 match0)"]
5 -> 50[label = "mend_fuse-inv( fuse1 match0)"]
133 -> 12[label = "mend_fuse-end( fuse1 match1)"]
133 -> 6[label = "light_match-inv( match2)"]
133 -> 1[label = "light_match-start( match3)"]
133 -> 1[label = "light_match-start( match2)"]
6 -> 71[label = "mend_fuse-end( fuse1 match1)"]
6 -> 7[label = "light_match-inv( match3)"]
6 -> 156[label = "mend_fuse-end( fuse0 match3)"]
6 -> 16[label = "mend_fuse-start( fuse0 match2)"]
6 -> 485[label = "mend_fuse-inv( fuse1 match2)"]
6 -> 8[label = "light_match-inv( match1)"]
6 -> 14[label = "mend_fuse-inv( fuse0 match2)"]
6 -> 58[label = "mend_fuse-inv( fuse3 match0)"]
6 -> 384[label = "mend_fuse-end( fuse0 match1)"]
6 -> 13[label = "mend_fuse-end( fuse0 match0)"]
6 -> 159[label = "mend_fuse-inv( fuse3 match2)"]
6 -> 5[label = "light_match-inv( match0)"]
6 -> 1[label = "light_match-start( match1)"]
6 -> 11[label = "light_match-end( match3)"]
6 -> 1[label = "light_match-start( match0)"]
6 -> 67[label = "light_match-end( match1)"]
6 -> 14[label = "light_match-end( match2)"]
6 -> 13[label = "mend_fuse-start( fuse3 match0)"]
6 -> 9[label = "light_match-end( match0)"]
6 -> 1[label = "light_match-start( match3)"]
6 -> 91[label = "mend_fuse-end( fuse2 match0)"]
6 -> 12[label = "mend_fuse-start( fuse3 match2)"]
6 -> 16[label = "mend_fuse-start( fuse1 match2)"]
6 -> 622[label = "mend_fuse-inv( fuse2 match2)"]
7 -> 127[label = "mend_fuse-inv( fuse1 match3)"]
7 -> 16[label = "mend_fuse-end( fuse1 match2)"]
7 -> 12[label = "mend_fuse-end( fuse1 match1)"]
7 -> 12[label = "mend_fuse-start( fuse0 match1)"]
7 -> 29[label = "light_match-inv( match1)"]
7 -> 12[label = "mend_fuse-start( fuse0 match3)"]
7 -> 6[label = "light_match-inv( match2)"]
7 -> 13[label = "mend_fuse-end( fuse3 match0)"]
7 -> 698[label = "mend_fuse-inv( fuse0 match3)"]
7 -> 94[label = "light_match-inv( match0)"]
7 -> 434[label = "mend_fuse-inv( fuse0 match1)"]
7 -> 11[label = "light_match-end( match3)"]
7 -> 1[label = "light_match-start( match1)"]
7 -> 1[label = "light_match-start( match0)"]
7 -> 14[label = "light_match-end( match1)"]
7 -> 12[label = "mend_fuse-end( fuse3 match1)"]
7 -> 135[label = "light_match-end( match2)"]
7 -> 9[label = "light_match-end( match0)"]
7 -> 12[label = "mend_fuse-end( fuse2 match1)"]
7 -> 1[label = "light_match-start( match2)"]
7 -> 71[label = "mend_fuse-start( fuse2 match3)"]
7 -> 71[label = "mend_fuse-start( fuse1 match3)"]
7 -> 211[label = "mend_fuse-inv( fuse2 match3)"]
135 -> 264[label = "light_match-inv( match1)"]
135 -> 5[label = "light_match-inv( match0)"]
135 -> 39[label = "light_match-start( match1)"]
135 -> 39[label = "light_match-start( match0)"]
8 -> 7[label = "light_match-inv( match3)"]
8 -> 13[label = "mend_fuse-inv( fuse2 match1)"]
8 -> 272[label = "mend_fuse-end( fuse1 match0)"]
8 -> 71[label = "mend_fuse-inv( fuse1 match1)"]
8 -> 159[label = "mend_fuse-inv( fuse1 match2)"]
8 -> 16[label = "mend_fuse-end( fuse0 match2)"]
8 -> 6[label = "light_match-inv( match2)"]
8 -> 340[label = "mend_fuse-end( fuse3 match0)"]
8 -> 13[label = "mend_fuse-inv( fuse0 match1)"]
8 -> 281[label = "mend_fuse-inv( fuse3 match1)"]
8 -> 5[label = "light_match-inv( match0)"]
8 -> 11[label = "light_match-end( match3)"]
8 -> 14[label = "light_match-end( match1)"]
8 -> 135[label = "light_match-end( match2)"]
8 -> 71[label = "mend_fuse-end( fuse2 match3)"]
8 -> 12[label = "mend_fuse-start( fuse3 match1)"]
8 -> 9[label = "light_match-end( match0)"]
8 -> 1[label = "light_match-start( match3)"]
8 -> 1[label = "light_match-start( match2)"]
8 -> 12[label = "mend_fuse-start( fuse2 match1)"]
8 -> 16[label = "mend_fuse-start( fuse1 match2)"]
8 -> 12[label = "mend_fuse-start( fuse1 match1)"]
264 -> 293[label = "mend_fuse-inv( fuse1 match1)"]
264 -> 94[label = "light_match-inv( match3)"]
264 -> 429[label = "mend_fuse-start( fuse2 match1)"]
264 -> 9[label = "light_match-inv( match0)"]
264 -> 13[label = "light_match-end( match1)"]
264 -> 157[label = "mend_fuse-start( fuse1 match1)"]
264 -> 71[label = "light_match-end( match2)"]
264 -> 1[label = "light_match-start( match2)"]
9 -> 267[label = "light_match-inv( match3)"]
9 -> 8[label = "light_match-inv( match1)"]
9 -> 181[label = "light_match-inv( match2)"]
9 -> 1[label = "light_match-start( match1)"]
9 -> 1[label = "light_match-start( match3)"]
9 -> 172[label = "light_match-start( match2)"]
11 -> 67[label = "light_match-inv( match1)"]
11 -> 59[label = "light_match-inv( match2)"]
11 -> 12[label = "light_match-start( match1)"]
11 -> 1[label = "light_match-start( match0)"]
11 -> 39[label = "light_match-start( match2)"]
267 -> 6[label = "light_match-inv( match2)"]
267 -> 296[label = "light_match-end( match3)"]
267 -> 91[label = "light_match-end( match1)"]
267 -> 345[label = "light_match-end( match0)"]
12 -> 29[label = "light_match-inv( match1)"]
140 -> 12[label = "mend_fuse-end( fuse0 match1)"]
140 -> 1[label = "light_match-start( match0)"]
13 -> 5[label = "light_match-inv( match0)"]
14 -> 94[label = "light_match-inv( match3)"]
14 -> 94[label = "light_match-inv( match0)"]
14 -> 1[label = "light_match-start( match0)"]
14 -> 1[label = "light_match-start( match3)"]
16 -> 6[label = "light_match-inv( match2)"]
272 -> 12[label = "light_match-inv( match0)"]
528 -> 306[label = "mend_fuse-end( fuse0 match2)"]
275 -> 306[label = "mend_fuse-start( fuse3 match2)"]
275 -> 306[label = "mend_fuse-start( fuse0 match2)"]
275 -> 304[label = "light_match-end( match2)"]
659 -> 638[label = "mend_fuse-end( fuse1 match0)"]
406 -> 699[label = "light_match-inv( match3)"]
406 -> 431[label = "light_match-start( match2)"]
281 -> 7[label = "light_match-inv( match3)"]
281 -> 310[label = "mend_fuse-end( fuse3 match1)"]
156 -> 186[label = "light_match-inv( match3)"]
29 -> 512[label = "mend_fuse-inv( fuse1 match3)"]
29 -> 49[label = "mend_fuse-inv( fuse2 match1)"]
29 -> 12[label = "mend_fuse-start( fuse0 match1)"]
29 -> 133[label = "mend_fuse-inv( fuse1 match1)"]
29 -> 7[label = "light_match-inv( match3)"]
29 -> 13[label = "mend_fuse-end( fuse1 match0)"]
29 -> 6[label = "light_match-inv( match2)"]
29 -> 62[label = "mend_fuse-inv( fuse3 match1)"]
29 -> 140[label = "mend_fuse-inv( fuse0 match1)"]
29 -> 5[label = "light_match-inv( match0)"]
29 -> 135[label = "light_match-end( match3)"]
29 -> 67[label = "light_match-end( match1)"]
29 -> 14[label = "light_match-end( match2)"]
29 -> 222[label = "mend_fuse-start( fuse3 match1)"]
29 -> 122[label = "light_match-end( match0)"]
29 -> 12[label = "mend_fuse-start( fuse2 match1)"]
29 -> 71[label = "mend_fuse-start( fuse1 match3)"]
29 -> 157[label = "mend_fuse-start( fuse1 match1)"]
157 -> 7[label = "light_match-inv( match3)"]
157 -> 264[label = "light_match-inv( match1)"]
542 -> 563[label = "mend_fuse-end( fuse3 match2)"]
159 -> 5[label = "light_match-inv( match0)"]
159 -> 1[label = "light_match-start( match0)"]
545 -> 306[label = "mend_fuse-end( fuse3 match2)"]
293 -> 157[label = "mend_fuse-end( fuse1 match1)"]
39 -> 181[label = "light_match-inv( match3)"]
39 -> 210[label = "light_match-inv( match1)"]
39 -> 59[label = "light_match-inv( match2)"]
39 -> 194[label = "light_match-inv( match0)"]
296 -> 202[label = "light_match-inv( match0)"]
296 -> 306[label = "light_match-start( match2)"]
172 -> 489[label = "light_match-inv( match3)"]
172 -> 186[label = "light_match-inv( match1)"]
172 -> 275[label = "light_match-inv( match2)"]
172 -> 202[label = "light_match-inv( match0)"]
429 -> 210[label = "light_match-inv( match1)"]
431 -> 456[label = "light_match-inv( match2)"]
304 -> 194[label = "light_match-inv( match0)"]
304 -> 172[label = "light_match-start( match1)"]
49 -> 94[label = "light_match-inv( match3)"]
49 -> 1[label = "light_match-start( match0)"]
49 -> 12[label = "mend_fuse-end( fuse2 match1)"]
49 -> 39[label = "light_match-start( match3)"]
50 -> 13[label = "mend_fuse-end( fuse1 match0)"]
50 -> 8[label = "light_match-inv( match1)"]
50 -> 6[label = "light_match-inv( match2)"]
50 -> 1[label = "light_match-start( match1)"]
50 -> 1[label = "light_match-start( match2)"]
306 -> 334[label = "light_match-inv( match2)"]
434 -> 459[label = "mend_fuse-end( fuse0 match1)"]
563 -> 94[label = "light_match-inv( match2)"]
181 -> 211[label = "light_match-end( match3)"]
181 -> 296[label = "light_match-end( match1)"]
181 -> 211[label = "light_match-end( match2)"]
181 -> 345[label = "light_match-end( match0)"]
310 -> 181[label = "light_match-inv( match1)"]
58 -> 7[label = "light_match-inv( match3)"]
58 -> 8[label = "light_match-inv( match1)"]
58 -> 13[label = "mend_fuse-end( fuse3 match0)"]
58 -> 1[label = "light_match-start( match1)"]
58 -> 1[label = "light_match-start( match3)"]
186 -> 384[label = "mend_fuse-start( fuse0 match1)"]
186 -> 59[label = "light_match-inv( match2)"]
186 -> 434[label = "mend_fuse-inv( fuse0 match1)"]
186 -> 194[label = "light_match-inv( match0)"]
186 -> 216[label = "light_match-end( match3)"]
186 -> 406[label = "light_match-end( match0)"]
698 -> 71[label = "mend_fuse-end( fuse0 match3)"]
698 -> 94[label = "light_match-inv( match2)"]
698 -> 1[label = "light_match-start( match2)"]
59 -> 431[label = "mend_fuse-start( fuse3 match2)"]
59 -> 135[label = "light_match-inv( match3)"]
59 -> 16[label = "mend_fuse-start( fuse0 match2)"]
59 -> 8[label = "light_match-inv( match1)"]
59 -> 194[label = "light_match-inv( match0)"]
59 -> 1[label = "light_match-start( match1)"]
59 -> 216[label = "light_match-end( match3)"]
59 -> 216[label = "light_match-end( match1)"]
59 -> 135[label = "light_match-end( match2)"]
59 -> 122[label = "light_match-end( match0)"]
699 -> 71[label = "mend_fuse-start( fuse0 match3)"]
62 -> 12[label = "mend_fuse-end( fuse3 match1)"]
62 -> 1[label = "light_match-start( match3)"]
63 -> 91[label = "mend_fuse-end( fuse0 match0)"]
63 -> 6[label = "light_match-inv( match2)"]
63 -> 1[label = "light_match-start( match2)"]
194 -> 216[label = "light_match-inv( match3)"]
194 -> 29[label = "light_match-inv( match1)"]
194 -> 598[label = "mend_fuse-inv( fuse3 match0)"]
194 -> 296[label = "light_match-end( match1)"]
194 -> 13[label = "mend_fuse-start( fuse1 match0)"]
194 -> 304[label = "light_match-end( match2)"]
194 -> 156[label = "mend_fuse-start( fuse3 match0)"]
194 -> 12[label = "light_match-end( match0)"]
194 -> 659[label = "mend_fuse-inv( fuse1 match0)"]
194 -> 172[label = "light_match-start( match3)"]
67 -> 59[label = "light_match-inv( match2)"]
67 -> 181[label = "light_match-inv( match0)"]
67 -> 172[label = "light_match-start( match0)"]
67 -> 39[label = "light_match-start( match2)"]
71 -> 7[label = "light_match-inv( match3)"]
456 -> 431[label = "mend_fuse-start( fuse0 match2)"]
456 -> 528[label = "mend_fuse-inv( fuse0 match2)"]
456 -> 545[label = "mend_fuse-inv( fuse3 match2)"]
202 -> 13[label = "mend_fuse-start( fuse0 match0)"]
202 -> 186[label = "light_match-inv( match3)"]
202 -> 16[label = "mend_fuse-inv( fuse2 match0)"]
202 -> 13[label = "mend_fuse-start( fuse2 match0)"]
202 -> 638[label = "mend_fuse-start( fuse1 match0)"]
202 -> 216[label = "light_match-end( match0)"]
459 -> 264[label = "light_match-inv( match1)"]
587 -> 459[label = "mend_fuse-end( fuse2 match1)"]
334 -> 360[label = "mend_fuse-inv( fuse0 match2)"]
334 -> 542[label = "mend_fuse-inv( fuse3 match2)"]
334 -> 16[label = "mend_fuse-start( fuse2 match2)"]
334 -> 377[label = "light_match-end( match2)"]
210 -> 587[label = "mend_fuse-inv( fuse2 match1)"]
210 -> 13[label = "mend_fuse-inv( fuse0 match1)"]
210 -> 478[label = "mend_fuse-inv( fuse3 match1)"]
210 -> 429[label = "mend_fuse-start( fuse2 match1)"]
210 -> 157[label = "mend_fuse-start( fuse1 match1)"]
210 -> 429[label = "mend_fuse-start( fuse3 match1)"]
211 -> 8[label = "light_match-inv( match1)"]
211 -> 157[label = "light_match-start( match1)"]
340 -> 489[label = "light_match-inv( match3)"]
340 -> 122[label = "light_match-inv( match0)"]
598 -> 71[label = "mend_fuse-end( fuse3 match0)"]
216 -> 94[label = "light_match-inv( match2)"]
216 -> 172[label = "light_match-start( match2)"]
345 -> 489[label = "light_match-inv( match3)"]
345 -> 94[label = "light_match-inv( match2)"]
345 -> 39[label = "light_match-start( match1)"]
345 -> 156[label = "light_match-start( match3)"]
91 -> 9[label = "light_match-inv( match0)"]
94 -> 8[label = "light_match-inv( match1)"]
94 -> 67[label = "light_match-end( match3)"]
94 -> 1[label = "light_match-start( match1)"]
94 -> 340[label = "light_match-end( match1)"]
94 -> 71[label = "light_match-end( match2)"]
94 -> 122[label = "light_match-end( match0)"]
222 -> 8[label = "light_match-inv( match1)"]
478 -> 429[label = "mend_fuse-end( fuse3 match1)"]
485 -> 16[label = "mend_fuse-end( fuse1 match2)"]
360 -> 16[label = "mend_fuse-end( fuse0 match2)"]
489 -> 16[label = "mend_fuse-inv( fuse0 match3)"]
489 -> 12[label = "light_match-end( match3)"]
622 -> 635[label = "mend_fuse-end( fuse2 match2)"]
377 -> 157[label = "light_match-start( match1)"]
377 -> 39[label = "light_match-start( match0)"]
377 -> 172[label = "light_match-start( match3)"]
122 -> 11[label = "light_match-inv( match3)"]
122 -> 381[label = "light_match-inv( match1)"]
122 -> 59[label = "light_match-inv( match2)"]
122 -> 1[label = "light_match-start( match1)"]
122 -> 39[label = "light_match-start( match3)"]
635 -> 275[label = "light_match-inv( match2)"]
381 -> 71[label = "mend_fuse-inv( fuse2 match1)"]
381 -> 272[label = "mend_fuse-start( fuse2 match1)"]
381 -> 406[label = "light_match-end( match1)"]
638 -> 194[label = "light_match-inv( match0)"]
127 -> 6[label = "light_match-inv( match2)"]
127 -> 156[label = "mend_fuse-end( fuse1 match3)"]
127 -> 1[label = "light_match-start( match2)"]
}
