digraph fsa{
rankdir=LR
graph [bgcolor=white];
start [shape=none]
node [shape = doublecircle]; 0 1 5 9 15 32 65 90 116 22 42 199 229 259 219 249 325 68 8 393 415 189 10 1 5 10 5 46 10 5 9 15 32 65 90 133 162 185 189 10 1 5 1 5 6 10 5 6 63 1 5 6 63 167 10 5 6 7 334 358 59 167 493 508 3 6 7 9 189 7 12 32 65 1 6 12 3 8 68 8 119 146 54 75 236 129 15 32 58 79 7 413 5 362 167 358 362 167 358 552 362 167 358 18 259 3 1 6 12 15 32 15 32 58 79 7 10 5 15 32 5 15 32 5 414 362 167 358 249 277 9 54 15 32 5 8 228 10 5 8 228 9 54 639 642 644 68 8 393 415 189 10 1 6 1 6 7 12 32 65 90 133 68 8 228 68 8 68 8 393 415 189 10 1 6 1 6 5 10 5 9 34 54 1 8 7 68 8 7 371 146 54 167 146 54 167 493 508 15 32 75 277 10 1 6 12 3 8 1 8 7 63 167 210 236 259 3 3 7 15 32 52 15 32 65 90 133 68 8 271 68 8 18 1 5 1 5 6 9 189 10 3 7 3 7 5 10 5 9 34 54 146 54 272 299 325 303 329 353 377 1 5 10 5 46 10 5 10 5 63 1 5 63 167 10 5 7 10 5 7 413 3 7 413 15 32 65 1 5 9 34 54 75 34 59 22 42 62 1 6 12 32 22 42 32 229 259 277 482 22 42 32 155 277 10 1 5 9 15 32 65 90 116 155 185 189 10 3 8 1 8 6 34 54 6 58 79 8 6 58 189 1 8 6 58 189 7 90 133 59 9 129 75 59 9 129 58 189 7 9 129 303 1 5 10 5 46 10 5 9 34 54 75 236 129 303 329 353 377 3 7 18 22 42 58 79 129 155 185 189 10 3 8 18 22 42 22 42 129 58 189 219 249 277 10 3 7 15 32 58 79 7 10 5 3 7 10 5 8 15 32 5 8 249 277 9 54 501 15 32 5 8 10 5 8 3 8 1 8 6 162 189 10 1 5 9 34 59 22 42 132 22 42 22 42 199 229 259 90 116 75 236 59 54 167 146 54 167 75 277 10 1 5 9 15 32 65 90 133 162 185 189 10 3 8 18 1 5 1 5 7 10 5 7 253 10 5 7 9 129 303 329 353 34 59 172 34 59 546 6 573 584 189 10 1 5 10 5 61 10 5 10 5 46 10 5 9 34 54 75 236 129 303 329 353 377 1 6 12 15 32 65 90 133 162 79 129 255 129 309 334 358 334 358 426 334 358 3 1 6 22 42 62 3 6 12 8 1 6 12 8 7 22 42 8 7 12 8 7 63 167 362 167 358 18 259 3 1 5 10 5 63 1 5 63 167 10 5 7 9 129 303 329 353 377 329 449 146 54 272 299 325 249 325 575 415 189 10 1 5 9 34 59 12 3 8 68 8 228 1 8 228 7 146 54 167 75 277 10 1 6 22 42 62 22 42 22 42 199 229 259 219 249 277 362 167 210 362 167 210 133 249 277 482 8 5 15 32 8 5 15 32 8 5 634 362 167 54 645 65 133 5 18 259 3 1 5 9 34 59 22 42 63 1 6 15 32 3 6 15 32 8 22 42 32 8 22 42 32 8 199 229 259 277 133 63 167 54 65 133 162 1 5 9 15 32 65 90 116 3 6 8 155 189 10 1 6 3 6 8 22 42 8 172 34 59 54 210 133 162 362 167 210 236 259 3;
start->0
0 -> 3[label = "light_match-start( match1)"]
0 -> 1[label = "light_match-start( match0)"]
0 -> 3[label = "light_match-start( match3)"]
0 -> 1[label = "light_match-start( match2)"]
1 -> 8[label = "light_match-inv( match1)"]
1 -> 5[label = "light_match-inv( match2)"]
1 -> 6[label = "light_match-inv( match0)"]
129 -> 309[label = "mend_fuse-inv( fuse1 match2)"]
129 -> 15[label = "mend_fuse-start( fuse2 match3)"]
129 -> 303[label = "light_match-end( match3)"]
129 -> 255[label = "mend_fuse-start( fuse1 match2)"]
129 -> 75[label = "light_match-end( match1)"]
129 -> 155[label = "light_match-end( match2)"]
129 -> 58[label = "light_match-end( match0)"]
642 -> 644[label = "light_match-inv( match1)"]
3 -> 7[label = "light_match-inv( match3)"]
3 -> 8[label = "light_match-inv( match1)"]
3 -> 6[label = "light_match-inv( match0)"]
259 -> 277[label = "light_match-inv( match3)"]
259 -> 90[label = "light_match-start( match1)"]
259 -> 3[label = "light_match-end( match2)"]
259 -> 219[label = "light_match-end( match0)"]
132 -> 22[label = "mend_fuse-end( fuse2 match0)"]
644 -> 68[label = "mend_fuse-start( fuse1 match1)"]
5 -> 7[label = "light_match-inv( match3)"]
5 -> 10[label = "mend_fuse-start( fuse0 match2)"]
5 -> 63[label = "mend_fuse-inv( fuse1 match2)"]
5 -> 46[label = "mend_fuse-inv( fuse0 match2)"]
5 -> 8[label = "light_match-inv( match1)"]
5 -> 61[label = "mend_fuse-inv( fuse3 match2)"]
5 -> 6[label = "light_match-inv( match0)"]
5 -> 15[label = "mend_fuse-end( fuse1 match3)"]
5 -> 10[label = "light_match-end( match3)"]
5 -> 3[label = "light_match-start( match1)"]
5 -> 15[label = "mend_fuse-end( fuse3 match3)"]
5 -> 1[label = "light_match-start( match0)"]
5 -> 18[label = "light_match-end( match1)"]
5 -> 9[label = "light_match-end( match2)"]
5 -> 362[label = "mend_fuse-end( fuse2 match3)"]
5 -> 10[label = "light_match-end( match0)"]
5 -> 1[label = "light_match-start( match3)"]
5 -> 10[label = "mend_fuse-start( fuse3 match2)"]
5 -> 15[label = "mend_fuse-start( fuse2 match3)"]
5 -> 15[label = "mend_fuse-start( fuse2 match2)"]
5 -> 10[label = "mend_fuse-start( fuse1 match2)"]
5 -> 634[label = "mend_fuse-inv( fuse2 match3)"]
5 -> 414[label = "mend_fuse-inv( fuse2 match2)"]
133 -> 68[label = "mend_fuse-start( fuse0 match1)"]
133 -> 5[label = "light_match-inv( match2)"]
133 -> 68[label = "mend_fuse-start( fuse2 match1)"]
133 -> 59[label = "light_match-inv( match0)"]
133 -> 162[label = "light_match-end( match1)"]
133 -> 63[label = "light_match-end( match0)"]
133 -> 249[label = "light_match-start( match2)"]
645 -> 65[label = "light_match-end( match3)"]
6 -> 7[label = "light_match-inv( match3)"]
6 -> 58[label = "mend_fuse-inv( fuse2 match0)"]
6 -> 8[label = "light_match-inv( match1)"]
6 -> 12[label = "mend_fuse-inv( fuse3 match0)"]
6 -> 5[label = "light_match-inv( match2)"]
6 -> 573[label = "mend_fuse-inv( fuse0 match0)"]
6 -> 3[label = "light_match-start( match1)"]
6 -> 34[label = "mend_fuse-start( fuse2 match0)"]
6 -> 162[label = "light_match-end( match1)"]
6 -> 9[label = "light_match-end( match2)"]
6 -> 22[label = "mend_fuse-start( fuse3 match0)"]
6 -> 12[label = "light_match-end( match0)"]
6 -> 1[label = "light_match-start( match3)"]
6 -> 1[label = "light_match-start( match2)"]
6 -> 10[label = "mend_fuse-start( fuse2 match2)"]
6 -> 63[label = "mend_fuse-inv( fuse2 match2)"]
6 -> 15[label = "mend_fuse-inv( fuse1 match0)"]
7 -> 10[label = "mend_fuse-inv( fuse1 match3)"]
7 -> 371[label = "mend_fuse-inv( fuse2 match1)"]
7 -> 253[label = "mend_fuse-inv( fuse1 match2)"]
7 -> 15[label = "mend_fuse-start( fuse0 match3)"]
7 -> 146[label = "mend_fuse-end( fuse0 match1)"]
7 -> 5[label = "light_match-inv( match2)"]
7 -> 22[label = "mend_fuse-end( fuse3 match0)"]
7 -> 18[label = "light_match-end( match3)"]
7 -> 63[label = "light_match-end( match1)"]
7 -> 9[label = "light_match-end( match2)"]
7 -> 12[label = "light_match-end( match0)"]
7 -> 3[label = "light_match-start( match2)"]
7 -> 90[label = "mend_fuse-end( fuse2 match0)"]
7 -> 334[label = "mend_fuse-start( fuse3 match3)"]
7 -> 10[label = "mend_fuse-start( fuse2 match3)"]
7 -> 68[label = "mend_fuse-start( fuse2 match1)"]
7 -> 15[label = "mend_fuse-start( fuse1 match3)"]
7 -> 10[label = "mend_fuse-start( fuse1 match2)"]
7 -> 10[label = "mend_fuse-inv( fuse3 match3)"]
7 -> 413[label = "mend_fuse-inv( fuse2 match3)"]
8 -> 22[label = "mend_fuse-start( fuse0 match0)"]
8 -> 7[label = "light_match-inv( match3)"]
8 -> 68[label = "mend_fuse-start( fuse0 match1)"]
8 -> 271[label = "mend_fuse-inv( fuse2 match1)"]
8 -> 393[label = "mend_fuse-inv( fuse1 match1)"]
8 -> 22[label = "mend_fuse-end( fuse1 match0)"]
8 -> 172[label = "mend_fuse-inv( fuse2 match0)"]
8 -> 5[label = "light_match-inv( match2)"]
8 -> 199[label = "mend_fuse-inv( fuse0 match0)"]
8 -> 6[label = "light_match-inv( match0)"]
8 -> 119[label = "mend_fuse-inv( fuse3 match1)"]
8 -> 228[label = "mend_fuse-inv( fuse0 match1)"]
8 -> 15[label = "mend_fuse-end( fuse1 match3)"]
8 -> 22[label = "mend_fuse-start( fuse2 match0)"]
8 -> 10[label = "light_match-end( match3)"]
8 -> 1[label = "light_match-start( match0)"]
8 -> 18[label = "light_match-end( match1)"]
8 -> 3[label = "light_match-end( match2)"]
8 -> 68[label = "mend_fuse-start( fuse3 match1)"]
8 -> 155[label = "light_match-end( match0)"]
8 -> 1[label = "light_match-start( match3)"]
8 -> 249[label = "mend_fuse-start( fuse2 match1)"]
8 -> 68[label = "mend_fuse-start( fuse1 match1)"]
9 -> 129[label = "light_match-inv( match3)"]
9 -> 54[label = "light_match-inv( match1)"]
9 -> 189[label = "light_match-inv( match0)"]
9 -> 34[label = "light_match-start( match1)"]
9 -> 34[label = "light_match-start( match0)"]
9 -> 15[label = "light_match-start( match3)"]
393 -> 415[label = "mend_fuse-end( fuse1 match1)"]
10 -> 5[label = "light_match-inv( match2)"]
12 -> 32[label = "light_match-inv( match3)"]
12 -> 8[label = "light_match-inv( match1)"]
12 -> 3[label = "light_match-start( match1)"]
12 -> 15[label = "light_match-start( match3)"]
15 -> 32[label = "light_match-inv( match3)"]
271 -> 68[label = "mend_fuse-end( fuse2 match1)"]
272 -> 299[label = "mend_fuse-end( fuse3 match1)"]
18 -> 259[label = "light_match-inv( match2)"]
18 -> 22[label = "light_match-start( match0)"]
18 -> 1[label = "light_match-start( match2)"]
146 -> 54[label = "light_match-inv( match1)"]
277 -> 482[label = "mend_fuse-inv( fuse1 match3)"]
277 -> 133[label = "light_match-inv( match1)"]
277 -> 9[label = "light_match-inv( match2)"]
277 -> 10[label = "light_match-end( match3)"]
277 -> 362[label = "mend_fuse-start( fuse1 match3)"]
22 -> 42[label = "light_match-inv( match0)"]
155 -> 277[label = "light_match-inv( match3)"]
155 -> 189[label = "light_match-inv( match1)"]
155 -> 185[label = "light_match-start( match1)"]
413 -> 5[label = "light_match-inv( match2)"]
413 -> 3[label = "light_match-end( match2)"]
413 -> 15[label = "mend_fuse-end( fuse2 match3)"]
414 -> 362[label = "mend_fuse-end( fuse2 match2)"]
415 -> 189[label = "light_match-inv( match1)"]
32 -> 58[label = "mend_fuse-inv( fuse1 match3)"]
32 -> 8[label = "light_match-inv( match1)"]
32 -> 52[label = "mend_fuse-inv( fuse0 match3)"]
32 -> 5[label = "light_match-inv( match2)"]
32 -> 22[label = "mend_fuse-end( fuse3 match0)"]
32 -> 65[label = "light_match-end( match3)"]
32 -> 3[label = "light_match-start( match1)"]
32 -> 75[label = "light_match-end( match1)"]
32 -> 155[label = "light_match-end( match0)"]
32 -> 15[label = "mend_fuse-start( fuse3 match3)"]
32 -> 229[label = "mend_fuse-start( fuse1 match3)"]
32 -> 58[label = "mend_fuse-inv( fuse3 match3)"]
32 -> 58[label = "mend_fuse-inv( fuse2 match3)"]
34 -> 54[label = "light_match-inv( match1)"]
34 -> 59[label = "light_match-inv( match0)"]
162 -> 189[label = "light_match-inv( match0)"]
162 -> 185[label = "light_match-start( match0)"]
162 -> 362[label = "light_match-start( match3)"]
162 -> 79[label = "light_match-start( match2)"]
546 -> 6[label = "light_match-inv( match0)"]
167 -> 10[label = "mend_fuse-end( fuse1 match2)"]
167 -> 210[label = "mend_fuse-inv( fuse1 match3)"]
167 -> 146[label = "mend_fuse-start( fuse3 match3)"]
167 -> 54[label = "light_match-inv( match1)"]
167 -> 358[label = "light_match-inv( match2)"]
167 -> 210[label = "light_match-end( match3)"]
167 -> 493[label = "mend_fuse-inv( fuse3 match3)"]
167 -> 75[label = "light_match-end( match1)"]
167 -> 10[label = "mend_fuse-end( fuse2 match2)"]
167 -> 146[label = "light_match-end( match0)"]
167 -> 362[label = "light_match-start( match2)"]
552 -> 362[label = "mend_fuse-end( fuse0 match2)"]
42 -> 22[label = "mend_fuse-start( fuse0 match0)"]
42 -> 32[label = "light_match-inv( match3)"]
42 -> 132[label = "mend_fuse-inv( fuse2 match0)"]
42 -> 62[label = "mend_fuse-inv( fuse3 match0)"]
42 -> 8[label = "light_match-inv( match1)"]
42 -> 129[label = "light_match-inv( match2)"]
42 -> 199[label = "mend_fuse-inv( fuse0 match0)"]
42 -> 58[label = "light_match-end( match0)"]
42 -> 63[label = "mend_fuse-inv( fuse1 match0)"]
42 -> 22[label = "light_match-start( match2)"]
426 -> 334[label = "mend_fuse-end( fuse3 match2)"]
299 -> 325[label = "light_match-inv( match1)"]
172 -> 34[label = "mend_fuse-end( fuse2 match0)"]
46 -> 10[label = "mend_fuse-end( fuse0 match2)"]
303 -> 329[label = "light_match-start( match0)"]
52 -> 15[label = "mend_fuse-end( fuse0 match3)"]
309 -> 334[label = "mend_fuse-end( fuse1 match2)"]
54 -> 167[label = "light_match-inv( match3)"]
54 -> 501[label = "mend_fuse-inv( fuse2 match1)"]
54 -> 15[label = "mend_fuse-start( fuse0 match1)"]
54 -> 645[label = "light_match-inv( match2)"]
54 -> 6[label = "light_match-inv( match0)"]
54 -> 272[label = "mend_fuse-inv( fuse3 match1)"]
54 -> 639[label = "mend_fuse-inv( fuse0 match1)"]
54 -> 65[label = "light_match-end( match3)"]
54 -> 75[label = "light_match-end( match1)"]
54 -> 146[label = "mend_fuse-start( fuse3 match1)"]
54 -> 210[label = "light_match-end( match0)"]
54 -> 1[label = "light_match-start( match3)"]
185 -> 189[label = "light_match-inv( match1)"]
185 -> 189[label = "light_match-inv( match0)"]
58 -> 189[label = "light_match-inv( match2)"]
58 -> 79[label = "light_match-start( match2)"]
59 -> 546[label = "mend_fuse-start( fuse0 match0)"]
59 -> 167[label = "light_match-inv( match3)"]
59 -> 172[label = "mend_fuse-inv( fuse2 match0)"]
59 -> 54[label = "light_match-inv( match1)"]
59 -> 9[label = "light_match-inv( match2)"]
59 -> 22[label = "mend_fuse-start( fuse2 match0)"]
59 -> 22[label = "mend_fuse-start( fuse1 match0)"]
59 -> 22[label = "mend_fuse-start( fuse3 match0)"]
59 -> 12[label = "light_match-end( match0)"]
61 -> 10[label = "mend_fuse-end( fuse3 match2)"]
189 -> 7[label = "light_match-inv( match3)"]
189 -> 10[label = "light_match-end( match1)"]
189 -> 219[label = "light_match-end( match2)"]
189 -> 10[label = "light_match-end( match0)"]
189 -> 1[label = "light_match-start( match3)"]
573 -> 584[label = "mend_fuse-end( fuse0 match0)"]
62 -> 22[label = "mend_fuse-end( fuse3 match0)"]
62 -> 3[label = "light_match-start( match1)"]
62 -> 1[label = "light_match-start( match3)"]
63 -> 167[label = "light_match-inv( match3)"]
63 -> 1[label = "light_match-start( match3)"]
575 -> 415[label = "mend_fuse-end( fuse2 match1)"]
65 -> 133[label = "light_match-inv( match1)"]
65 -> 90[label = "light_match-start( match1)"]
65 -> 90[label = "light_match-start( match0)"]
449 -> 146[label = "mend_fuse-start( fuse3 match1)"]
68 -> 8[label = "light_match-inv( match1)"]
325 -> 575[label = "mend_fuse-inv( fuse2 match1)"]
325 -> 249[label = "mend_fuse-start( fuse2 match1)"]
325 -> 303[label = "light_match-end( match1)"]
325 -> 68[label = "mend_fuse-start( fuse1 match1)"]
199 -> 229[label = "mend_fuse-end( fuse0 match0)"]
584 -> 189[label = "light_match-inv( match0)"]
329 -> 449[label = "light_match-inv( match1)"]
329 -> 353[label = "light_match-inv( match0)"]
75 -> 277[label = "light_match-inv( match3)"]
75 -> 59[label = "light_match-inv( match0)"]
75 -> 34[label = "light_match-start( match0)"]
75 -> 236[label = "light_match-start( match3)"]
334 -> 358[label = "light_match-inv( match2)"]
79 -> 7[label = "light_match-inv( match3)"]
79 -> 8[label = "light_match-inv( match1)"]
79 -> 129[label = "light_match-inv( match2)"]
210 -> 133[label = "light_match-inv( match1)"]
210 -> 362[label = "light_match-start( match1)"]
210 -> 236[label = "light_match-start( match2)"]
90 -> 133[label = "light_match-inv( match1)"]
90 -> 116[label = "light_match-inv( match0)"]
219 -> 249[label = "light_match-start( match1)"]
219 -> 249[label = "light_match-start( match3)"]
353 -> 34[label = "mend_fuse-start( fuse2 match0)"]
353 -> 377[label = "light_match-end( match0)"]
482 -> 8[label = "light_match-inv( match1)"]
482 -> 22[label = "mend_fuse-end( fuse1 match3)"]
228 -> 7[label = "light_match-inv( match3)"]
228 -> 68[label = "mend_fuse-end( fuse0 match1)"]
228 -> 10[label = "light_match-end( match3)"]
228 -> 9[label = "light_match-end( match2)"]
228 -> 1[label = "light_match-start( match3)"]
229 -> 259[label = "light_match-inv( match0)"]
358 -> 334[label = "mend_fuse-start( fuse3 match2)"]
358 -> 362[label = "mend_fuse-start( fuse0 match2)"]
358 -> 552[label = "mend_fuse-inv( fuse0 match2)"]
358 -> 426[label = "mend_fuse-inv( fuse3 match2)"]
358 -> 59[label = "light_match-inv( match0)"]
358 -> 249[label = "light_match-start( match1)"]
358 -> 18[label = "light_match-end( match3)"]
358 -> 3[label = "light_match-end( match2)"]
362 -> 167[label = "light_match-inv( match3)"]
236 -> 129[label = "light_match-inv( match3)"]
236 -> 259[label = "light_match-inv( match2)"]
236 -> 59[label = "light_match-inv( match0)"]
493 -> 508[label = "mend_fuse-end( fuse3 match3)"]
371 -> 146[label = "mend_fuse-end( fuse2 match1)"]
116 -> 22[label = "mend_fuse-start( fuse0 match0)"]
116 -> 75[label = "light_match-inv( match1)"]
116 -> 3[label = "light_match-start( match1)"]
116 -> 155[label = "light_match-end( match0)"]
501 -> 15[label = "mend_fuse-end( fuse2 match1)"]
119 -> 146[label = "mend_fuse-end( fuse3 match1)"]
249 -> 277[label = "light_match-inv( match3)"]
249 -> 325[label = "light_match-inv( match1)"]
377 -> 329[label = "light_match-start( match1)"]
634 -> 362[label = "mend_fuse-end( fuse2 match3)"]
508 -> 15[label = "light_match-inv( match1)"]
508 -> 3[label = "light_match-inv( match2)"]
253 -> 10[label = "mend_fuse-end( fuse1 match2)"]
255 -> 129[label = "light_match-inv( match2)"]
639 -> 642[label = "mend_fuse-end( fuse0 match1)"]
}
