digraph fsa{
rankdir=LR
graph [bgcolor=white];
start [shape=none]
node [shape = doublecircle]; 0 1 5 9 12 27 60 85 121 150 1 7 14 7 214 326 354 326 354 436 326 354 12 1 6 1 6 7 32 52 74 85 52 209 103 269 14 1 7 11 1 8 66 8 123 1 8 123 6 66 8 121 13 383 410 12 104 491 104 543 567 269 14 1 8 12 27 47 12 27 1 8 121 12 27 6 56 12 27 6 56 104 66 8 121 104 66 8 121 104 135 1 8 121 104 135 7 13 383 751 57 191 391 418 104 354 165 6 5 7 58 11 104 354 449 57 191 794 326 354 12 1 8 13 17 34 56 12 104 57 85 191 12 1 7 14 7 49 14 7 14 7 58 14 7 11 1 5 1 5 8 12 104 8 47 1 5 8 47 6 12 104 8 121 12 104 8 121 746 12 104 8 121 681 17 34 209 566 12 1 5 9 17 34 56 1 7 14 7 214 1 7 214 8 326 354 27 14 7 8 147 14 7 8 11 269 14 1 5 15 5 51 15 5 9 32 52 14 7 11 1 7 11 269 1 7 11 269 6 14 7 8 121 74 17 34 209 566 12 1 8 13 17 34 56 1 7 14 7 11 1 7 11 104 326 354 104 74 269 14 1 5 9 12 27 12 27 47 1 8 47 6 1 8 47 6 7 12 27 6 7 13 383 7 32 52 74 1 8 13 17 34 17 34 57 85 121 14 7 1 6 32 52 5 17 34 11 104 56 11 104 74 269 14 1 5 9 32 52 74 103 132 17 34 219 17 34 165 6 363 391 418 445 472 269 14 1 6 1 6 5 11 104 57 85 191 14 7 214 1 7 214 8 326 354 27 14 7 8 49 14 7 8 11 269 14 1 6 17 34 54 17 34 56 12 104 57 85 191 1 7 8 14 7 8 474 476 503 52 14 7 8 643 14 7 8 11 269 14 1 6 11 1 5 12 104 135 1 5 32 8 1 5 32 8 7 15 5 8 7 15 5 8 7 623 644 294 27 52 445 476 503 326 354 12 1 5 9 17 34 17 34 136 165 6 11 1 8 13 85 191 326 354 449 476 503 32 52 554 578 191 12 1 8 12 27 56 1 8 14 7 1 8 14 7 5 12 27 52 5 32 8 7 5 554 578 269 11 104 410 503 269 11 104 57 1 6 17 34 57 1 6 32 8 1 6 32 8 7 1 6 32 8 7 5 17 34 8 7 5 11 269 11 104 410 503 269 11 104 57 1 7 14 7 58 1 7 58 5 1 7 58 5 6 1 7 58 5 6 8 14 7 5 6 8 326 354 104 12 27 554 578 191 391 418 52 74 269 6 8 9 6 8 57 383 584 1 7 14 7 49 1 7 49 6 1 7 49 6 5 1 7 49 6 5 8 32 52 132 294 27 17 34 294 27 11 104 8 9 27 60 1 5 9 12 27 12 27 56 1 8 14 7 1 8 14 7 6 12 27 52 132 13 17 34 74 566 12 1 8 13 1 5 15 5 142 15 5 15 5 51 1 5 51 7 1 5 51 7 6 15 5 7 6 15 5 7 6 516 9 7 6 516 542 17 34 74 566 12 1 5 15 5 60 85 5 60 6 1 5 60 6 8 15 5 6 8 9 6 8 57 383 584 85 191 12 1 7 11 1 5 12 104 135 15 5 9 12 27 1 8 121 103 52 132 484 12 27 6 13 383 410 1 7 11 1 5 15 5 142 1 5 142 6 1 5 142 6 8 15 5 6 8 12 104 12 27 633 15 5 6 8 9 6 8 57 383 584 1 5 1 5 8 12 104 8 47 12 104 8 15 5 8 51 15 5 8 1 5 8 7 150 326 354 410 503 681 472 566 12 1 7 11 1 8 32 8 147 1 8 147 5 32 8 5 1 8 5 6 13 5 6 472 566 12 1 6 11 1 8 66 8 123 1 8 123 7 294 27 52 209 52 74 12 104 491 104 543 567 269 14 1 6 1 6 5 11 104 57 85 191 1 7 8 11 269 14 1 7 11 1 5 1 5 8 9 27 60 85 121 165 6 381 391 418 165 6 516 542 566 12;
start->0
0 -> 1[label = "light_match-start( match1)"]
0 -> 1[label = "light_match-start( match0)"]
0 -> 1[label = "light_match-start( match3)"]
0 -> 1[label = "light_match-start( match2)"]
1 -> 7[label = "light_match-inv( match3)"]
1 -> 8[label = "light_match-inv( match1)"]
1 -> 5[label = "light_match-inv( match2)"]
1 -> 6[label = "light_match-inv( match0)"]
643 -> 14[label = "mend_fuse-end( fuse1 match3)"]
132 -> 17[label = "mend_fuse-start( fuse0 match0)"]
132 -> 484[label = "mend_fuse-inv( fuse3 match0)"]
132 -> 294[label = "light_match-inv( match2)"]
132 -> 13[label = "light_match-end( match1)"]
516 -> 542[label = "mend_fuse-end( fuse0 match0)"]
516 -> 9[label = "light_match-end( match2)"]
644 -> 294[label = "light_match-inv( match2)"]
5 -> 7[label = "light_match-inv( match3)"]
5 -> 15[label = "mend_fuse-start( fuse0 match2)"]
5 -> 142[label = "mend_fuse-inv( fuse1 match2)"]
5 -> 60[label = "mend_fuse-inv( fuse0 match2)"]
5 -> 8[label = "light_match-inv( match1)"]
5 -> 12[label = "mend_fuse-end( fuse0 match1)"]
5 -> 17[label = "mend_fuse-end( fuse3 match0)"]
5 -> 51[label = "mend_fuse-inv( fuse3 match2)"]
5 -> 6[label = "light_match-inv( match0)"]
5 -> 1[label = "light_match-start( match1)"]
5 -> 1[label = "light_match-start( match0)"]
5 -> 32[label = "mend_fuse-end( fuse3 match1)"]
5 -> 9[label = "light_match-end( match2)"]
5 -> 11[label = "light_match-end( match0)"]
5 -> 15[label = "mend_fuse-start( fuse3 match2)"]
5 -> 32[label = "mend_fuse-start( fuse2 match3)"]
5 -> 12[label = "mend_fuse-start( fuse2 match2)"]
5 -> 15[label = "mend_fuse-start( fuse1 match2)"]
5 -> 554[label = "mend_fuse-inv( fuse2 match3)"]
5 -> 32[label = "mend_fuse-inv( fuse2 match2)"]
6 -> 15[label = "mend_fuse-start( fuse0 match0)"]
6 -> 12[label = "mend_fuse-end( fuse1 match1)"]
6 -> 7[label = "light_match-inv( match3)"]
6 -> 363[label = "mend_fuse-inv( fuse2 match0)"]
6 -> 32[label = "mend_fuse-inv( fuse3 match0)"]
6 -> 8[label = "light_match-inv( match1)"]
6 -> 12[label = "mend_fuse-end( fuse0 match1)"]
6 -> 5[label = "light_match-inv( match2)"]
6 -> 516[label = "mend_fuse-inv( fuse0 match0)"]
6 -> 56[label = "mend_fuse-inv( fuse0 match1)"]
6 -> 14[label = "mend_fuse-end( fuse1 match3)"]
6 -> 17[label = "mend_fuse-start( fuse2 match0)"]
6 -> 1[label = "light_match-start( match1)"]
6 -> 13[label = "light_match-end( match1)"]
6 -> 15[label = "mend_fuse-end( fuse3 match2)"]
6 -> 472[label = "light_match-end( match2)"]
6 -> 17[label = "mend_fuse-start( fuse3 match0)"]
6 -> 11[label = "light_match-end( match0)"]
6 -> 1[label = "light_match-start( match3)"]
6 -> 66[label = "mend_fuse-end( fuse2 match1)"]
6 -> 1[label = "light_match-start( match2)"]
6 -> 381[label = "mend_fuse-inv( fuse1 match0)"]
7 -> 11[label = "mend_fuse-inv( fuse1 match3)"]
7 -> 12[label = "mend_fuse-end( fuse1 match1)"]
7 -> 14[label = "mend_fuse-start( fuse0 match3)"]
7 -> 8[label = "light_match-inv( match1)"]
7 -> 214[label = "mend_fuse-inv( fuse0 match3)"]
7 -> 5[label = "light_match-inv( match2)"]
7 -> 623[label = "mend_fuse-inv( fuse3 match2)"]
7 -> 6[label = "light_match-inv( match0)"]
7 -> 11[label = "light_match-end( match3)"]
7 -> 1[label = "light_match-start( match0)"]
7 -> 13[label = "light_match-end( match1)"]
7 -> 150[label = "light_match-end( match2)"]
7 -> 32[label = "light_match-end( match0)"]
7 -> 15[label = "mend_fuse-end( fuse2 match2)"]
7 -> 294[label = "mend_fuse-end( fuse2 match1)"]
7 -> 1[label = "light_match-start( match2)"]
7 -> 15[label = "mend_fuse-start( fuse3 match2)"]
7 -> 14[label = "mend_fuse-start( fuse3 match3)"]
7 -> 14[label = "mend_fuse-start( fuse2 match3)"]
7 -> 14[label = "mend_fuse-start( fuse1 match3)"]
7 -> 58[label = "mend_fuse-inv( fuse3 match3)"]
7 -> 49[label = "mend_fuse-inv( fuse2 match3)"]
135 -> 7[label = "light_match-inv( match3)"]
135 -> 1[label = "light_match-start( match1)"]
135 -> 15[label = "mend_fuse-end( fuse2 match2)"]
135 -> 1[label = "light_match-start( match3)"]
391 -> 418[label = "light_match-inv( match0)"]
8 -> 326[label = "mend_fuse-end( fuse0 match3)"]
8 -> 5[label = "light_match-inv( match2)"]
8 -> 51[label = "mend_fuse-inv( fuse3 match2)"]
8 -> 121[label = "light_match-inv( match0)"]
8 -> 14[label = "mend_fuse-end( fuse3 match3)"]
8 -> 9[label = "light_match-end( match2)"]
8 -> 32[label = "mend_fuse-end( fuse2 match3)"]
8 -> 12[label = "mend_fuse-start( fuse3 match0)"]
8 -> 57[label = "light_match-end( match0)"]
8 -> 1[label = "light_match-start( match3)"]
8 -> 15[label = "mend_fuse-start( fuse3 match2)"]
8 -> 49[label = "mend_fuse-inv( fuse2 match3)"]
8 -> 15[label = "mend_fuse-end( fuse1 match2)"]
8 -> 643[label = "mend_fuse-inv( fuse1 match3)"]
8 -> 12[label = "mend_fuse-start( fuse0 match1)"]
8 -> 123[label = "mend_fuse-inv( fuse2 match1)"]
8 -> 47[label = "mend_fuse-inv( fuse1 match1)"]
8 -> 7[label = "light_match-inv( match3)"]
8 -> 15[label = "mend_fuse-end( fuse0 match2)"]
8 -> 14[label = "mend_fuse-start( fuse0 match3)"]
8 -> 474[label = "mend_fuse-inv( fuse0 match3)"]
8 -> 14[label = "mend_fuse-inv( fuse0 match1)"]
8 -> 147[label = "mend_fuse-inv( fuse3 match1)"]
8 -> 11[label = "light_match-end( match3)"]
8 -> 13[label = "light_match-end( match1)"]
8 -> 32[label = "mend_fuse-start( fuse3 match1)"]
8 -> 326[label = "mend_fuse-start( fuse2 match3)"]
8 -> 66[label = "mend_fuse-start( fuse2 match1)"]
8 -> 12[label = "mend_fuse-start( fuse1 match1)"]
136 -> 165[label = "mend_fuse-end( fuse1 match0)"]
9 -> 7[label = "light_match-inv( match3)"]
9 -> 27[label = "light_match-inv( match1)"]
9 -> 6[label = "light_match-inv( match0)"]
9 -> 12[label = "light_match-start( match1)"]
9 -> 17[label = "light_match-start( match0)"]
9 -> 32[label = "light_match-start( match3)"]
11 -> 269[label = "light_match-inv( match1)"]
11 -> 104[label = "light_match-inv( match2)"]
11 -> 1[label = "light_match-start( match1)"]
11 -> 1[label = "light_match-start( match2)"]
12 -> 27[label = "light_match-inv( match1)"]
12 -> 104[label = "light_match-inv( match2)"]
13 -> 17[label = "light_match-inv( match3)"]
13 -> 5[label = "light_match-inv( match2)"]
13 -> 383[label = "light_match-inv( match0)"]
13 -> 17[label = "light_match-start( match0)"]
13 -> 85[label = "light_match-start( match3)"]
13 -> 1[label = "light_match-start( match2)"]
269 -> 11[label = "light_match-inv( match3)"]
269 -> 6[label = "light_match-inv( match0)"]
269 -> 11[label = "light_match-end( match3)"]
269 -> 1[label = "light_match-start( match0)"]
269 -> 14[label = "light_match-end( match1)"]
269 -> 14[label = "light_match-end( match2)"]
14 -> 7[label = "light_match-inv( match3)"]
142 -> 15[label = "mend_fuse-end( fuse1 match2)"]
142 -> 6[label = "light_match-inv( match0)"]
142 -> 1[label = "light_match-start( match0)"]
15 -> 5[label = "light_match-inv( match2)"]
17 -> 34[label = "light_match-inv( match0)"]
147 -> 5[label = "light_match-inv( match2)"]
147 -> 14[label = "mend_fuse-end( fuse3 match1)"]
147 -> 1[label = "light_match-start( match2)"]
150 -> 326[label = "light_match-inv( match1)"]
150 -> 1[label = "light_match-start( match3)"]
410 -> 503[label = "light_match-inv( match3)"]
410 -> 12[label = "light_match-start( match2)"]
794 -> 326[label = "mend_fuse-end( fuse3 match3)"]
27 -> 47[label = "mend_fuse-inv( fuse1 match1)"]
27 -> 12[label = "mend_fuse-start( fuse0 match1)"]
27 -> 52[label = "light_match-inv( match3)"]
27 -> 633[label = "mend_fuse-inv( fuse3 match0)"]
27 -> 56[label = "mend_fuse-inv( fuse0 match1)"]
27 -> 6[label = "light_match-inv( match0)"]
27 -> 17[label = "light_match-end( match3)"]
27 -> 1[label = "light_match-start( match0)"]
27 -> 60[label = "light_match-end( match1)"]
27 -> 14[label = "mend_fuse-start( fuse3 match1)"]
27 -> 11[label = "light_match-end( match0)"]
27 -> 14[label = "mend_fuse-start( fuse2 match3)"]
27 -> 12[label = "mend_fuse-start( fuse1 match1)"]
27 -> 554[label = "mend_fuse-inv( fuse2 match3)"]
542 -> 17[label = "light_match-inv( match3)"]
542 -> 566[label = "light_match-inv( match0)"]
543 -> 567[label = "mend_fuse-end( fuse1 match2)"]
32 -> 52[label = "light_match-inv( match3)"]
32 -> 8[label = "light_match-inv( match1)"]
34 -> 11[label = "light_match-inv( match3)"]
34 -> 54[label = "mend_fuse-inv( fuse2 match0)"]
34 -> 57[label = "mend_fuse-inv( fuse3 match0)"]
34 -> 8[label = "light_match-inv( match1)"]
34 -> 294[label = "light_match-inv( match2)"]
34 -> 219[label = "mend_fuse-inv( fuse0 match0)"]
34 -> 165[label = "mend_fuse-start( fuse2 match0)"]
34 -> 74[label = "light_match-end( match3)"]
34 -> 209[label = "light_match-end( match1)"]
34 -> 17[label = "mend_fuse-start( fuse3 match0)"]
34 -> 56[label = "light_match-end( match0)"]
34 -> 17[label = "mend_fuse-start( fuse1 match0)"]
34 -> 136[label = "mend_fuse-inv( fuse1 match0)"]
418 -> 165[label = "mend_fuse-start( fuse0 match0)"]
418 -> 52[label = "light_match-inv( match1)"]
418 -> 104[label = "light_match-inv( match2)"]
418 -> 445[label = "light_match-end( match0)"]
165 -> 6[label = "light_match-inv( match0)"]
294 -> 27[label = "light_match-inv( match1)"]
681 -> 17[label = "light_match-inv( match1)"]
681 -> 472[label = "light_match-start( match0)"]
554 -> 578[label = "mend_fuse-end( fuse2 match3)"]
47 -> 12[label = "mend_fuse-end( fuse1 match1)"]
47 -> 6[label = "light_match-inv( match0)"]
47 -> 1[label = "light_match-start( match0)"]
49 -> 6[label = "light_match-inv( match0)"]
49 -> 1[label = "light_match-start( match0)"]
49 -> 14[label = "mend_fuse-end( fuse2 match3)"]
51 -> 7[label = "light_match-inv( match3)"]
51 -> 15[label = "mend_fuse-end( fuse3 match2)"]
51 -> 1[label = "light_match-start( match3)"]
52 -> 5[label = "light_match-inv( match2)"]
52 -> 132[label = "light_match-inv( match0)"]
52 -> 74[label = "light_match-end( match3)"]
52 -> 14[label = "mend_fuse-start( fuse1 match3)"]
52 -> 209[label = "light_match-end( match1)"]
52 -> 445[label = "light_match-end( match2)"]
52 -> 554[label = "mend_fuse-inv( fuse2 match3)"]
436 -> 326[label = "mend_fuse-end( fuse1 match3)"]
54 -> 17[label = "mend_fuse-end( fuse2 match0)"]
566 -> 12[label = "light_match-end( match0)"]
567 -> 269[label = "light_match-inv( match2)"]
56 -> 11[label = "light_match-inv( match3)"]
56 -> 104[label = "light_match-inv( match2)"]
56 -> 1[label = "light_match-start( match3)"]
56 -> 12[label = "light_match-start( match2)"]
57 -> 191[label = "light_match-inv( match3)"]
57 -> 383[label = "light_match-inv( match1)"]
57 -> 1[label = "light_match-start( match1)"]
57 -> 85[label = "light_match-start( match3)"]
58 -> 5[label = "light_match-inv( match2)"]
58 -> 14[label = "mend_fuse-end( fuse3 match3)"]
58 -> 11[label = "light_match-end( match0)"]
58 -> 1[label = "light_match-start( match2)"]
60 -> 6[label = "light_match-inv( match0)"]
60 -> 85[label = "light_match-start( match0)"]
445 -> 476[label = "light_match-inv( match1)"]
445 -> 472[label = "light_match-start( match1)"]
191 -> 326[label = "mend_fuse-start( fuse3 match3)"]
191 -> 14[label = "mend_fuse-start( fuse0 match3)"]
191 -> 391[label = "light_match-inv( match2)"]
191 -> 1[label = "light_match-start( match1)"]
191 -> 12[label = "light_match-end( match3)"]
191 -> 794[label = "mend_fuse-inv( fuse3 match3)"]
191 -> 391[label = "mend_fuse-end( fuse2 match2)"]
449 -> 476[label = "mend_fuse-end( fuse3 match3)"]
449 -> 57[label = "light_match-end( match2)"]
66 -> 8[label = "light_match-inv( match1)"]
578 -> 191[label = "light_match-inv( match3)"]
578 -> 269[label = "light_match-inv( match1)"]
326 -> 354[label = "light_match-inv( match3)"]
584 -> 85[label = "light_match-start( match3)"]
74 -> 17[label = "light_match-inv( match1)"]
74 -> 269[label = "light_match-inv( match2)"]
74 -> 566[label = "light_match-inv( match0)"]
74 -> 85[label = "light_match-start( match1)"]
74 -> 103[label = "light_match-start( match0)"]
74 -> 12[label = "light_match-start( match2)"]
209 -> 52[label = "light_match-inv( match3)"]
209 -> 566[label = "light_match-inv( match0)"]
209 -> 103[label = "light_match-start( match2)"]
85 -> 191[label = "light_match-inv( match3)"]
85 -> 52[label = "light_match-inv( match1)"]
85 -> 5[label = "light_match-inv( match2)"]
85 -> 121[label = "light_match-inv( match0)"]
214 -> 326[label = "mend_fuse-end( fuse0 match3)"]
214 -> 8[label = "light_match-inv( match1)"]
214 -> 1[label = "light_match-start( match1)"]
472 -> 269[label = "light_match-inv( match1)"]
472 -> 566[label = "light_match-inv( match0)"]
474 -> 476[label = "mend_fuse-end( fuse0 match3)"]
219 -> 17[label = "mend_fuse-end( fuse0 match0)"]
476 -> 503[label = "light_match-inv( match3)"]
354 -> 436[label = "mend_fuse-inv( fuse1 match3)"]
354 -> 165[label = "mend_fuse-start( fuse3 match3)"]
354 -> 27[label = "light_match-inv( match1)"]
354 -> 104[label = "light_match-inv( match2)"]
354 -> 326[label = "mend_fuse-start( fuse1 match3)"]
354 -> 12[label = "light_match-end( match3)"]
354 -> 449[label = "mend_fuse-inv( fuse3 match3)"]
354 -> 410[label = "light_match-end( match1)"]
484 -> 12[label = "mend_fuse-end( fuse3 match0)"]
103 -> 52[label = "light_match-inv( match1)"]
103 -> 269[label = "light_match-inv( match2)"]
103 -> 132[label = "light_match-inv( match0)"]
104 -> 354[label = "light_match-inv( match3)"]
104 -> 543[label = "mend_fuse-inv( fuse1 match2)"]
104 -> 8[label = "light_match-inv( match1)"]
104 -> 66[label = "mend_fuse-end( fuse0 match1)"]
104 -> 326[label = "mend_fuse-end( fuse1 match3)"]
104 -> 12[label = "light_match-inv( match0)"]
104 -> 74[label = "light_match-end( match3)"]
104 -> 410[label = "light_match-end( match1)"]
104 -> 57[label = "light_match-end( match2)"]
104 -> 56[label = "light_match-end( match0)"]
104 -> 66[label = "mend_fuse-start( fuse2 match2)"]
104 -> 491[label = "mend_fuse-start( fuse1 match2)"]
104 -> 135[label = "mend_fuse-inv( fuse2 match2)"]
746 -> 12[label = "mend_fuse-end( fuse0 match1)"]
363 -> 391[label = "mend_fuse-end( fuse2 match0)"]
491 -> 104[label = "light_match-inv( match2)"]
623 -> 644[label = "mend_fuse-end( fuse3 match2)"]
751 -> 57[label = "mend_fuse-inv( fuse2 match2)"]
503 -> 52[label = "light_match-inv( match1)"]
503 -> 32[label = "mend_fuse-start( fuse2 match3)"]
503 -> 269[label = "light_match-inv( match2)"]
503 -> 681[label = "light_match-end( match3)"]
503 -> 326[label = "light_match-end( match1)"]
121 -> 12[label = "mend_fuse-start( fuse0 match1)"]
121 -> 14[label = "mend_fuse-inv( fuse3 match0)"]
121 -> 104[label = "light_match-inv( match2)"]
121 -> 746[label = "mend_fuse-inv( fuse0 match1)"]
121 -> 74[label = "light_match-end( match3)"]
121 -> 13[label = "light_match-end( match1)"]
121 -> 165[label = "mend_fuse-start( fuse1 match0)"]
121 -> 681[label = "light_match-end( match2)"]
121 -> 103[label = "mend_fuse-start( fuse3 match0)"]
121 -> 150[label = "light_match-end( match0)"]
633 -> 15[label = "mend_fuse-end( fuse3 match0)"]
123 -> 7[label = "light_match-inv( match3)"]
123 -> 6[label = "light_match-inv( match0)"]
123 -> 1[label = "light_match-start( match0)"]
123 -> 1[label = "light_match-start( match3)"]
381 -> 391[label = "mend_fuse-end( fuse1 match0)"]
383 -> 7[label = "light_match-inv( match3)"]
383 -> 751[label = "light_match-inv( match2)"]
383 -> 584[label = "light_match-end( match1)"]
383 -> 410[label = "light_match-end( match0)"]
}
