digraph fsa{
rankdir=LR
graph [bgcolor=white];
start [shape=none]
node [shape = doublecircle]; 0 1 3 5 3 9 13 20 52 4 5 3 4 1 3 4 21 1 3 4 9 23 5 1 4 6 13 20 8 1 4 1 4 21 1 4 8 4 22 1 4 22 3 8 4 3 1 4 3 24 6 20 58 71 84 8 1 4 8 4 22 8 4 6 13 20 8 1 3 5 3 9 13 20 52 4 5 3 4 1 3 4 21 1 3 4 9 23 5 1 4 1 4 21 1 4 21 3 1 4 3 6 20 8 1 4 1 4 21 1 4 6 13 20 8 1 4 6 13 20 5 3 57 37 20 13 20 58 71 84 8 1 3 5 3 9 13 20 52 4 5 3 4 9 23 5 1 4 6 13 20 13 20 58 71 84 37 20 52 37 20 8 1 4 6 13 20 8 1 3 9 13 23 13 23 59 13 23 35 23 60 35 23 5 1 3 9 13 23 5 1 3 9 13 23 35 23 60 35 23 13 23 59 13 23 5 1 3 9 13 23 5 1 3 9 13 23 5 1 3 9 13 23 5 1 3 1 3 24 1 3 9 13 23 5 1 3 9 13 23 35 23 60 35 23 13 23 59 13 23 5 1 4 6 13 20 8 1 4 1 4 21 1 4 21 3 1 4 3 1 4 3 24 1 4 3 6 20 8 1 4 6 13 20 37 20 52 37 20 8 1 3 1 3 24 1 3 24 4 1 3 4 1 3 4 21 1 3 4 9 23 5 1 4 8 4 6 13 23 60 3 8 4 3 6 20 8 1 4 6 13 20 37 20 52 37 20 13 20 58 71 84 8 1 4 6 13 20 13 20 58 71 84 8 1 3 9 13 23 35 23 60 35 23 13 23 59 13 23 5 1 3 1 3 24 1 3 9 13 23 5 1 3 9 13 23 13 23 59 13 23 5 1 4 6 13 20 8;
start->0
0 -> 1[label = "light_match-start( match1)"]
0 -> 1[label = "light_match-start( match0)"]
1 -> 3[label = "light_match-inv( match1)"]
1 -> 4[label = "light_match-inv( match0)"]
3 -> 1[label = "mend_fuse-start( fuse0 match1)"]
3 -> 9[label = "mend_fuse-inv( fuse1 match1)"]
3 -> 57[label = "mend_fuse-inv( fuse2 match1)"]
3 -> 8[label = "mend_fuse-end( fuse1 match0)"]
3 -> 8[label = "mend_fuse-end( fuse0 match0)"]
3 -> 24[label = "mend_fuse-inv( fuse0 match1)"]
3 -> 4[label = "light_match-inv( match0)"]
3 -> 5[label = "mend_fuse-start( fuse1 match1)"]
3 -> 9[label = "light_match-end( match1)"]
3 -> 6[label = "light_match-end( match0)"]
3 -> 1[label = "mend_fuse-end( fuse2 match0)"]
35 -> 23[label = "light_match-inv( match0)"]
4 -> 8[label = "mend_fuse-start( fuse0 match0)"]
4 -> 5[label = "mend_fuse-end( fuse1 match1)"]
4 -> 21[label = "mend_fuse-inv( fuse2 match0)"]
4 -> 1[label = "mend_fuse-end( fuse0 match1)"]
4 -> 3[label = "light_match-inv( match1)"]
4 -> 6[label = "mend_fuse-inv( fuse0 match0)"]
4 -> 1[label = "mend_fuse-start( fuse2 match0)"]
4 -> 9[label = "light_match-end( match1)"]
4 -> 8[label = "mend_fuse-start( fuse1 match0)"]
4 -> 6[label = "light_match-end( match0)"]
4 -> 22[label = "mend_fuse-inv( fuse1 match0)"]
5 -> 3[label = "light_match-inv( match1)"]
37 -> 20[label = "light_match-inv( match1)"]
6 -> 20[label = "light_match-inv( match1)"]
6 -> 13[label = "light_match-start( match1)"]
71 -> 84[label = "light_match-inv( match1)"]
8 -> 4[label = "light_match-inv( match0)"]
9 -> 23[label = "light_match-inv( match0)"]
9 -> 13[label = "light_match-start( match0)"]
13 -> 20[label = "light_match-inv( match1)"]
13 -> 23[label = "light_match-inv( match0)"]
20 -> 13[label = "mend_fuse-start( fuse0 match1)"]
20 -> 52[label = "mend_fuse-inv( fuse1 match1)"]
20 -> 5[label = "mend_fuse-start( fuse2 match1)"]
20 -> 58[label = "mend_fuse-inv( fuse0 match1)"]
20 -> 8[label = "light_match-end( match1)"]
20 -> 37[label = "mend_fuse-start( fuse1 match1)"]
52 -> 37[label = "mend_fuse-end( fuse1 match1)"]
52 -> 4[label = "light_match-inv( match0)"]
84 -> 37[label = "mend_fuse-start( fuse1 match1)"]
84 -> 8[label = "light_match-end( match1)"]
21 -> 3[label = "light_match-inv( match1)"]
21 -> 1[label = "light_match-start( match1)"]
21 -> 1[label = "mend_fuse-end( fuse2 match0)"]
22 -> 8[label = "mend_fuse-end( fuse1 match0)"]
22 -> 3[label = "light_match-inv( match1)"]
22 -> 1[label = "light_match-start( match1)"]
23 -> 35[label = "mend_fuse-start( fuse0 match0)"]
23 -> 59[label = "mend_fuse-inv( fuse2 match0)"]
23 -> 60[label = "mend_fuse-inv( fuse0 match0)"]
23 -> 13[label = "mend_fuse-start( fuse2 match0)"]
23 -> 5[label = "light_match-end( match0)"]
24 -> 1[label = "mend_fuse-end( fuse0 match1)"]
24 -> 4[label = "light_match-inv( match0)"]
24 -> 1[label = "light_match-start( match0)"]
24 -> 6[label = "light_match-end( match0)"]
57 -> 37[label = "mend_fuse-end( fuse2 match1)"]
58 -> 71[label = "mend_fuse-end( fuse0 match1)"]
59 -> 13[label = "mend_fuse-end( fuse2 match0)"]
60 -> 3[label = "light_match-inv( match1)"]
60 -> 35[label = "mend_fuse-end( fuse0 match0)"]
}
