digraph fsa{
rankdir=LR
graph [bgcolor=white];
start [shape=none]
node [shape = doublecircle]; 0 1 2 3 5 7 10 13 5 7 10 1 2 3 5 7 10 14 20 26 10 14 20 26 10 13 5 7 10 14 20 1 2 3 5 8 11 15 21 27 11 15 21 27 11 1 2 4 0 1 2 4 0 1 2 4 0 1 2 4 0 1 2 3 5 7 10 13 5 7 10 14 20 1 2 4 0 1 2 3 5 7 10 14 20 26 10 14 20 26 10 14 20 26 10 1 2 3 5 7 10 13 5 7 10 14 20 26 10 14 20 26 10 14 20 26 10 1 2 3 5 7 10 13 5 8 11 18 24 72 84 95 24 1 2 3 5 8 11 15 21 27 11 18 24 72 84 1 2 3 5 8 11 15 21 27 11 15 21 27 11 15 21 27 11 15 21 27 11 18 24 1 2 3 5 7 10 14 20 26 10 14 20 26 10 13 5 7 10 13 5 1 2 4 0 1 2 4 0 1 2 4 0 1 2 4 0 1 2 3 5 8 11 15 21 27 11 1 2 3 5 7 10 14 20 26 10 13 5 7 10 1 2 4 0 1 2 3 5 8 11 18 24 72 84 97 109 120 84 97 109 120 84 97 109 120 84 95 24 32 11 1 2 4 0 1 2 3 5 8 11 18 24 72 84 95 24 32 11 15 21 27 11 15 21 1 2 3 5 8 11 15 21 27 11 18 24 72 84 95 24 32 11 15 21 1 2 3 5 7 10 14 20 26 10 1 2 4 0 1 2 3 5 8 11 18 24 72 84 97 109 120 84 95 24 72 84 95 24 32 11 1 2 3 5 7 10 14 20 26 10 14 20 26 10 13 5 7 10 13 5 1 2 4 0 1 2 4 0 1 2 1 2 4 0 1 2 3 5 7 10 13 5 1 2 4 0 1 2 4 0 1 2 3 5 8 11 1 2 3 5 7 10 13 5 7 10 13 5 8 11 1 2 3 5 8 11 15 21 27 11 15 21 27 11 15 21 1 2 3 5 8 11 18 24 32 11 18 24 72 84 97 109 120 84 95 24 32 11 18 24 72 84 1 2 4 0 1 2 3 5 7 10 14 20 26 10 1 2 3 5 7 10 14 20 26 10 13 5 7 10 1 2 4 0 1 2 4 0 1 2 3 5 8 11 18 24 32 11 15 21 27 11 18 24 1 2 3 5 8 11 15 21 27 11 15 21 27 11 18 24 72 84 97 109 120 84 97 109 120 84 1 2 3 5 8 11 15 21 27 11 18 24;
start->0
0 -> 1[label = "move-start( player f0-0f f1-0f down)"]
1 -> 2[label = "move-end( player f0-0f f1-0f down)"]
2 -> 4[label = "move-start( player f1-0f f0-0f up)"]
2 -> 3[label = "push-start( player box0 f1-0f f1-1f f1-2f right)"]
3 -> 5[label = "push-end( player box0 f1-0f f1-1f f1-2f right)"]
4 -> 0[label = "move-end( player f1-0f f0-0f up)"]
5 -> 7[label = "move-start( player f1-1f f1-0f left)"]
5 -> 8[label = "push-start( player box0 f1-1f f1-2f f1-3f right)"]
7 -> 10[label = "move-end( player f1-1f f1-0f left)"]
8 -> 11[label = "push-end( player box0 f1-1f f1-2f f1-3f right)"]
72 -> 84[label = "move-end( player f1-1f f1-0f left)"]
10 -> 14[label = "move-start( player f1-0f f0-0f up)"]
10 -> 13[label = "move-start( player f1-0f f1-1f right)"]
11 -> 18[label = "move-start( player f1-2f f1-1f left)"]
11 -> 15[label = "move-start( player f1-2f f0-2f up)"]
13 -> 5[label = "move-end( player f1-0f f1-1f right)"]
14 -> 20[label = "move-end( player f1-0f f0-0f up)"]
15 -> 21[label = "move-end( player f1-2f f0-2f up)"]
18 -> 24[label = "move-end( player f1-2f f1-1f left)"]
20 -> 26[label = "move-start( player f0-0f f1-0f down)"]
84 -> 97[label = "move-start( player f1-0f f0-0f up)"]
84 -> 95[label = "move-start( player f1-0f f1-1f right)"]
21 -> 27[label = "move-start( player f0-2f f1-2f down)"]
24 -> 32[label = "move-start( player f1-1f f1-2f right)"]
24 -> 72[label = "move-start( player f1-1f f1-0f left)"]
26 -> 10[label = "move-end( player f0-0f f1-0f down)"]
27 -> 11[label = "move-end( player f0-2f f1-2f down)"]
95 -> 24[label = "move-end( player f1-0f f1-1f right)"]
32 -> 11[label = "move-end( player f1-1f f1-2f right)"]
97 -> 109[label = "move-end( player f1-0f f0-0f up)"]
109 -> 120[label = "move-start( player f0-0f f1-0f down)"]
120 -> 84[label = "move-end( player f0-0f f1-0f down)"]
}
