digraph fsa{
rankdir=LR
graph [bgcolor=white];
start [shape=none]
node [shape = doublecircle]; 0 1 3 5 8 12 0 1 3 5 8 12 0 1 3 5 8 12 0 1 3 5 8 12 0 1 3 5 2 4 2 4 13 17 21 26 31 38 48 59 73 88 104 121 68 121 83 190 83 26 31 38 48 59 73 88 324 167 183 199 214 229 104 121 190 1 3 5 8 12 0 2 4 2 4 13 17 21 26 35 42 1 3 38 5 119 136 1 3 5 8 12 0 2 4 0 1 3 5 8 12 0 1 3 5 1 3 5 8 12 0 2 4 2 4 13 17 21 26 31 38 48 59 73 59 73 83 88 167 183 1 3 5 8 12 0 1 3 5 8 12 0 1 3 5 2 4 0 2 4 0 2 4 0 2 4 0 1 3 5 8 12 0 2 4 2 4 13 17 21 26 35 42 52 2 4 2 4 13 17 21 26 35 42 52 63 77 8 12 38 31 38 48 59 73 59 73 83 88 167 183 199 214 229 104 121 190 59 73 59 73 83 88 167 183 287 302 317 35 42 52 63 77 0 1 3 5 8 12 0 2 4 0 2 4 0 2 4 2 4 13 17 21 26 31 38 48 68 83 26 35 42 52 2 4 0 1 3 5 8 12 0 1 3 5 8 12 0 1 3 5 8 12 0 1 3 5 8 12 0 1 3 5 2 4 0 1 3 5 8 12 0 1 3 5 8 12 0 1 3 5 8 12 0 2 4 2 4 13 17 21 26 35 42 52 171 119 136 154 172 52 63 77 8 12 38 31 38 48 2 4 0 1 3 5 8 12 0 2 4 0 1 3 5 8 12 0 1 3 5 8 12 0 2 4 0 1 3 5 8 12 0 2 4 0 1 3 5 2 4 0 1 3 5 8 12 0 1 3 5 8 12 0 1 3 5 8 12 0 1 3 5 8 12 0 2 4 0 1 3 5 8 12 0 2 4 0 1 3 5 1 3 5 8 12 0 2 4 2 4 13 17 21 26 31 38 48 59 73 59 73 83 88 167 183 287 302 317 35 42 52 63 77 8 12 38 31 38 48 68 83 26 1 3 5 8 12 0 2 4 2 4 13 17 21 26 35 42 1 3 38 5 119 136 154 172 52 171 119 136 217 231 278 293 308 154 1 3 5 8 12 0 1 3 5 8 12 0 2 4 0 1 3 5 2 4 0 1 3 5 8 12 0 2 4 2 4 13 17 21 26 35 42 52 2 4 2 4 13 17 21 26 31 38 48 59 73 59 73 83 88 167 183 199 214 229 104 121 190 59 73 59 73 83 88 167 183 199 214 229 104 121 190 2 4 2 4 13 17 21 26 31 38 48 68 83 26 35 42 1 3 38 5 119 136 217 231 68 154 172 278 307 322 337 350 362 375 388 68 154 172 455 307 322 479 485 491 496 500 503 31 38 48 1 3 5 8 12 0 1 3 5 8 12 0 2 4 0 1 3 5 8 12 0 2 4 0 1 3 5 8 12 0 2 4 0 1 3 5 8 12 0 1 3 5 8 12 0 1 3 5 8 12 0 1 3 5 8 12 0 2 4 0 2 4 0 2 4 0 1 3 5 8 12 0 1 3 5 2 4 2 4 13 17 21 26 31 38 48 68 83 26 35 42 1 3 38 5 119 136 154 172 52 1 3 5 8 12 0 2 4 0 2 4 2 4 13 17 21 26 31 38 48 1 3 5 8 12 0 2 4 2 4 13 17 21 26 31 38 48 1 3 5 8 12 0 2 4 2 4 13 17 21 26 35 42 52 171 119 136 217 231 68 154 172 278 307 322 337 350 362 375 388 88 324 167 183 199 214 229 68 83 26 1 3 5 8 12 0 2 4 2 4 13 17 21 26 35 42 52 171 119 136 2 4 2 4 13 17 21 26 31 38 48 59 73 59 73 83 88 167 183 2 4 0 1 3 5 8 12 0 1 3 5 8 12 0 1 3 5 8 12 0 1 3 5 8 12 0 2 4 0 2 4 2 4 13 17 21 26 35 42 52 63 77 0 2 4 2 4 13 17 21 26 35 42 1 3 38 5 119 136 154 172 52 171 119 136 217 231 278 293 308 68 154 172 154 172 52 171 119 136 217 231 278 59 73 59 73 83 88 167 183 287 302 317;
start->0
0 -> 2[label = "turn-doorknob-start( robot1 room1 room2 door1 grip)"]
0 -> 1[label = "pick-start( robot1 ball1 room1 grip)"]
1 -> 3[label = "pick-inv( robot1 ball1 room1 grip)"]
2 -> 4[label = "turn-doorknob-inv( robot1 room1 room2 door1 grip)"]
3 -> 5[label = "pick-end( robot1 ball1 room1 grip)"]
3 -> 38[label = "move-inv( robot1 room1 room2 door1)"]
4 -> 0[label = "turn-doorknob-end( robot1 room1 room2 door1 grip)"]
4 -> 2[label = "open-door-start( robot1 room1 room2 door1 grip)"]
4 -> 13[label = "open-door-inv( robot1 room1 room2 door1 grip)"]
388 -> 88[label = "pick-end( robot1 ball2 room2 grip)"]
388 -> 68[label = "move-start( robot1 room2 room1 door1)"]
5 -> 8[label = "drop-start( robot1 ball1 room1 grip)"]
5 -> 119[label = "move-inv( robot1 room1 room2 door1)"]
8 -> 12[label = "drop-inv( robot1 ball1 room1 grip)"]
136 -> 217[label = "drop-start( robot1 ball1 room2 grip)"]
136 -> 154[label = "move-start( robot1 room2 room1 door1)"]
12 -> 0[label = "drop-end( robot1 ball1 room1 grip)"]
12 -> 38[label = "move-inv( robot1 room1 room2 door1)"]
13 -> 17[label = "open-door-end( robot1 room1 room2 door1 grip)"]
17 -> 21[label = "turn-doorknob-inv( robot1 room1 room2 door1 grip)"]
21 -> 26[label = "turn-doorknob-end( robot1 room1 room2 door1 grip)"]
278 -> 59[label = "pick-start( robot1 ball2 room2 grip)"]
278 -> 293[label = "pick-start( robot1 ball1 room2 grip)"]
278 -> 307[label = "move-inv( robot1 room2 room1 door1)"]
26 -> 31[label = "move-start( robot1 room1 room2 door1)"]
26 -> 35[label = "pick-start( robot1 ball1 room1 grip)"]
154 -> 172[label = "move-inv( robot1 room2 room1 door1)"]
31 -> 38[label = "move-inv( robot1 room1 room2 door1)"]
287 -> 302[label = "drop-inv( robot1 ball2 room1 grip)"]
35 -> 42[label = "pick-inv( robot1 ball1 room1 grip)"]
293 -> 308[label = "pick-inv( robot1 ball1 room2 grip)"]
38 -> 31[label = "drop-end( robot1 ball1 room1 grip)"]
38 -> 5[label = "pick-end( robot1 ball1 room1 grip)"]
38 -> 48[label = "move-end( robot1 room1 room2 door1)"]
167 -> 183[label = "move-end( robot1 room2 room1 door1)"]
42 -> 1[label = "move-start( robot1 room1 room2 door1)"]
42 -> 52[label = "pick-end( robot1 ball1 room1 grip)"]
171 -> 119[label = "move-inv( robot1 room1 room2 door1)"]
172 -> 455[label = "pick-end( robot1 ball2 room2 grip)"]
172 -> 154[label = "pick-end( robot1 ball1 room2 grip)"]
172 -> 52[label = "move-end( robot1 room2 room1 door1)"]
172 -> 278[label = "drop-end( robot1 ball1 room2 grip)"]
302 -> 317[label = "drop-end( robot1 ball2 room1 grip)"]
48 -> 59[label = "pick-start( robot1 ball2 room2 grip)"]
48 -> 68[label = "move-start( robot1 room2 room1 door1)"]
307 -> 322[label = "move-end( robot1 room2 room1 door1)"]
52 -> 63[label = "drop-start( robot1 ball1 room1 grip)"]
52 -> 171[label = "move-start( robot1 room1 room2 door1)"]
308 -> 154[label = "pick-end( robot1 ball1 room2 grip)"]
308 -> 68[label = "move-start( robot1 room2 room1 door1)"]
183 -> 287[label = "drop-start( robot1 ball2 room1 grip)"]
183 -> 199[label = "move-start( robot1 room1 room2 door1)"]
59 -> 73[label = "pick-inv( robot1 ball2 room2 grip)"]
317 -> 35[label = "pick-start( robot1 ball1 room1 grip)"]
190 -> 59[label = "pick-start( robot1 ball2 room2 grip)"]
190 -> 83[label = "move-inv( robot1 room2 room1 door1)"]
63 -> 77[label = "drop-inv( robot1 ball1 room1 grip)"]
322 -> 479[label = "drop-start( robot1 ball2 room1 grip)"]
322 -> 337[label = "move-start( robot1 room1 room2 door1)"]
68 -> 154[label = "pick-inv( robot1 ball2 room2 grip)"]
68 -> 154[label = "drop-inv( robot1 ball1 room2 grip)"]
68 -> 154[label = "pick-inv( robot1 ball1 room2 grip)"]
68 -> 121[label = "drop-inv( robot1 ball2 room2 grip)"]
68 -> 83[label = "move-inv( robot1 room2 room1 door1)"]
324 -> 167[label = "move-inv( robot1 room2 room1 door1)"]
199 -> 214[label = "move-inv( robot1 room1 room2 door1)"]
455 -> 307[label = "move-inv( robot1 room2 room1 door1)"]
73 -> 88[label = "pick-end( robot1 ball2 room2 grip)"]
73 -> 59[label = "move-start( robot1 room2 room1 door1)"]
73 -> 83[label = "move-inv( robot1 room2 room1 door1)"]
77 -> 8[label = "move-start( robot1 room1 room2 door1)"]
77 -> 0[label = "drop-end( robot1 ball1 room1 grip)"]
337 -> 350[label = "move-inv( robot1 room1 room2 door1)"]
83 -> 88[label = "pick-end( robot1 ball2 room2 grip)"]
83 -> 26[label = "move-end( robot1 room2 room1 door1)"]
83 -> 190[label = "drop-end( robot1 ball2 room2 grip)"]
214 -> 229[label = "move-end( robot1 room1 room2 door1)"]
88 -> 104[label = "drop-start( robot1 ball2 room2 grip)"]
88 -> 324[label = "move-start( robot1 room2 room1 door1)"]
88 -> 167[label = "move-inv( robot1 room2 room1 door1)"]
217 -> 231[label = "drop-inv( robot1 ball1 room2 grip)"]
350 -> 362[label = "move-end( robot1 room1 room2 door1)"]
479 -> 485[label = "drop-inv( robot1 ball2 room1 grip)"]
229 -> 104[label = "drop-start( robot1 ball2 room2 grip)"]
229 -> 68[label = "move-start( robot1 room2 room1 door1)"]
485 -> 491[label = "drop-end( robot1 ball2 room1 grip)"]
231 -> 68[label = "move-start( robot1 room2 room1 door1)"]
231 -> 278[label = "drop-end( robot1 ball1 room2 grip)"]
104 -> 121[label = "drop-inv( robot1 ball2 room2 grip)"]
362 -> 375[label = "pick-start( robot1 ball2 room2 grip)"]
491 -> 496[label = "pick-start( robot1 ball2 room1 grip)"]
496 -> 500[label = "pick-inv( robot1 ball2 room1 grip)"]
500 -> 503[label = "pick-end( robot1 ball2 room1 grip)"]
119 -> 136[label = "move-end( robot1 room1 room2 door1)"]
375 -> 388[label = "pick-inv( robot1 ball2 room2 grip)"]
503 -> 31[label = "move-start( robot1 room1 room2 door1)"]
121 -> 190[label = "drop-end( robot1 ball2 room2 grip)"]
121 -> 68[label = "move-start( robot1 room2 room1 door1)"]
121 -> 83[label = "move-inv( robot1 room2 room1 door1)"]
}
