digraph fsa{
rankdir=LR
graph [bgcolor=white];
start [shape=none]
node [shape = doublecircle]; 0 1 3 0 2 4 7 10 14 0 2 4 7 10 14 0 2 4 7 1 3 1 3 13 17 22 29 36 45 55 66 78 29 37 46 62 159 178 29 37 46 62 74 87 95 109 126 145 10 14 0 1 3 1 3 13 17 22 29 36 45 55 66 78 29 36 45 55 66 78 29 37 46 2 4 45 7 106 123 142 161 66 109 126 183 263 285 307 328 349 1 3 1 3 13 17 22 29 37 46 2 4 45 7 106 123 142 161 66 109 126 183 263 285 307 328 349 368 263 285 307 328 349 2 4 7 10 14 0 1 3 0 1 3 1 3 13 17 22 29 36 45 55 70 82 95 119 137 109 1 3 1 3 13 17 22 29 36 45 55 66 78 29 37 46 62 74 87 95 109 126 145 165 106 123 142 161 183 1 3 1 3 13 17 22 29 37 46 2 4 45 7 106 123 142 161 183 204 225 218 266 288 310 331 351 370 389 407 425 1 3 0 1 3 0 2 4 7 10 14 0 1 3 1 3 13 17 22 29 37 46 62 74 87 95 1 3 1 3 13 17 22 29 36 45 55 70 82 95 109 126 145 165 106 123 227 218 266 109 126 218 78 29 37 46 62 74 87 95 109 126 145 165 106 123 142 161 66 109 126 183 263 285 1 3 0 2 4 7 10 14 0 2 4 7 10 14 0 1 3 0 2 4 7 1 3 0 2 4 7 10 14 0 2 4 7 10 14 0 2 4 7 10 14 0 2 4 7 10 14 0 1 3 0 1 3 1 3 13 17 22 29 1 3 0 2 4 7 10 14 0 2 4 7 10 14 0 2 4 7 10 14 0 2 4 7 10 14 0 2 4 7 10 14 0 2 4 7 10 14 0 1 3 0 1 3 1 3 13 17 22 29 36 45 55 70 82 66 82 78 278 288 310 331 351 370 2 4 7 10 14 0 2 4 7 10 14 0 1 3 0 2 4 7 10 14 0 1 3 1 3 13 17 22 29 36 45 55 70 82 66 82 78 278 288 310 331 351 370 2 4 7 10 14 0 1 3 1 3 13 17 22 29 37 46 62 1 3 0 1 3 1 3 13 17 22 29 37 46 2 4 45 7 106 123 142 161 183 272 294 316 142 161 183 272 294 66 109 126 316 417 435 452 468 482 109 126 145 165 106 123 142 161 183 66 78 29 1 3 1 3 13 17 22 29 37 46 62 74 87 95 109 126 145 10 14 0 2 4 7 10 14 0 1 3 0 2 4 7 10 14 0 1 3 0 1 3 0 1 3 0 1 3 1 3 13 17 22 29 37 46 2 4 45 7 106 123 142 161 66 109 126 183 263 285 307 328 349 272 294 66 109 126 316 417 435 497 511 285 547 559 36 46 87 62 607 616 625 633 638 159 178 29 37 46 62 2 4 7 10 14 0 1 3 1 3 13 17 22 29 37 46 62 159 178 29 2 4 7 10 14 0 2 4 7 10 14 0 1 3 0 2 4 7 10 14 0 2 4 7 10 14 0 1 3 0 2 4 7 10 14 0 1 3 0 2 4 7 10 14 0 2 4 7 10 14 0 1 3 1 3 13 17 22 29 37 46 62 74 87 95 109 126 145 165 106 123 142 161 66 109 126 183 263 285 307 328 349 368 263 285 307 328 349 1 3 1 3 13 17 22 29 37 46 2 4 45 7 106 123 142 161 183 204 225 66 82 78 278 288 310 2 4 7 10 14 0 1 3 1 3 13 17 22 29 37 46 62 1 3 0 2 4 7 10 14 0 2 4 7 10 14 0 1 3 0 2 4 7 10 14 0 1 3 0 2 4 7 10 14 0 1 3 0 1 3 1 3 13 17 22 29 36 45 55 2 4 7 10 14 0 1 3 1 3 13 17 22 29 36 45 55 70 82 66 82 78 278 288 310 165 106 123 399 417 435 452 468 482 496 510 218 266 288 310 165 106 123 399 417 435 1 3 0 1 3 0 1 3 0 1 3 0 1 3 0 1 3 1 3 13 17 22 29 37 46 2 4 45 7 106 123 399 417 435 497 511 285 307 328 349 573 583 278 496 510 218 266 288 310 1 3 1 3 13 17 22 29 36 45 55 70 82 95 119 137 66 109 126 218 78 29 36 45 55 70 82 66 82 78 278 288 310 331 351 36 74 87 370 564 574 399 417 435 389 407 425 2 4 7 10 14 0 2 4 7 10 14 0 1 3 0 1 3 0 2 4 7 10 14 0 1 3 1 3 13 17 22 29 1 3 0 2 4 7 10 14 0 2 4 7 10 14 0 2 4 7 10 14 0 1 3 0 1 3 0 2 4 7 10 14 0 2 4 7 10 14 0;
start->0
0 -> 1[label = "turn-doorknob-start( robot1 room1 room2 door1 grip)"]
0 -> 2[label = "pick-start( robot1 ball1 room1 grip)"]
1 -> 3[label = "turn-doorknob-inv( robot1 room1 room2 door1 grip)"]
2 -> 4[label = "pick-inv( robot1 ball1 room1 grip)"]
3 -> 0[label = "turn-doorknob-end( robot1 room1 room2 door1 grip)"]
3 -> 1[label = "open-door-start( robot1 room1 room2 door1 grip)"]
3 -> 13[label = "open-door-inv( robot1 room1 room2 door1 grip)"]
4 -> 7[label = "pick-end( robot1 ball1 room1 grip)"]
4 -> 45[label = "move-inv( robot1 room1 room2 door1)"]
389 -> 407[label = "pick-inv( robot1 ball2 room1 grip)"]
7 -> 10[label = "drop-start( robot1 ball1 room1 grip)"]
7 -> 106[label = "move-inv( robot1 room1 room2 door1)"]
263 -> 285[label = "move-end( robot1 room2 room1 door1)"]
137 -> 109[label = "drop-end( robot1 ball2 room2 grip)"]
137 -> 66[label = "move-start( robot1 room2 room1 door1)"]
10 -> 14[label = "drop-inv( robot1 ball1 room1 grip)"]
266 -> 109[label = "drop-inv( robot1 ball2 room2 grip)"]
266 -> 288[label = "move-inv( robot1 room2 room1 door1)"]
13 -> 17[label = "open-door-end( robot1 room1 room2 door1 grip)"]
14 -> 0[label = "drop-end( robot1 ball1 room1 grip)"]
142 -> 161[label = "drop-inv( robot1 ball1 room2 grip)"]
399 -> 417[label = "move-inv( robot1 room2 room1 door1)"]
272 -> 294[label = "pick-inv( robot1 ball1 room2 grip)"]
17 -> 22[label = "turn-doorknob-inv( robot1 room1 room2 door1 grip)"]
145 -> 165[label = "move-start( robot1 room1 room2 door1)"]
145 -> 10[label = "drop-start( robot1 ball1 room1 grip)"]
22 -> 29[label = "turn-doorknob-end( robot1 room1 room2 door1 grip)"]
278 -> 496[label = "drop-start( robot1 ball2 room2 grip)"]
278 -> 288[label = "move-inv( robot1 room2 room1 door1)"]
407 -> 425[label = "pick-end( robot1 ball2 room1 grip)"]
29 -> 36[label = "move-start( robot1 room1 room2 door1)"]
29 -> 37[label = "pick-start( robot1 ball1 room1 grip)"]
285 -> 307[label = "move-start( robot1 room1 room2 door1)"]
285 -> 547[label = "pick-start( robot1 ball1 room1 grip)"]
159 -> 178[label = "drop-inv( robot1 ball1 room1 grip)"]
288 -> 310[label = "move-end( robot1 room2 room1 door1)"]
161 -> 66[label = "move-start( robot1 room2 room1 door1)"]
161 -> 183[label = "drop-end( robot1 ball1 room2 grip)"]
417 -> 435[label = "move-end( robot1 room2 room1 door1)"]
547 -> 559[label = "pick-inv( robot1 ball1 room1 grip)"]
36 -> 74[label = "drop-inv( robot1 ball2 room1 grip)"]
36 -> 46[label = "pick-inv( robot1 ball1 room1 grip)"]
36 -> 45[label = "move-inv( robot1 room1 room2 door1)"]
37 -> 46[label = "pick-inv( robot1 ball1 room1 grip)"]
165 -> 106[label = "move-inv( robot1 room1 room2 door1)"]
294 -> 316[label = "pick-end( robot1 ball1 room2 grip)"]
294 -> 66[label = "move-start( robot1 room2 room1 door1)"]
45 -> 7[label = "pick-end( robot1 ball1 room1 grip)"]
45 -> 55[label = "move-end( robot1 room1 room2 door1)"]
46 -> 2[label = "move-start( robot1 room1 room2 door1)"]
46 -> 62[label = "pick-end( robot1 ball1 room1 grip)"]
46 -> 87[label = "move-inv( robot1 room1 room2 door1)"]
559 -> 36[label = "move-start( robot1 room1 room2 door1)"]
178 -> 29[label = "drop-end( robot1 ball1 room1 grip)"]
307 -> 328[label = "move-inv( robot1 room1 room2 door1)"]
435 -> 452[label = "move-start( robot1 room1 room2 door1)"]
435 -> 497[label = "drop-start( robot1 ball1 room1 grip)"]
435 -> 389[label = "pick-start( robot1 ball2 room1 grip)"]
564 -> 574[label = "move-end( robot1 room1 room2 door1)"]
310 -> 331[label = "drop-start( robot1 ball2 room1 grip)"]
310 -> 165[label = "move-start( robot1 room1 room2 door1)"]
55 -> 70[label = "pick-start( robot1 ball2 room2 grip)"]
55 -> 66[label = "move-start( robot1 room2 room1 door1)"]
183 -> 204[label = "pick-start( robot1 ball2 room2 grip)"]
183 -> 272[label = "pick-start( robot1 ball1 room2 grip)"]
183 -> 66[label = "move-start( robot1 room2 room1 door1)"]
183 -> 263[label = "move-inv( robot1 room2 room1 door1)"]
316 -> 142[label = "drop-start( robot1 ball1 room2 grip)"]
316 -> 417[label = "move-inv( robot1 room2 room1 door1)"]
573 -> 583[label = "pick-inv( robot1 ball2 room2 grip)"]
62 -> 74[label = "move-start( robot1 room1 room2 door1)"]
62 -> 159[label = "drop-start( robot1 ball1 room1 grip)"]
62 -> 607[label = "move-inv( robot1 room1 room2 door1)"]
574 -> 399[label = "move-start( robot1 room2 room1 door1)"]
66 -> 82[label = "pick-inv( robot1 ball2 room2 grip)"]
66 -> 109[label = "drop-inv( robot1 ball1 room2 grip)"]
66 -> 109[label = "pick-inv( robot1 ball1 room2 grip)"]
66 -> 109[label = "drop-inv( robot1 ball2 room2 grip)"]
66 -> 78[label = "move-inv( robot1 room2 room1 door1)"]
452 -> 468[label = "move-inv( robot1 room1 room2 door1)"]
70 -> 82[label = "pick-inv( robot1 ball2 room2 grip)"]
583 -> 278[label = "pick-end( robot1 ball2 room2 grip)"]
328 -> 349[label = "move-end( robot1 room1 room2 door1)"]
74 -> 87[label = "move-inv( robot1 room1 room2 door1)"]
331 -> 351[label = "drop-inv( robot1 ball2 room1 grip)"]
204 -> 225[label = "pick-inv( robot1 ball2 room2 grip)"]
78 -> 278[label = "pick-end( robot1 ball2 room2 grip)"]
78 -> 29[label = "move-end( robot1 room2 room1 door1)"]
82 -> 95[label = "pick-end( robot1 ball2 room2 grip)"]
82 -> 66[label = "move-start( robot1 room2 room1 door1)"]
82 -> 78[label = "move-inv( robot1 room2 room1 door1)"]
468 -> 482[label = "move-end( robot1 room1 room2 door1)"]
87 -> 370[label = "drop-end( robot1 ball2 room1 grip)"]
87 -> 62[label = "pick-end( robot1 ball1 room1 grip)"]
87 -> 95[label = "move-end( robot1 room1 room2 door1)"]
218 -> 266[label = "move-start( robot1 room2 room1 door1)"]
218 -> 78[label = "move-inv( robot1 room2 room1 door1)"]
349 -> 573[label = "pick-start( robot1 ball2 room2 grip)"]
349 -> 272[label = "pick-start( robot1 ball1 room2 grip)"]
349 -> 368[label = "move-start( robot1 room2 room1 door1)"]
95 -> 119[label = "drop-start( robot1 ball2 room2 grip)"]
95 -> 109[label = "move-start( robot1 room2 room1 door1)"]
351 -> 370[label = "drop-end( robot1 ball2 room1 grip)"]
351 -> 36[label = "move-start( robot1 room1 room2 door1)"]
607 -> 616[label = "move-end( robot1 room1 room2 door1)"]
225 -> 218[label = "pick-end( robot1 ball2 room2 grip)"]
225 -> 66[label = "move-start( robot1 room2 room1 door1)"]
482 -> 496[label = "drop-start( robot1 ball2 room2 grip)"]
482 -> 109[label = "move-start( robot1 room2 room1 door1)"]
227 -> 218[label = "drop-inv( robot1 ball2 room2 grip)"]
616 -> 625[label = "move-start( robot1 room2 room1 door1)"]
106 -> 123[label = "move-end( robot1 room1 room2 door1)"]
109 -> 126[label = "move-inv( robot1 room2 room1 door1)"]
368 -> 263[label = "move-inv( robot1 room2 room1 door1)"]
496 -> 510[label = "drop-inv( robot1 ball2 room2 grip)"]
497 -> 511[label = "drop-inv( robot1 ball1 room1 grip)"]
625 -> 633[label = "move-inv( robot1 room2 room1 door1)"]
370 -> 564[label = "move-inv( robot1 room1 room2 door1)"]
370 -> 389[label = "pick-start( robot1 ball2 room1 grip)"]
119 -> 137[label = "drop-inv( robot1 ball2 room2 grip)"]
633 -> 638[label = "move-end( robot1 room2 room1 door1)"]
123 -> 142[label = "drop-start( robot1 ball1 room2 grip)"]
123 -> 227[label = "drop-start( robot1 ball2 room2 grip)"]
123 -> 399[label = "move-start( robot1 room2 room1 door1)"]
126 -> 316[label = "pick-end( robot1 ball1 room2 grip)"]
126 -> 145[label = "move-end( robot1 room2 room1 door1)"]
126 -> 218[label = "drop-end( robot1 ball2 room2 grip)"]
126 -> 183[label = "drop-end( robot1 ball1 room2 grip)"]
510 -> 218[label = "drop-end( robot1 ball2 room2 grip)"]
638 -> 159[label = "drop-start( robot1 ball1 room1 grip)"]
511 -> 285[label = "drop-end( robot1 ball1 room1 grip)"]
}
