move( n0 n4)::move( n4 n2)::move( n2 n1)::move( n1 n3)::move( n3 n0)::move( n0 n3)::move( n3 n4)::move( n4 n2)::move( n2 n4)::move( n4 n0)::move( n0 n2)::move( n2 n0)::move( n1 n0)::move( n0 n1)::move( n1 n0)::move( n0 n4)::move( n3 n2)::move( n1 n3)::move( n4 n1)::move( n1 n4)
move( n0 n4)::move( n1 n3)::move( n4 n0)::move( n4 n1)::move( n0 n1)::move( n1 n2)::move( n2 n1)::move( n3 n4)::move( n1 n0)::move( n0 n2)::move( n2 n4)::move( n4 n0)::move( n0 n4)::move( n4 n3)::move( n2 n1)::move( n1 n3)::move( n3 n0)::move( n4 n3)::move( n0 n3)::move( n3 n2)
move( n3 n0)::move( n0 n1)::move( n1 n4)::move( n4 n0)::move( n0 n4)::move( n4 n0)::move( n0 n2)::move( n2 n1)::move( n1 n3)::move( n3 n1)::move( n1 n4)::move( n4 n1)::move( n1 n2)::move( n2 n3)
move( n0 n3)::move( n3 n1)::move( n1 n3)::move( n3 n2)::move( n2 n4)::move( n4 n3)::move( n3 n1)::move( n1 n0)::move( n0 n4)::move( n4 n3)::move( n3 n2)::move( n2 n1)::move( n1 n0)::move( n0 n3)::move( n3 n2)::move( n2 n1)::move( n1 n2)::move( n2 n4)::move( n4 n0)::move( n0 n4)::move( n3 n2)
move( n0 n1)::move( n1 n4)::move( n4 n1)::move( n1 n0)::move( n0 n4)::move( n1 n0)
move( n0 n4)::move( n4 n3)::move( n3 n0)::move( n0 n4)::move( n4 n1)::move( n1 n2)::move( n1 n4)::move( n2 n0)::move( n0 n3)::move( n3 n2)
move( n0 n1)::move( n2 n3)::move( n1 n2)::move( n2 n1)::move( n1 n4)::move( n4 n0)::move( n2 n4)::move( n0 n1)::move( n1 n0)::move( n0 n1)::move( n1 n2)::move( n2 n0)
move( n0 n3)::move( n1 n4)::move( n3 n1)::move( n1 n4)::move( n4 n0)::move( n4 n3)::move( n2 n0)::move( n0 n4)::move( n4 n1)::move( n1 n4)::move( n4 n1)::move( n1 n2)::move( n4 n1)::move( n2 n3)::move( n3 n0)::move( n0 n4)
move( n1 n2)
move( n2 n0)::move( n0 n2)::move( n3 n0)::move( n2 n4)::move( n4 n1)::move( n1 n4)
move( n0 n4)::move( n4 n2)::move( n2 n1)::move( n1 n2)::move( n2 n0)::move( n0 n2)::move( n2 n1)::move( n1 n3)::move( n3 n4)::move( n2 n0)::move( n1 n4)::move( n4 n3)::move( n3 n0)::move( n0 n2)::move( n2 n4)::move( n3 n4)
move( n4 n2)::move( n0 n1)::move( n1 n4)::move( n4 n3)::move( n3 n1)::move( n1 n0)::move( n3 n1)::move( n0 n3)::move( n2 n3)::move( n0 n1)::move( n3 n4)::move( n4 n1)
move( n3 n4)::move( n0 n2)
move( n0 n4)::move( n4 n3)::move( n3 n0)::move( n0 n2)::move( n3 n4)::move( n4 n1)::move( n2 n1)::move( n1 n4)::move( n4 n0)::move( n0 n1)::move( n1 n0)::move( n0 n2)::move( n2 n1)::move( n1 n4)::move( n3 n1)::move( n4 n2)::move( n2 n3)::move( n2 n3)::move( n3 n4)
move( n0 n2)::move( n2 n3)::move( n3 n1)::move( n1 n4)::move( n4 n0)::move( n0 n2)::move( n2 n0)::move( n0 n4)::move( n4 n0)::move( n0 n1)::move( n1 n3)::move( n3 n4)::move( n4 n2)::move( n2 n1)::move( n3 n1)
move( n0 n4)::move( n4 n1)::move( n1 n3)::move( n2 n4)::move( n3 n1)::move( n1 n4)::move( n4 n0)::move( n1 n2)::move( n0 n2)::move( n2 n1)
move( n0 n3)::move( n3 n2)::move( n2 n4)::move( n4 n1)::move( n1 n3)::move( n3 n0)::move( n0 n4)::move( n4 n1)::move( n1 n3)::move( n3 n1)::move( n2 n1)::move( n1 n0)::move( n4 n0)::move( n3 n4)::move( n0 n3)::move( n3 n4)::move( n4 n3)
move( n0 n1)::move( n1 n4)::move( n4 n2)::move( n2 n3)::move( n3 n4)::move( n4 n3)::move( n3 n2)::move( n2 n3)::move( n3 n0)::move( n0 n1)::move( n1 n4)::move( n4 n3)::move( n3 n0)::move( n1 n3)::move( n4 n3)::move( n0 n1)
move( n0 n3)::move( n3 n0)::move( n0 n1)::move( n1 n2)::move( n2 n4)::move( n4 n3)::move( n3 n0)::move( n0 n4)::move( n4 n2)::move( n2 n3)::move( n3 n4)::move( n4 n2)::move( n0 n4)
move( n0 n2)::move( n2 n0)::move( n1 n4)::move( n0 n3)::move( n3 n2)::move( n2 n4)::move( n0 n4)::move( n4 n3)::move( n3 n2)
move( n0 n3)::move( n3 n4)::move( n4 n2)::move( n2 n4)::move( n1 n4)::move( n4 n2)::move( n2 n1)::move( n1 n4)
move( n0 n4)::move( n4 n1)::move( n1 n2)::move( n2 n1)::move( n1 n0)::move( n0 n4)::move( n4 n3)::move( n4 n0)::move( n3 n0)::move( n0 n3)::move( n3 n1)::move( n1 n2)::move( n2 n4)::move( n4 n1)::move( n1 n4)::move( n4 n0)
move( n0 n4)::move( n4 n0)::move( n4 n3)
move( n1 n0)::move( n0 n3)::move( n3 n1)::move( n1 n3)::move( n3 n2)::move( n2 n1)::move( n1 n4)::move( n0 n2)::move( n4 n1)::move( n1 n2)::move( n4 n3)::move( n2 n0)::move( n0 n3)::move( n3 n2)::move( n2 n1)::move( n1 n2)::move( n0 n3)::move( n2 n1)::move( n4 n3)::move( n1 n4)
move( n0 n1)::move( n1 n4)::move( n4 n2)::move( n3 n1)::move( n2 n1)::move( n1 n4)::move( n2 n1)::move( n4 n1)::move( n4 n0)::move( n1 n3)::move( n3 n2)::move( n2 n1)::move( n1 n3)::move( n3 n1)::move( n1 n3)::move( n3 n2)::move( n2 n4)::move( n0 n2)::move( n1 n4)
move( n3 n4)::move( n0 n3)::move( n3 n2)::move( n3 n2)::move( n2 n1)
move( n0 n1)::move( n1 n2)::move( n2 n3)::move( n0 n2)::move( n3 n4)::move( n4 n0)::move( n0 n4)::move( n4 n2)::move( n2 n4)::move( n1 n2)::move( n4 n1)::move( n1 n3)::move( n3 n4)::move( n4 n2)::move( n0 n2)::move( n2 n0)::move( n0 n2)::move( n2 n1)::move( n3 n2)::move( n1 n2)
move( n0 n4)::move( n4 n1)::move( n0 n3)::move( n1 n0)::move( n0 n3)::move( n3 n2)::move( n2 n0)::move( n0 n1)::move( n1 n3)::move( n3 n1)::move( n1 n3)::move( n3 n4)::move( n4 n3)::move( n3 n1)::move( n1 n3)
move( n0 n2)::move( n2 n1)::move( n1 n2)::move( n2 n3)::move( n3 n2)::move( n2 n1)::move( n1 n3)::move( n3 n4)::move( n4 n1)::move( n1 n0)::move( n0 n1)::move( n1 n3)::move( n4 n1)
move( n0 n3)::move( n3 n2)::move( n0 n2)::move( n2 n0)::move( n0 n3)::move( n3 n2)::move( n2 n1)::move( n4 n2)::move( n1 n2)::move( n2 n3)::move( n3 n4)::move( n4 n1)::move( n3 n0)::move( n1 n3)::move( n3 n0)::move( n3 n4)::move( n4 n0)::move( n0 n2)::move( n2 n1)
move( n0 n1)::move( n1 n0)::move( n0 n4)::move( n4 n0)::move( n0 n4)::move( n4 n1)::move( n1 n4)::move( n4 n0)::move( n0 n4)::move( n4 n0)::move( n2 n1)::move( n0 n1)::move( n1 n0)::move( n4 n2)::move( n4 n1)::move( n0 n2)::move( n2 n0)::move( n0 n4)::move( n4 n3)::move( n3 n0)
move( n0 n2)::move( n2 n4)::move( n4 n3)::move( n3 n2)::move( n3 n1)::move( n2 n1)::move( n1 n3)::move( n3 n2)::move( n2 n1)
move( n0 n4)::move( n4 n0)::move( n0 n3)::move( n3 n2)::move( n2 n3)::move( n3 n4)::move( n4 n1)::move( n4 n0)
move( n0 n3)::move( n1 n4)::move( n3 n4)
move( n2 n0)::move( n0 n1)::move( n3 n2)::move( n2 n0)::move( n1 n3)::move( n3 n4)::move( n4 n2)::move( n2 n3)::move( n3 n4)::move( n3 n1)::move( n4 n1)::move( n1 n4)::move( n2 n3)::move( n4 n2)::move( n2 n1)::move( n1 n2)::move( n0 n2)::move( n2 n1)
move( n4 n0)::move( n0 n3)::move( n3 n4)::move( n2 n4)::move( n4 n1)::move( n1 n2)::move( n2 n3)::move( n3 n4)::move( n4 n2)
move( n0 n3)::move( n3 n4)::move( n4 n1)::move( n1 n4)::move( n0 n1)::move( n4 n0)::move( n0 n4)::move( n4 n3)::move( n3 n4)
move( n0 n3)::move( n3 n0)::move( n0 n2)::move( n2 n3)::move( n3 n4)::move( n4 n1)::move( n1 n3)::move( n2 n0)::move( n3 n4)::move( n4 n0)::move( n0 n4)::move( n4 n1)::move( n1 n2)::move( n3 n4)::move( n2 n3)::move( n3 n2)::move( n4 n0)::move( n4 n2)::move( n2 n1)
move( n0 n4)::move( n4 n3)::move( n3 n4)::move( n4 n2)::move( n2 n1)::move( n1 n0)::move( n0 n1)::move( n1 n2)::move( n2 n0)::move( n1 n0)::move( n0 n3)::move( n3 n2)::move( n2 n1)::move( n1 n0)::move( n0 n2)::move( n2 n1)::move( n3 n0)::move( n0 n4)::move( n1 n0)
move( n2 n0)::move( n0 n3)::move( n3 n2)::move( n2 n0)::move( n0 n3)::move( n3 n2)::move( n2 n3)::move( n3 n1)::move( n1 n3)::move( n3 n1)::move( n1 n3)::move( n0 n1)::move( n3 n2)::move( n2 n1)::move( n1 n3)::move( n3 n4)::move( n4 n1)
move( n0 n1)::move( n1 n2)::move( n2 n4)::move( n4 n3)::move( n3 n1)::move( n1 n0)::move( n4 n2)::move( n0 n3)::move( n3 n0)::move( n0 n1)::move( n1 n2)::move( n2 n4)
move( n0 n4)::move( n4 n2)::move( n2 n1)::move( n1 n0)::move( n0 n3)::move( n1 n0)::move( n3 n2)::move( n2 n4)::move( n4 n1)::move( n1 n2)::move( n2 n4)::move( n4 n0)::move( n0 n1)::move( n3 n4)::move( n1 n0)::move( n0 n3)::move( n3 n4)
move( n0 n3)::move( n3 n2)::move( n2 n1)::move( n1 n3)::move( n3 n4)::move( n1 n2)
move( n0 n4)::move( n4 n1)::move( n1 n4)::move( n0 n2)::move( n4 n3)::move( n3 n1)::move( n1 n4)::move( n4 n2)
move( n0 n2)::move( n4 n1)::move( n2 n1)::move( n4 n3)
move( n0 n4)::move( n4 n0)::move( n3 n2)::move( n1 n4)::move( n0 n4)::move( n4 n1)::move( n1 n3)::move( n3 n1)
move( n0 n4)::move( n4 n2)::move( n2 n3)::move( n3 n2)::move( n2 n3)::move( n3 n0)::move( n0 n3)::move( n3 n1)::move( n1 n0)::move( n0 n2)::move( n4 n3)
move( n0 n4)::move( n4 n0)::move( n0 n2)::move( n2 n0)::move( n0 n1)::move( n4 n0)::move( n0 n1)::move( n1 n2)::move( n2 n0)::move( n0 n3)::move( n2 n4)::move( n3 n1)::move( n1 n2)::move( n2 n1)::move( n1 n4)::move( n4 n0)::move( n0 n4)::move( n4 n0)
move( n0 n1)::move( n1 n4)::move( n4 n0)::move( n0 n1)::move( n1 n0)::move( n0 n3)::move( n2 n1)::move( n3 n0)::move( n0 n4)::move( n4 n1)::move( n2 n0)
move( n0 n2)::move( n2 n0)::move( n0 n1)::move( n1 n3)::move( n3 n0)::move( n0 n3)::move( n1 n3)::move( n3 n4)::move( n0 n4)::move( n4 n1)
move( n0 n4)::move( n4 n2)::move( n2 n4)::move( n4 n3)::move( n3 n0)::move( n0 n1)::move( n1 n4)::move( n2 n0)::move( n4 n1)::move( n1 n2)::move( n3 n2)::move( n2 n4)::move( n4 n1)
move( n0 n2)::move( n2 n4)::move( n4 n3)::move( n3 n2)::move( n1 n0)::move( n0 n1)::move( n2 n4)::move( n4 n2)::move( n2 n1)::move( n1 n4)::move( n4 n2)::move( n2 n1)::move( n1 n2)::move( n2 n3)
move( n0 n4)::move( n4 n2)::move( n2 n3)::move( n3 n2)::move( n2 n4)::move( n3 n2)::move( n3 n0)::move( n4 n2)::move( n2 n0)::move( n1 n3)::move( n0 n1)::move( n1 n0)::move( n3 n2)::move( n0 n2)::move( n2 n1)::move( n1 n0)::move( n0 n4)
move( n0 n4)::move( n4 n1)::move( n1 n0)::move( n0 n3)::move( n1 n2)::move( n3 n0)::move( n0 n3)::move( n2 n4)::move( n3 n0)
move( n0 n3)::move( n3 n0)::move( n0 n4)::move( n4 n0)::move( n0 n4)::move( n4 n3)::move( n3 n4)::move( n4 n3)::move( n3 n0)::move( n3 n2)::move( n1 n3)::move( n1 n0)
move( n0 n1)::move( n1 n0)::move( n1 n3)::move( n0 n2)::move( n0 n1)::move( n2 n3)
move( n0 n4)::move( n0 n2)::move( n0 n4)::move( n4 n2)::move( n2 n0)::move( n0 n4)::move( n3 n1)::move( n2 n0)::move( n4 n1)::move( n1 n3)::move( n3 n1)::move( n2 n1)::move( n1 n3)::move( n3 n2)::move( n1 n0)
move( n0 n3)::move( n3 n4)::move( n4 n2)::move( n0 n3)::move( n2 n0)::move( n0 n1)::move( n1 n2)::move( n2 n3)::move( n3 n2)::move( n2 n0)::move( n0 n4)::move( n4 n3)::move( n0 n4)::move( n3 n4)::move( n0 n1)::move( n0 n3)::move( n4 n3)::move( n3 n0)::move( n1 n4)::move( n0 n1)
move( n2 n1)::move( n0 n3)::move( n3 n1)::move( n1 n4)::move( n4 n2)::move( n2 n0)::move( n0 n2)::move( n2 n0)::move( n0 n1)::move( n4 n2)::move( n1 n2)::move( n2 n0)::move( n0 n2)::move( n2 n3)::move( n3 n0)::move( n0 n4)::move( n4 n2)::move( n2 n3)::move( n3 n2)::move( n2 n0)
move( n2 n3)::move( n0 n2)::move( n2 n0)::move( n0 n4)::move( n4 n3)::move( n3 n1)::move( n1 n3)::move( n3 n4)::move( n4 n3)::move( n3 n1)::move( n1 n2)::move( n2 n1)::move( n3 n1)::move( n1 n4)
move( n0 n2)::move( n2 n1)::move( n1 n3)::move( n1 n0)::move( n3 n1)::move( n1 n3)::move( n3 n0)::move( n0 n1)::move( n1 n4)::move( n4 n1)::move( n1 n4)::move( n4 n2)::move( n2 n0)::move( n0 n3)::move( n3 n1)::move( n1 n4)::move( n4 n3)::move( n3 n1)::move( n1 n2)
move( n0 n1)::move( n1 n3)::move( n0 n2)::move( n3 n0)::move( n0 n4)::move( n4 n2)::move( n2 n4)::move( n4 n1)::move( n1 n0)::move( n0 n1)::move( n1 n2)::move( n3 n0)::move( n4 n3)::move( n2 n3)
move( n0 n3)::move( n4 n0)::move( n1 n0)::move( n3 n4)::move( n4 n0)::move( n0 n3)::move( n0 n1)::move( n1 n3)::move( n3 n4)::move( n3 n2)
move( n4 n3)::move( n3 n1)::move( n0 n1)::move( n1 n2)::move( n0 n1)::move( n2 n4)::move( n4 n2)
move( n0 n3)::move( n3 n2)::move( n4 n3)::move( n1 n2)::move( n2 n1)::move( n1 n0)::move( n0 n4)::move( n4 n1)::move( n1 n3)::move( n0 n2)::move( n0 n3)::move( n3 n1)::move( n1 n0)::move( n0 n4)::move( n4 n1)::move( n1 n3)::move( n3 n0)
move( n0 n3)::move( n3 n4)::move( n1 n0)::move( n4 n0)::move( n0 n3)::move( n3 n0)::move( n0 n4)
move( n0 n1)::move( n1 n4)::move( n4 n0)::move( n0 n3)::move( n4 n3)::move( n3 n0)::move( n0 n1)::move( n2 n4)::move( n1 n4)
move( n0 n2)::move( n2 n0)::move( n0 n4)::move( n4 n1)::move( n1 n0)::move( n3 n0)
move( n0 n4)::move( n1 n0)::move( n4 n2)::move( n2 n3)::move( n2 n0)::move( n1 n4)::move( n4 n0)::move( n3 n0)::move( n2 n0)::move( n0 n1)::move( n2 n4)::move( n1 n2)::move( n2 n1)::move( n1 n0)::move( n0 n4)
move( n0 n1)::move( n1 n4)::move( n4 n3)::move( n4 n2)::move( n3 n0)
move( n0 n4)::move( n4 n1)::move( n1 n2)::move( n2 n3)::move( n3 n0)::move( n0 n1)::move( n4 n1)
move( n0 n1)::move( n1 n3)::move( n3 n1)::move( n1 n3)::move( n1 n2)::move( n3 n2)::move( n2 n4)::move( n4 n3)::move( n3 n2)::move( n2 n3)::move( n3 n4)::move( n4 n1)::move( n0 n2)::move( n1 n0)::move( n0 n1)::move( n1 n2)
move( n0 n1)::move( n1 n0)::move( n0 n2)::move( n2 n1)::move( n1 n2)::move( n2 n3)::move( n3 n0)::move( n3 n0)::move( n0 n2)::move( n2 n4)::move( n4 n1)::move( n1 n2)
move( n0 n3)::move( n3 n4)::move( n4 n1)::move( n1 n4)::move( n4 n3)::move( n4 n2)
move( n0 n4)::move( n4 n0)::move( n0 n2)::move( n2 n0)::move( n0 n2)::move( n2 n3)::move( n3 n4)::move( n4 n3)::move( n3 n4)::move( n4 n0)::move( n0 n2)::move( n2 n1)::move( n3 n1)
move( n0 n4)::move( n4 n2)::move( n0 n1)::move( n2 n1)::move( n1 n4)::move( n4 n2)::move( n2 n3)::move( n3 n4)::move( n4 n0)::move( n3 n1)::move( n0 n2)::move( n2 n3)::move( n3 n1)
move( n0 n4)::move( n4 n2)::move( n2 n0)::move( n0 n1)::move( n2 n0)::move( n1 n2)::move( n1 n3)::move( n2 n3)::move( n3 n4)::move( n4 n2)::move( n2 n0)::move( n0 n4)::move( n4 n3)::move( n0 n1)::move( n3 n1)::move( n2 n3)
move( n0 n4)::move( n4 n0)::move( n0 n4)::move( n1 n0)::move( n4 n1)::move( n1 n4)::move( n0 n3)::move( n4 n1)::move( n1 n0)::move( n2 n4)::move( n0 n2)::move( n2 n3)::move( n3 n2)::move( n2 n1)::move( n1 n3)::move( n3 n0)::move( n0 n1)
move( n0 n3)::move( n3 n2)::move( n2 n0)::move( n0 n2)::move( n2 n3)::move( n3 n0)::move( n0 n2)::move( n2 n0)::move( n0 n1)::move( n1 n4)::move( n4 n3)::move( n3 n4)::move( n4 n2)::move( n2 n0)::move( n4 n3)
move( n0 n4)::move( n4 n0)::move( n0 n2)::move( n2 n0)::move( n0 n2)::move( n0 n4)::move( n2 n1)::move( n1 n2)
move( n3 n0)
move( n0 n2)::move( n3 n1)::move( n3 n2)::move( n2 n0)::move( n0 n3)::move( n3 n2)::move( n2 n3)::move( n3 n0)::move( n0 n1)::move( n1 n3)::move( n3 n4)::move( n4 n3)::move( n3 n4)::move( n4 n1)::move( n1 n4)
move( n0 n2)::move( n1 n2)::move( n0 n1)::move( n2 n3)::move( n2 n4)::move( n3 n0)::move( n0 n4)::move( n1 n2)::move( n4 n0)::move( n1 n2)::move( n0 n1)::move( n1 n0)::move( n0 n4)::move( n4 n0)::move( n0 n4)::move( n4 n2)::move( n2 n4)
move( n0 n2)::move( n2 n0)::move( n0 n2)::move( n2 n4)::move( n4 n1)::move( n1 n3)::move( n3 n4)::move( n4 n2)::move( n2 n3)::move( n3 n1)::move( n2 n4)
move( n0 n3)::move( n3 n2)::move( n2 n4)::move( n4 n0)::move( n0 n1)::move( n1 n0)::move( n0 n3)::move( n3 n1)::move( n0 n4)
move( n3 n4)::move( n0 n2)::move( n2 n0)::move( n0 n1)::move( n1 n3)::move( n3 n1)::move( n0 n2)::move( n1 n3)::move( n3 n0)::move( n0 n4)::move( n4 n3)::move( n3 n1)::move( n1 n3)::move( n3 n0)::move( n0 n3)::move( n3 n2)::move( n2 n3)
move( n0 n4)::move( n4 n1)::move( n1 n3)::move( n3 n2)::move( n0 n3)
move( n0 n3)::move( n3 n4)::move( n4 n2)::move( n1 n2)::move( n2 n4)::move( n4 n0)::move( n0 n4)::move( n4 n1)::move( n1 n4)::move( n4 n2)::move( n1 n4)::move( n2 n0)::move( n1 n0)::move( n2 n3)::move( n2 n3)
move( n0 n2)::move( n2 n3)::move( n3 n1)::move( n1 n4)::move( n4 n2)::move( n2 n4)::move( n4 n2)::move( n2 n1)::move( n1 n3)::move( n3 n4)::move( n4 n3)::move( n3 n2)::move( n0 n4)
move( n0 n2)::move( n0 n1)::move( n2 n4)::move( n2 n0)::move( n4 n1)::move( n1 n3)::move( n3 n4)::move( n4 n3)::move( n3 n1)::move( n1 n2)::move( n2 n1)::move( n1 n2)::move( n2 n3)::move( n3 n2)::move( n2 n1)::move( n1 n2)::move( n3 n1)
move( n0 n3)::move( n3 n4)::move( n4 n1)::move( n1 n4)::move( n1 n3)
move( n0 n3)::move( n3 n0)::move( n0 n1)::move( n1 n3)::move( n3 n0)::move( n0 n4)::move( n4 n2)::move( n3 n4)::move( n1 n2)::move( n2 n4)::move( n4 n3)::move( n3 n4)::move( n4 n1)::move( n3 n0)::move( n1 n0)::move( n0 n2)
move( n0 n3)::move( n3 n0)::move( n0 n1)::move( n4 n2)
move( n0 n4)::move( n3 n4)::move( n4 n1)::move( n1 n0)
move( n4 n2)::move( n0 n4)::move( n2 n3)::move( n4 n3)::move( n3 n4)::move( n2 n1)::move( n4 n3)::move( n4 n3)::move( n3 n1)::move( n3 n4)::move( n1 n4)::move( n1 n2)::move( n4 n1)::move( n1 n0)::move( n0 n3)::move( n0 n2)::move( n3 n1)::move( n1 n3)::move( n3 n2)::move( n2 n1)
move( n0 n4)::move( n4 n0)::move( n0 n4)::move( n4 n3)::move( n4 n0)::move( n3 n0)::move( n0 n2)::move( n2 n0)::move( n0 n4)::move( n4 n3)::move( n3 n4)::move( n3 n0)::move( n4 n3)::move( n3 n2)::move( n2 n3)::move( n3 n1)::move( n1 n4)::move( n4 n0)::move( n4 n3)::move( n3 n0)
move( n0 n4)::move( n4 n2)::move( n1 n0)::move( n4 n2)
move( n0 n3)::move( n1 n3)::move( n3 n1)::move( n1 n3)::move( n4 n3)::move( n3 n4)::move( n4 n3)::move( n3 n1)::move( n1 n4)::move( n4 n1)::move( n1 n4)::move( n2 n1)
move( n0 n1)::move( n1 n2)::move( n2 n1)::move( n2 n1)
move( n0 n4)::move( n4 n3)::move( n1 n0)
move( n0 n4)::move( n4 n1)::move( n1 n2)::move( n2 n1)::move( n1 n2)::move( n2 n0)::move( n4 n3)::move( n0 n4)::move( n4 n3)::move( n4 n3)::move( n3 n1)::move( n1 n0)::move( n0 n1)::move( n1 n4)::move( n1 n3)
move( n0 n2)::move( n2 n1)::move( n1 n4)::move( n4 n1)::move( n1 n0)::move( n4 n2)
move( n0 n1)::move( n1 n0)::move( n0 n1)::move( n1 n4)::move( n4 n1)::move( n3 n4)::move( n1 n0)::move( n1 n0)::move( n0 n3)::move( n3 n4)::move( n4 n3)::move( n3 n0)::move( n0 n1)::move( n1 n4)::move( n0 n2)::move( n4 n3)::move( n3 n0)::move( n0 n1)::move( n1 n4)
move( n0 n3)::move( n3 n1)::move( n1 n0)::move( n0 n3)::move( n3 n0)::move( n0 n1)::move( n1 n4)::move( n4 n1)::move( n1 n3)::move( n1 n3)
move( n0 n3)::move( n3 n4)::move( n4 n3)::move( n3 n4)::move( n4 n0)::move( n0 n4)::move( n4 n2)::move( n2 n0)::move( n0 n1)::move( n1 n2)::move( n2 n0)::move( n0 n1)::move( n1 n0)::move( n0 n1)::move( n1 n4)::move( n4 n1)::move( n1 n0)::move( n0 n3)::move( n0 n2)
move( n0 n3)::move( n3 n4)::move( n4 n3)::move( n3 n0)::move( n0 n3)::move( n3 n1)::move( n1 n0)::move( n0 n1)::move( n3 n1)
move( n0 n3)::move( n3 n4)::move( n4 n3)::move( n3 n1)::move( n1 n3)::move( n3 n4)::move( n4 n1)::move( n1 n0)::move( n0 n4)::move( n4 n0)::move( n1 n4)::move( n3 n0)::move( n0 n4)::move( n4 n0)::move( n0 n2)
move( n0 n4)::move( n4 n3)::move( n3 n4)::move( n4 n1)::move( n1 n0)::move( n0 n1)::move( n2 n1)::move( n1 n2)::move( n2 n1)::move( n1 n3)::move( n3 n1)::move( n1 n3)::move( n3 n4)::move( n4 n3)::move( n3 n2)
move( n0 n1)::move( n1 n2)::move( n2 n3)::move( n3 n4)::move( n4 n1)::move( n4 n2)::move( n1 n4)::move( n1 n4)::move( n4 n3)::move( n3 n0)::move( n0 n1)::move( n1 n2)::move( n0 n1)::move( n2 n0)::move( n2 n3)::move( n0 n4)
move( n4 n0)
move( n0 n2)::move( n2 n0)::move( n0 n2)::move( n2 n0)::move( n0 n3)::move( n0 n4)
move( n1 n2)
move( n4 n0)::move( n0 n2)::move( n2 n1)::move( n1 n0)::move( n0 n2)::move( n2 n3)::move( n3 n1)::move( n1 n3)::move( n3 n0)::move( n0 n4)::move( n4 n3)::move( n3 n2)::move( n2 n3)::move( n3 n1)::move( n2 n4)::move( n1 n4)::move( n4 n0)::move( n0 n4)::move( n4 n1)
move( n0 n4)::move( n4 n0)::move( n0 n3)::move( n3 n4)::move( n4 n1)::move( n1 n4)::move( n4 n3)::move( n3 n1)::move( n0 n1)
move( n0 n4)::move( n4 n3)::move( n3 n1)::move( n3 n2)::move( n1 n2)::move( n2 n4)::move( n4 n0)::move( n0 n4)::move( n4 n2)::move( n2 n1)::move( n4 n3)::move( n1 n3)::move( n3 n2)::move( n0 n2)::move( n0 n2)::move( n2 n3)::move( n3 n0)
move( n0 n1)::move( n1 n2)::move( n2 n4)::move( n4 n1)::move( n4 n1)
move( n0 n3)::move( n3 n0)::move( n2 n0)::move( n0 n4)::move( n4 n2)::move( n2 n1)::move( n1 n0)::move( n0 n3)::move( n3 n4)::move( n4 n1)::move( n0 n4)::move( n1 n3)::move( n3 n4)::move( n4 n2)
move( n4 n3)::move( n0 n1)::move( n4 n2)::move( n1 n0)
move( n0 n4)::move( n4 n2)::move( n4 n1)::move( n2 n4)::move( n1 n4)::move( n4 n0)
move( n0 n1)::move( n1 n3)::move( n4 n0)::move( n3 n2)::move( n2 n1)::move( n1 n4)::move( n4 n0)::move( n0 n4)::move( n4 n3)::move( n4 n3)::move( n3 n0)::move( n0 n2)::move( n4 n2)::move( n2 n4)::move( n4 n0)
move( n0 n3)::move( n3 n2)::move( n2 n1)::move( n1 n2)::move( n2 n4)::move( n4 n3)::move( n3 n0)::move( n0 n2)::move( n2 n0)::move( n0 n3)::move( n3 n4)::move( n4 n1)::move( n1 n0)::move( n3 n0)
move( n2 n3)::move( n0 n2)::move( n3 n4)::move( n2 n4)::move( n4 n3)::move( n2 n0)::move( n3 n1)::move( n1 n0)::move( n0 n1)
move( n4 n3)::move( n1 n0)::move( n0 n3)::move( n3 n2)::move( n4 n3)::move( n2 n4)::move( n4 n3)::move( n3 n2)::move( n2 n4)::move( n4 n1)::move( n1 n0)::move( n2 n4)::move( n0 n2)::move( n2 n4)::move( n4 n3)::move( n3 n0)::move( n0 n1)::move( n1 n3)
move( n0 n1)::move( n1 n2)::move( n2 n4)::move( n4 n2)::move( n2 n3)::move( n3 n4)::move( n1 n0)::move( n3 n2)::move( n4 n0)::move( n0 n2)::move( n2 n3)::move( n3 n4)::move( n4 n3)::move( n3 n4)::move( n4 n0)::move( n0 n2)::move( n0 n1)::move( n2 n4)::move( n4 n3)::move( n3 n1)
move( n4 n1)::move( n0 n1)::move( n2 n1)::move( n1 n3)::move( n3 n0)::move( n0 n4)::move( n4 n0)::move( n0 n3)::move( n3 n0)::move( n0 n4)::move( n4 n3)::move( n3 n0)::move( n4 n2)::move( n0 n2)::move( n0 n1)
move( n0 n4)::move( n1 n3)::move( n4 n3)::move( n3 n0)::move( n0 n3)::move( n3 n0)::move( n0 n4)::move( n4 n0)::move( n0 n3)::move( n3 n1)::move( n1 n2)::move( n2 n0)::move( n0 n1)::move( n1 n0)::move( n0 n2)::move( n2 n3)::move( n3 n1)::move( n4 n1)::move( n1 n2)::move( n2 n1)
move( n0 n2)::move( n2 n3)::move( n3 n0)::move( n0 n1)::move( n1 n2)::move( n2 n3)::move( n3 n2)::move( n2 n4)::move( n4 n2)::move( n2 n0)::move( n0 n3)::move( n3 n4)::move( n1 n3)
move( n1 n4)::move( n0 n4)::move( n4 n1)::move( n4 n1)::move( n1 n0)::move( n0 n1)::move( n1 n4)
move( n0 n4)::move( n4 n1)::move( n1 n3)::move( n3 n2)::move( n2 n4)::move( n4 n3)::move( n3 n1)::move( n4 n1)::move( n1 n2)::move( n2 n4)::move( n4 n3)::move( n3 n2)::move( n2 n1)::move( n1 n2)::move( n1 n2)::move( n2 n0)::move( n0 n1)
move( n0 n4)::move( n4 n2)::move( n2 n0)::move( n0 n3)::move( n3 n4)::move( n4 n3)::move( n0 n4)
move( n0 n3)::move( n3 n0)::move( n1 n2)::move( n1 n3)::move( n0 n4)::move( n4 n1)
move( n0 n4)::move( n4 n3)::move( n3 n0)::move( n0 n1)::move( n1 n0)::move( n0 n3)::move( n3 n1)::move( n4 n0)::move( n4 n3)::move( n1 n3)::move( n3 n1)::move( n1 n0)::move( n3 n4)::move( n0 n2)::move( n3 n1)::move( n2 n3)::move( n3 n2)::move( n4 n2)::move( n4 n0)
move( n0 n1)::move( n0 n2)::move( n4 n1)::move( n1 n0)::move( n0 n1)::move( n1 n0)::move( n0 n2)::move( n2 n0)
move( n0 n3)::move( n3 n1)::move( n1 n0)::move( n1 n3)::move( n0 n4)::move( n4 n0)::move( n0 n3)
move( n0 n4)::move( n2 n0)::move( n4 n0)::move( n0 n3)::move( n3 n0)::move( n0 n2)::move( n4 n1)::move( n0 n3)::move( n2 n3)::move( n2 n4)::move( n0 n1)
move( n0 n1)::move( n1 n0)::move( n0 n1)::move( n1 n0)::move( n0 n1)::move( n1 n4)::move( n4 n1)::move( n1 n3)::move( n3 n4)::move( n4 n0)::move( n0 n1)::move( n1 n3)::move( n3 n0)::move( n4 n0)::move( n2 n1)::move( n0 n4)::move( n4 n1)::move( n0 n2)
move( n0 n1)::move( n1 n4)::move( n4 n2)::move( n2 n3)::move( n3 n0)::move( n0 n1)::move( n1 n3)::move( n0 n2)
move( n0 n2)::move( n2 n1)::move( n1 n4)::move( n4 n1)::move( n1 n4)::move( n4 n1)::move( n3 n1)
move( n0 n4)::move( n4 n0)::move( n0 n4)::move( n4 n3)::move( n3 n0)::move( n0 n1)::move( n1 n4)::move( n4 n1)::move( n1 n4)::move( n3 n0)::move( n4 n2)::move( n2 n4)::move( n4 n1)::move( n1 n0)::move( n2 n0)::move( n0 n3)::move( n3 n1)::move( n1 n3)::move( n3 n0)::move( n0 n3)
move( n0 n3)::move( n3 n2)::move( n2 n1)::move( n1 n2)::move( n0 n4)::move( n2 n0)::move( n0 n4)::move( n4 n1)::move( n1 n4)::move( n1 n4)::move( n4 n2)::move( n2 n1)::move( n1 n0)::move( n0 n1)::move( n1 n4)::move( n3 n2)::move( n4 n2)
move( n0 n1)::move( n1 n3)::move( n3 n4)::move( n4 n3)::move( n3 n4)::move( n4 n3)::move( n3 n0)::move( n0 n3)::move( n3 n4)::move( n4 n0)::move( n0 n4)::move( n4 n1)::move( n1 n2)::move( n2 n4)::move( n4 n0)::move( n0 n2)::move( n2 n1)::move( n4 n1)
move( n0 n4)::move( n4 n3)::move( n1 n2)::move( n3 n0)::move( n0 n2)::move( n2 n4)
move( n0 n1)::move( n1 n2)::move( n2 n4)::move( n4 n3)::move( n3 n4)::move( n4 n3)::move( n4 n0)
move( n0 n3)::move( n3 n1)::move( n1 n2)::move( n2 n1)::move( n1 n3)::move( n3 n2)::move( n2 n0)::move( n0 n3)::move( n3 n2)::move( n1 n2)
move( n3 n0)::move( n0 n4)::move( n1 n4)::move( n3 n0)::move( n1 n3)::move( n4 n0)::move( n0 n4)::move( n4 n1)::move( n1 n0)
move( n1 n0)::move( n0 n2)::move( n2 n4)::move( n4 n0)::move( n0 n2)::move( n2 n1)::move( n1 n4)::move( n4 n3)::move( n0 n3)::move( n3 n0)::move( n0 n4)::move( n4 n0)
move( n0 n2)::move( n2 n4)::move( n4 n3)::move( n4 n1)::move( n3 n2)::move( n2 n3)::move( n3 n0)
move( n0 n2)::move( n2 n0)::move( n0 n3)::move( n3 n2)::move( n1 n2)
move( n0 n1)::move( n1 n3)::move( n3 n1)::move( n4 n1)::move( n1 n2)::move( n2 n3)::move( n3 n2)::move( n2 n0)::move( n0 n3)::move( n3 n4)
move( n0 n2)::move( n2 n4)::move( n4 n3)::move( n3 n4)::move( n4 n3)::move( n3 n1)::move( n1 n4)::move( n4 n1)::move( n1 n4)::move( n4 n2)::move( n2 n1)::move( n1 n2)::move( n2 n3)::move( n3 n1)::move( n1 n2)::move( n2 n1)::move( n0 n1)
move( n0 n3)::move( n3 n2)::move( n2 n3)::move( n3 n4)::move( n3 n0)
move( n0 n3)::move( n3 n0)::move( n1 n0)
move( n0 n2)::move( n2 n1)::move( n1 n3)::move( n2 n1)::move( n3 n1)::move( n1 n3)::move( n3 n1)::move( n1 n4)::move( n4 n0)::move( n1 n4)::move( n0 n1)::move( n0 n2)::move( n1 n0)::move( n0 n2)::move( n2 n4)::move( n4 n3)::move( n3 n0)::move( n0 n1)::move( n0 n1)
move( n0 n4)::move( n4 n3)::move( n3 n2)::move( n4 n1)::move( n1 n0)::move( n2 n1)::move( n1 n2)::move( n2 n0)::move( n0 n2)::move( n2 n4)
move( n0 n1)::move( n1 n2)::move( n2 n4)::move( n4 n3)::move( n3 n2)::move( n2 n0)::move( n3 n2)
move( n0 n2)::move( n3 n4)::move( n0 n2)::move( n2 n1)::move( n1 n3)::move( n3 n1)::move( n1 n4)::move( n4 n1)::move( n0 n3)::move( n1 n4)::move( n4 n3)::move( n3 n0)::move( n0 n1)::move( n1 n3)::move( n3 n2)::move( n2 n3)::move( n3 n4)
move( n0 n3)::move( n3 n2)::move( n2 n1)::move( n1 n2)::move( n2 n0)::move( n0 n1)::move( n1 n4)::move( n4 n3)::move( n2 n3)
move( n0 n3)::move( n3 n0)::move( n0 n2)::move( n2 n3)::move( n1 n3)
move( n1 n0)::move( n0 n2)::move( n2 n3)::move( n3 n0)::move( n3 n1)::move( n0 n2)::move( n2 n3)::move( n3 n2)::move( n2 n4)::move( n4 n2)::move( n2 n1)::move( n1 n3)::move( n3 n4)::move( n4 n2)::move( n2 n0)
move( n0 n1)::move( n1 n2)::move( n2 n4)::move( n4 n1)::move( n0 n1)
move( n0 n1)::move( n1 n4)::move( n4 n3)::move( n3 n2)::move( n2 n1)::move( n1 n0)::move( n0 n4)::move( n4 n3)::move( n3 n2)::move( n0 n3)::move( n2 n3)
move( n0 n2)::move( n2 n0)::move( n0 n2)::move( n2 n0)::move( n0 n2)::move( n2 n1)::move( n1 n0)::move( n0 n1)::move( n2 n0)
move( n0 n4)::move( n4 n3)::move( n3 n2)::move( n2 n3)::move( n3 n1)::move( n1 n0)::move( n0 n1)::move( n1 n4)::move( n2 n0)
move( n0 n4)::move( n4 n0)::move( n0 n3)::move( n3 n4)::move( n4 n0)::move( n0 n1)::move( n1 n2)::move( n2 n3)::move( n3 n4)::move( n4 n3)::move( n3 n2)::move( n2 n4)::move( n4 n2)::move( n2 n4)::move( n4 n3)::move( n3 n1)::move( n1 n3)::move( n3 n4)::move( n4 n0)::move( n0 n3)::move( n3 n2)::move( n2 n1)::move( n1 n4)::move( n0 n2)
move( n1 n2)::move( n0 n2)::move( n2 n0)::move( n0 n1)::move( n1 n3)::move( n3 n2)::move( n2 n4)::move( n0 n2)::move( n0 n3)::move( n4 n0)::move( n0 n1)::move( n2 n0)
move( n0 n4)::move( n3 n4)::move( n0 n1)::move( n4 n3)::move( n2 n1)::move( n3 n2)::move( n2 n3)::move( n3 n1)::move( n1 n2)::move( n2 n1)::move( n1 n2)::move( n2 n4)::move( n1 n4)::move( n4 n0)
move( n0 n2)::move( n2 n0)::move( n0 n4)::move( n4 n1)::move( n0 n4)
move( n0 n1)::move( n1 n3)::move( n3 n4)::move( n2 n1)::move( n4 n1)::move( n1 n4)::move( n4 n2)
move( n0 n4)::move( n4 n2)::move( n2 n1)::move( n1 n4)::move( n4 n1)::move( n1 n4)::move( n4 n0)::move( n0 n1)::move( n2 n3)
move( n0 n3)::move( n4 n1)::move( n3 n0)::move( n0 n3)::move( n0 n2)::move( n3 n1)::move( n1 n3)::move( n3 n1)::move( n0 n2)::move( n1 n4)::move( n2 n1)::move( n4 n3)::move( n3 n1)::move( n1 n2)::move( n2 n1)::move( n0 n1)::move( n0 n2)::move( n1 n2)
move( n0 n2)::move( n2 n1)::move( n1 n0)::move( n0 n2)::move( n2 n4)::move( n4 n1)::move( n1 n3)::move( n3 n1)::move( n1 n2)::move( n2 n3)::move( n3 n0)::move( n0 n4)::move( n4 n1)::move( n1 n4)::move( n4 n1)::move( n1 n3)::move( n3 n4)::move( n4 n2)::move( n4 n2)
move( n0 n1)::move( n1 n4)::move( n2 n3)::move( n4 n2)::move( n2 n1)::move( n2 n0)::move( n4 n3)::move( n1 n4)::move( n2 n1)::move( n4 n1)::move( n1 n4)::move( n4 n3)::move( n3 n4)::move( n4 n3)::move( n0 n1)
move( n0 n4)::move( n4 n3)::move( n3 n4)::move( n4 n0)::move( n0 n3)::move( n3 n1)::move( n1 n2)::move( n2 n0)::move( n0 n2)::move( n2 n4)::move( n4 n1)::move( n1 n0)::move( n0 n1)::move( n1 n0)::move( n0 n3)::move( n3 n1)::move( n1 n2)::move( n2 n4)::move( n4 n0)::move( n0 n2)::move( n0 n4)
move( n0 n1)::move( n1 n2)::move( n2 n1)::move( n1 n4)::move( n4 n0)::move( n0 n4)::move( n4 n2)::move( n2 n4)::move( n4 n0)::move( n0 n3)::move( n3 n1)::move( n1 n4)::move( n4 n3)::move( n2 n1)
move( n0 n1)::move( n2 n0)::move( n3 n4)::move( n1 n2)::move( n2 n0)::move( n4 n0)::move( n0 n1)::move( n1 n0)::move( n0 n4)::move( n4 n0)::move( n3 n1)
move( n0 n4)::move( n4 n3)::move( n3 n4)::move( n4 n2)::move( n2 n1)::move( n1 n4)::move( n1 n2)::move( n4 n1)::move( n1 n0)::move( n0 n2)::move( n1 n4)::move( n2 n4)::move( n4 n2)::move( n2 n1)::move( n1 n3)::move( n3 n0)::move( n0 n1)::move( n1 n2)
move( n0 n2)::move( n2 n4)::move( n4 n0)::move( n0 n2)::move( n0 n1)::move( n2 n0)::move( n0 n1)::move( n1 n0)::move( n0 n3)::move( n3 n4)::move( n4 n1)::move( n1 n3)::move( n3 n4)::move( n4 n0)
move( n0 n4)::move( n4 n2)::move( n2 n0)::move( n0 n1)::move( n1 n0)::move( n0 n3)::move( n3 n0)::move( n0 n1)::move( n1 n4)::move( n4 n0)::move( n0 n2)::move( n2 n1)::move( n1 n0)::move( n0 n1)::move( n1 n2)::move( n2 n0)::move( n4 n0)::move( n0 n2)::move( n2 n4)::move( n4 n1)
move( n0 n1)::move( n1 n4)::move( n4 n3)::move( n3 n4)::move( n4 n1)::move( n1 n2)::move( n2 n1)::move( n1 n0)::move( n0 n3)::move( n3 n1)::move( n1 n0)::move( n4 n3)::move( n4 n0)::move( n0 n3)::move( n3 n0)::move( n0 n4)::move( n4 n1)::move( n1 n4)::move( n4 n0)::move( n0 n4)
move( n0 n2)::move( n2 n3)::move( n3 n0)::move( n0 n3)::move( n3 n2)::move( n2 n3)::move( n3 n2)::move( n2 n1)::move( n3 n0)::move( n1 n2)
move( n0 n3)::move( n3 n1)::move( n1 n3)::move( n3 n0)::move( n0 n1)::move( n1 n0)::move( n0 n1)::move( n1 n2)::move( n2 n4)::move( n4 n0)::move( n0 n4)::move( n4 n1)::move( n1 n2)::move( n2 n4)::move( n4 n3)::move( n3 n2)::move( n0 n3)
move( n0 n4)::move( n4 n2)::move( n4 n2)::move( n2 n3)::move( n0 n2)::move( n3 n1)::move( n4 n0)::move( n1 n4)::move( n0 n3)::move( n4 n0)::move( n1 n4)::move( n0 n4)::move( n4 n2)::move( n2 n0)::move( n0 n2)::move( n2 n3)::move( n3 n0)::move( n0 n4)::move( n4 n2)
move( n3 n0)::move( n1 n2)::move( n1 n4)::move( n0 n4)
move( n0 n1)::move( n2 n0)::move( n2 n3)::move( n1 n3)::move( n3 n2)::move( n2 n3)::move( n3 n0)::move( n0 n2)::move( n2 n4)::move( n0 n2)
move( n0 n1)::move( n1 n4)::move( n4 n1)::move( n1 n0)::move( n0 n4)::move( n4 n3)::move( n3 n2)::move( n2 n1)::move( n1 n0)::move( n1 n0)
move( n0 n3)::move( n3 n4)::move( n4 n1)::move( n1 n3)::move( n3 n4)::move( n0 n1)::move( n4 n0)::move( n1 n4)::move( n0 n4)::move( n4 n0)::move( n0 n1)::move( n1 n3)::move( n2 n3)::move( n1 n4)::move( n1 n2)::move( n3 n1)::move( n4 n0)::move( n1 n0)::move( n0 n2)::move( n2 n4)
move( n0 n4)::move( n4 n3)::move( n2 n0)::move( n3 n2)::move( n2 n4)::move( n4 n2)::move( n4 n2)::move( n2 n1)::move( n1 n4)::move( n4 n2)::move( n2 n0)::move( n0 n4)::move( n0 n4)::move( n0 n1)::move( n4 n3)::move( n3 n2)
move( n0 n2)::move( n2 n0)::move( n0 n3)::move( n3 n4)::move( n4 n2)::move( n2 n0)::move( n0 n4)::move( n4 n1)::move( n1 n2)::move( n2 n3)::move( n3 n0)::move( n3 n2)::move( n0 n3)::move( n3 n2)::move( n2 n1)::move( n1 n3)::move( n3 n2)::move( n2 n4)::move( n4 n1)::move( n0 n4)
move( n4 n2)::move( n0 n3)::move( n3 n1)::move( n1 n0)::move( n0 n1)::move( n0 n2)::move( n1 n2)::move( n2 n0)::move( n0 n4)::move( n4 n1)::move( n1 n4)::move( n4 n0)::move( n0 n3)
move( n0 n2)::move( n3 n4)::move( n2 n1)::move( n1 n3)::move( n1 n3)::move( n3 n1)::move( n1 n0)::move( n2 n4)::move( n0 n3)::move( n3 n1)::move( n3 n2)::move( n2 n1)::move( n1 n3)::move( n3 n2)::move( n3 n0)
move( n0 n4)::move( n4 n1)::move( n1 n4)::move( n4 n0)::move( n1 n0)::move( n0 n3)::move( n3 n1)::move( n1 n3)::move( n3 n0)::move( n0 n2)::move( n2 n1)::move( n2 n4)::move( n1 n3)::move( n4 n0)::move( n0 n3)::move( n4 n3)::move( n3 n1)::move( n1 n0)::move( n0 n4)::move( n4 n2)
move( n0 n4)::move( n4 n1)::move( n1 n4)::move( n4 n3)::move( n3 n4)::move( n4 n3)::move( n3 n2)::move( n2 n4)::move( n4 n3)::move( n3 n2)::move( n2 n4)::move( n4 n1)::move( n1 n0)::move( n0 n3)::move( n2 n1)::move( n3 n4)::move( n4 n2)::move( n2 n0)
move( n0 n1)::move( n4 n2)::move( n1 n0)::move( n1 n0)::move( n4 n3)::move( n4 n3)::move( n0 n2)::move( n2 n0)::move( n0 n4)::move( n2 n0)::move( n4 n3)::move( n3 n4)::move( n4 n2)::move( n2 n1)::move( n1 n2)
move( n3 n1)::move( n0 n2)::move( n0 n4)::move( n4 n3)::move( n2 n4)::move( n4 n2)::move( n2 n0)
move( n2 n0)::move( n4 n2)::move( n0 n2)::move( n4 n2)::move( n4 n0)::move( n2 n1)::move( n1 n2)::move( n2 n4)::move( n0 n3)::move( n4 n0)::move( n0 n2)::move( n2 n0)
move( n0 n3)::move( n1 n4)::move( n3 n2)::move( n2 n0)::move( n0 n2)::move( n2 n3)::move( n3 n0)::move( n0 n1)::move( n1 n0)::move( n0 n4)::move( n4 n3)::move( n3 n4)::move( n1 n2)::move( n4 n1)::move( n1 n2)::move( n2 n0)
move( n2 n1)::move( n0 n2)::move( n2 n0)::move( n0 n3)::move( n1 n0)::move( n3 n0)
move( n0 n4)::move( n4 n0)::move( n0 n1)::move( n4 n0)::move( n1 n4)::move( n4 n2)::move( n2 n1)::move( n4 n2)::move( n1 n2)::move( n2 n0)::move( n0 n2)::move( n1 n0)
move( n0 n4)::move( n4 n1)::move( n4 n2)::move( n1 n2)::move( n2 n3)::move( n3 n0)::move( n3 n2)::move( n0 n1)::move( n1 n3)::move( n4 n0)::move( n3 n2)::move( n2 n4)::move( n4 n2)::move( n2 n4)
move( n0 n4)::move( n4 n0)::move( n0 n4)::move( n4 n0)::move( n4 n3)::move( n0 n4)::move( n1 n0)::move( n4 n3)::move( n3 n2)::move( n2 n3)::move( n3 n1)::move( n1 n0)::move( n0 n1)::move( n1 n2)::move( n2 n3)::move( n3 n4)::move( n3 n0)::move( n4 n1)::move( n1 n3)
move( n3 n2)::move( n0 n2)::move( n2 n1)
move( n4 n3)::move( n0 n1)
move( n0 n4)::move( n4 n0)::move( n0 n3)::move( n3 n1)::move( n1 n0)::move( n0 n1)::move( n1 n0)::move( n4 n0)
move( n2 n4)::move( n0 n3)
move( n0 n1)::move( n4 n0)::move( n4 n1)::move( n1 n0)::move( n0 n1)::move( n1 n2)::move( n2 n3)::move( n2 n1)::move( n3 n4)
move( n0 n2)::move( n2 n1)::move( n1 n4)::move( n4 n2)::move( n2 n3)::move( n3 n1)::move( n1 n3)::move( n3 n1)::move( n1 n0)::move( n0 n4)::move( n4 n0)::move( n4 n3)
move( n0 n2)::move( n2 n1)::move( n1 n0)::move( n0 n4)::move( n4 n0)::move( n0 n2)::move( n2 n3)::move( n3 n1)::move( n1 n0)::move( n0 n4)::move( n4 n0)::move( n0 n2)::move( n0 n1)
move( n0 n1)::move( n1 n4)::move( n4 n3)::move( n4 n2)
move( n0 n2)::move( n2 n0)::move( n1 n0)::move( n0 n1)::move( n1 n3)::move( n3 n0)::move( n0 n1)::move( n1 n2)::move( n2 n3)::move( n4 n1)::move( n3 n1)::move( n1 n3)::move( n3 n2)::move( n2 n4)::move( n4 n2)::move( n4 n0)::move( n2 n4)::move( n4 n3)::move( n3 n4)
move( n0 n4)::move( n4 n3)::move( n3 n1)::move( n3 n0)
move( n0 n2)::move( n2 n0)::move( n0 n1)::move( n2 n3)::move( n4 n0)::move( n1 n4)::move( n4 n2)::move( n0 n1)::move( n2 n4)::move( n3 n2)
move( n0 n1)::move( n1 n2)::move( n2 n3)::move( n3 n4)::move( n4 n3)::move( n3 n1)::move( n1 n4)::move( n4 n2)::move( n1 n2)::move( n2 n1)::move( n1 n4)::move( n1 n3)::move( n4 n3)::move( n3 n2)::move( n2 n1)::move( n4 n1)
move( n1 n4)::move( n0 n1)
move( n0 n1)::move( n1 n0)::move( n0 n2)::move( n2 n3)::move( n1 n2)
move( n0 n3)::move( n3 n4)::move( n4 n0)::move( n0 n2)::move( n2 n0)::move( n4 n0)::move( n3 n4)::move( n0 n3)::move( n3 n1)::move( n1 n4)
move( n0 n3)::move( n3 n2)::move( n2 n1)::move( n1 n2)::move( n2 n0)::move( n0 n4)::move( n4 n0)::move( n3 n2)::move( n0 n3)::move( n3 n0)::move( n0 n2)::move( n1 n0)::move( n2 n0)::move( n0 n4)::move( n4 n2)::move( n2 n0)::move( n0 n2)::move( n2 n1)::move( n2 n1)
move( n0 n4)::move( n4 n1)::move( n1 n2)::move( n2 n0)::move( n0 n1)::move( n1 n4)::move( n4 n1)::move( n1 n2)::move( n2 n0)::move( n0 n2)::move( n0 n4)::move( n2 n4)::move( n4 n2)::move( n2 n1)::move( n3 n4)::move( n3 n1)
move( n0 n4)::move( n4 n2)::move( n2 n0)::move( n0 n2)::move( n2 n4)::move( n2 n3)::move( n4 n0)::move( n0 n3)
move( n0 n2)::move( n2 n4)::move( n4 n3)::move( n3 n1)::move( n1 n2)::move( n2 n1)::move( n0 n1)::move( n1 n3)::move( n0 n4)::move( n3 n4)::move( n3 n2)::move( n4 n2)::move( n2 n0)::move( n0 n2)::move( n2 n1)::move( n1 n3)
move( n0 n4)::move( n4 n3)::move( n3 n1)::move( n0 n4)::move( n1 n3)::move( n0 n4)::move( n4 n2)::move( n1 n3)::move( n3 n1)::move( n3 n4)::move( n1 n2)::move( n2 n1)::move( n1 n3)::move( n3 n1)::move( n1 n3)::move( n3 n0)::move( n2 n1)::move( n0 n4)
move( n0 n1)::move( n1 n3)::move( n1 n4)
move( n0 n2)::move( n2 n0)::move( n0 n4)::move( n4 n1)::move( n4 n3)
move( n0 n2)::move( n2 n0)::move( n0 n1)::move( n1 n2)::move( n2 n4)::move( n4 n3)::move( n0 n2)::move( n3 n2)::move( n2 n0)::move( n4 n3)::move( n0 n4)
move( n0 n4)::move( n4 n3)::move( n3 n1)::move( n1 n0)::move( n2 n1)::move( n2 n0)
move( n4 n2)::move( n0 n1)::move( n4 n1)::move( n1 n0)::move( n0 n3)::move( n2 n1)::move( n3 n0)::move( n0 n2)::move( n2 n0)::move( n0 n4)
move( n0 n3)::move( n3 n1)::move( n1 n2)::move( n2 n1)::move( n1 n3)::move( n3 n0)::move( n0 n1)::move( n1 n0)::move( n0 n3)::move( n3 n2)::move( n2 n4)::move( n4 n3)::move( n3 n2)::move( n1 n3)
move( n0 n2)::move( n0 n3)::move( n2 n0)::move( n0 n3)::move( n3 n2)::move( n2 n1)::move( n1 n0)::move( n0 n2)::move( n2 n3)::move( n1 n0)::move( n3 n4)::move( n4 n2)::move( n2 n1)::move( n1 n2)::move( n2 n3)::move( n3 n0)::move( n0 n3)::move( n3 n2)::move( n2 n1)
move( n0 n1)::move( n1 n0)::move( n0 n2)::move( n2 n1)::move( n4 n0)::move( n1 n0)::move( n0 n3)::move( n3 n1)::move( n1 n2)::move( n2 n4)::move( n4 n3)::move( n0 n3)::move( n3 n0)::move( n0 n2)::move( n2 n1)::move( n1 n2)
move( n0 n3)::move( n3 n1)::move( n0 n3)
move( n2 n3)::move( n0 n2)::move( n2 n0)::move( n0 n2)::move( n1 n0)::move( n2 n3)::move( n3 n0)::move( n0 n1)::move( n1 n0)::move( n0 n3)::move( n3 n4)
move( n1 n3)::move( n0 n3)::move( n3 n1)::move( n1 n0)::move( n0 n2)::move( n2 n4)::move( n4 n2)::move( n2 n0)::move( n0 n1)::move( n1 n0)::move( n0 n3)::move( n3 n0)::move( n0 n2)::move( n2 n3)::move( n3 n2)::move( n0 n1)
move( n0 n3)::move( n3 n1)::move( n1 n0)::move( n0 n2)::move( n2 n4)::move( n2 n1)::move( n3 n1)::move( n4 n3)::move( n3 n2)::move( n4 n0)::move( n2 n3)::move( n3 n1)::move( n1 n4)::move( n4 n2)::move( n2 n1)::move( n2 n0)::move( n1 n3)
move( n3 n1)::move( n0 n2)
move( n0 n4)::move( n2 n4)::move( n4 n3)::move( n3 n1)::move( n1 n4)::move( n4 n0)::move( n0 n4)::move( n4 n1)::move( n1 n4)::move( n4 n2)::move( n2 n3)::move( n3 n0)::move( n0 n4)::move( n4 n0)::move( n0 n4)::move( n4 n0)::move( n0 n4)::move( n4 n1)
move( n0 n4)::move( n4 n1)::move( n2 n3)::move( n1 n4)::move( n4 n0)::move( n0 n1)::move( n1 n4)::move( n3 n2)::move( n4 n3)::move( n3 n0)::move( n0 n3)
move( n0 n3)::move( n3 n2)::move( n2 n4)::move( n4 n1)::move( n2 n0)
move( n0 n2)::move( n1 n3)::move( n4 n3)::move( n2 n3)::move( n2 n3)::move( n3 n1)::move( n1 n3)::move( n3 n4)::move( n1 n4)::move( n4 n1)::move( n1 n4)::move( n4 n1)::move( n1 n3)::move( n3 n0)
move( n0 n3)::move( n1 n0)::move( n3 n1)::move( n0 n2)::move( n1 n2)::move( n2 n3)::move( n3 n0)::move( n0 n1)::move( n3 n4)::move( n1 n4)::move( n4 n0)::move( n0 n1)::move( n1 n2)::move( n1 n2)::move( n2 n0)::move( n0 n2)::move( n2 n3)::move( n1 n2)::move( n3 n0)
move( n4 n3)::move( n0 n1)::move( n1 n4)::move( n1 n4)::move( n4 n2)::move( n2 n4)::move( n3 n2)::move( n1 n3)::move( n4 n2)::move( n2 n4)::move( n4 n3)::move( n3 n1)::move( n3 n2)::move( n1 n2)::move( n2 n3)::move( n3 n0)::move( n0 n4)::move( n4 n1)::move( n1 n3)
move( n0 n2)::move( n2 n0)::move( n4 n0)
move( n3 n1)::move( n0 n2)::move( n1 n2)::move( n2 n1)::move( n1 n4)
move( n0 n3)::move( n4 n2)::move( n3 n4)::move( n4 n3)::move( n3 n0)::move( n0 n4)::move( n4 n2)::move( n2 n1)::move( n1 n3)::move( n2 n3)::move( n0 n3)::move( n3 n2)::move( n2 n4)
move( n0 n4)::move( n4 n3)::move( n3 n2)::move( n2 n0)::move( n4 n3)::move( n0 n2)::move( n4 n0)::move( n2 n1)::move( n1 n3)::move( n3 n4)::move( n4 n1)
move( n0 n4)::move( n4 n0)::move( n1 n2)::move( n3 n4)::move( n0 n2)::move( n2 n4)::move( n4 n3)::move( n3 n0)::move( n0 n2)::move( n3 n0)::move( n0 n4)::move( n2 n4)::move( n4 n2)::move( n2 n3)::move( n3 n1)::move( n4 n0)::move( n1 n4)::move( n4 n0)::move( n0 n3)
move( n4 n0)::move( n0 n3)::move( n3 n2)::move( n2 n0)::move( n0 n1)::move( n1 n4)::move( n4 n2)::move( n2 n0)::move( n0 n1)::move( n1 n4)::move( n4 n3)::move( n3 n0)::move( n0 n1)::move( n2 n0)::move( n4 n3)
move( n0 n3)::move( n0 n1)::move( n3 n2)::move( n2 n1)::move( n4 n0)::move( n1 n0)::move( n0 n2)::move( n0 n4)::move( n2 n3)::move( n3 n2)::move( n2 n1)::move( n1 n2)::move( n2 n4)::move( n2 n4)::move( n4 n3)
move( n0 n3)::move( n1 n4)::move( n2 n4)::move( n3 n2)::move( n2 n1)::move( n1 n0)::move( n0 n1)
move( n4 n3)::move( n0 n3)::move( n3 n2)::move( n1 n0)::move( n2 n3)::move( n3 n2)::move( n2 n4)::move( n4 n0)::move( n0 n4)::move( n4 n2)::move( n2 n3)::move( n3 n4)::move( n1 n3)::move( n4 n2)::move( n3 n1)::move( n2 n4)::move( n1 n3)
move( n0 n2)::move( n2 n3)::move( n3 n4)::move( n4 n3)::move( n3 n4)::move( n4 n2)::move( n2 n3)::move( n3 n4)::move( n3 n4)
move( n0 n3)::move( n3 n0)::move( n0 n3)::move( n0 n1)::move( n0 n2)::move( n3 n4)::move( n1 n0)::move( n4 n0)::move( n0 n3)::move( n3 n0)::move( n1 n4)::move( n0 n1)::move( n1 n3)::move( n3 n4)
