digraph fsa{
rankdir=LR
graph [bgcolor=white];
start [shape=none]
node [shape = doublecircle]; 0 1 3 5 7 12 7 12 13 19 60 27 41 81 92 13 7 13 12 19 60 77 33 44 33 44 81 92 124 10 16 12 19 44 58 33 81 92 116 325 351 72 88 106 1 3 5 7 13 7 13 12 19 60 27 41 81 92 13 6 10 15 24 33 44 58 72 88 106 63 146 168 1 3 5 7 12 19 27 38 27 38 13 92 13 7 13 12 19 60 77 1 3 5 7 13 7 13 12 19 60 77 93 111 106 63 146 28 146 39 168 257 287 355 380 406 307 256 281 9 14 20 2 4 6 9 14 20 28 39 50 63 78 0 2 4 6 9 14 20 28 39 50 65 80 97 116 136 116 136 15 24 256 307 256 333 619 633 7 13 12 19 60 77 33 44 58 2 4 6 9 14 20 28 39 50 63 78 0 1 3 5 1 3 5 7 13 6 10 15 24 33 44 58 33 81 92 72 88 106 28 39 50 65 80 97 116 136 116 136 15 24 256 281 1 3 5 7 13 7 13 12 19 60 77 27 38 6 10 16 203 229 255 20 28 39 50 63 78 0 2 4 6 10 16 203 229 255 20 28 39 50 63 78 0 2 4 6 9 14 20 28 39 50 65 80 97 116 136 116 136 15 24 256 281 307 333 33 81 16 92 124 203 116 325 351 72 88 106 28 39 50 65 80 97 1 3 5 7 13 7 13 12 19 60 77 93 111 106 63 146 168 231 257 191 39 217 243 385 411 436 461 486 65 80 97 116 136 77 1 3 5 7 12 19 27 41 27 41 81 92 13 6 10 15 24 33 44 58 101 120 50 316 412 63 146 78 168 78 553 342 590 412 622 63 78 146 0 684 694 553 711 716 436 461 486 553 711 716 2 4 6 1 3 5 7 12 19 27 41 6 10 16 33 44 81 92 124 10 16 12 19 44 58 72 88 106 63 146 28 146 39 168 257 287 355 380 406 2 4 6 10 15 10 15 16 19 44 58 33 81 92 101 120 50 63 78 0 1 3 5 7 13 7 13 12 19 60 77 27 38 6 2 4 6 10 16 10 16 12 19 44 58 101 120 50 65 80 97 116 136 77 33 44 58 33 81 92 116 325 351 1 3 5 7 12 7 12 13 19 60 77 93 111 106 63 146 168 231 257 287 191 217 243 316 342 441 466 491 77 27 38 6 2 4 6 9 14 20 28 39 50 65 80 97 7 12 19 27 38 27 38 13 92 13 7 13 12 19 60 27 41 81 281 38 6 10 15 10 15 16 19 44 58 1 3 5 7 13 7 13 12 19 60 27 41 81 92 13 6 9 14 20 28 39 50 63 78 0 2 4 6 9 14 20 28 39 50 65 80 97 7 12 19 27 41 6 2 4 6 10 15 10 15 16 19 44 58 72 88 106 63 146 168 231 257 287 316 342 191 78 217 243 78 0 1 3 5 7 13 7 13 12 19 60 27 41 81 92 13 7 13 12 19 60 77 27 38 6 9 14 20 28 39 50 63 78 0 1 3 5 7 12 7 12 13 19 60 27 41 81 92 13 7 13 12 19 60 77 33 44 58 72 88 106 63 146 168 231 257 287 316 342 441 653 665 406 307 256 281 1 3 5 7 12 19 27 38 27 38 13 92 13 7 13 12 19 60 77 27 38 6 10 15 10 15 16 19 44 58 72 88 106 63 146 168 231 257 191 39 217 243 385 411 2 4 6 10 15 24 33 44 33 44 81 92 124 10 16 12 19 44 58 72 88 106 63 146 168 231 257 191 39 217 243 385 411 65 80 97 2 4 6 10 15 24 27 38 6 9 14 20 28 39 50 2 4 6 9 14 20 28 39 50 63 78 0 2 4 6 10 16 10 16 12 19 44 58 33 81 92 72 88 106 2 4 6 10 15 24 33 44 58 72 88 106 63 146 168 191 217 243 63 146 168 231 257 287 1 3 5 7 12 7 12 13 19 60 27 41 81 92 13 6 10 16 203 229 255 20 28 39 50 65 80 97 2 4 6 9 14 20 28 39 50 65 80 97 7 12 7 12 13 19 60 27 41 81 92 13 6 10 16 203 116 325 351 376 402 411 65 80 97 1 3 5 7 12 19 27 38 27 38 13 92 13 6 10 15 10 15 16 19 44 58 1 3 5 7 13 6 10 16 10 16 12 19 44 33 44 81 92 124 203 116 325 351 376 402 411 316 342 441 466 491 77 27 38 6 10 16 203 101 120 50 65 80 97 7 12 19 1 3 5 7 12 19 27 41 27 41 81 92 13 7 13 12 19 60 77 27 38 6 10 16 10 16 12 19 44 58 33 81 92 116 325 351 33 81 92 101 120 50;
start->0
0 -> 1[label = "zoom-start( plane1 city0 city1 fl2 fl1 fl0)"]
0 -> 2[label = "fly-start( plane1 city0 city1 fl2 fl1)"]
0 -> 684[label = "debark-inv( person1 plane1 city0)"]
256 -> 333[label = "debark-inv( person1 plane1 city1)"]
256 -> 281[label = "refuel-end( plane1 city1 fl0 fl1)"]
256 -> 307[label = "debark-start( person1 plane1 city1)"]
1 -> 3[label = "zoom-inv( plane1 city0 city1 fl2 fl1 fl0)"]
257 -> 287[label = "refuel-end( plane1 city0 fl0 fl1)"]
257 -> 191[label = "board-start( person1 plane1 city0)"]
385 -> 411[label = "refuel-end( plane1 city0 fl0 fl1)"]
2 -> 4[label = "fly-inv( plane1 city0 city1 fl2 fl1)"]
3 -> 5[label = "zoom-end( plane1 city0 city1 fl2 fl1 fl0)"]
4 -> 6[label = "fly-end( plane1 city0 city1 fl2 fl1)"]
5 -> 7[label = "board-start( person1 plane1 city1)"]
5 -> 7[label = "refuel-start( plane1 city1 fl0 fl1)"]
6 -> 10[label = "refuel-start( plane1 city1 fl1 fl2)"]
6 -> 10[label = "board-start( person1 plane1 city1)"]
6 -> 9[label = "fly-start( plane1 city1 city0 fl1 fl0)"]
7 -> 13[label = "refuel-inv( plane1 city1 fl0 fl1)"]
7 -> 12[label = "board-inv( person1 plane1 city1)"]
136 -> 116[label = "board-start( person1 plane1 city1)"]
136 -> 77[label = "refuel-end( plane1 city1 fl0 fl1)"]
136 -> 15[label = "board-inv( person1 plane1 city1)"]
9 -> 14[label = "fly-inv( plane1 city1 city0 fl1 fl0)"]
10 -> 16[label = "refuel-inv( plane1 city1 fl1 fl2)"]
10 -> 15[label = "board-inv( person1 plane1 city1)"]
12 -> 13[label = "refuel-inv( plane1 city1 fl0 fl1)"]
12 -> 7[label = "refuel-start( plane1 city1 fl0 fl1)"]
12 -> 19[label = "board-end( person1 plane1 city1)"]
13 -> 92[label = "debark-end( person1 plane1 city1)"]
13 -> 7[label = "board-start( person1 plane1 city1)"]
13 -> 6[label = "refuel-end( plane1 city1 fl0 fl1)"]
13 -> 19[label = "board-end( person1 plane1 city1)"]
13 -> 12[label = "board-inv( person1 plane1 city1)"]
653 -> 665[label = "zoom-inv( plane1 city0 city1 fl2 fl1 fl0)"]
14 -> 20[label = "fly-end( plane1 city1 city0 fl1 fl0)"]
15 -> 10[label = "refuel-start( plane1 city1 fl1 fl2)"]
15 -> 24[label = "board-end( person1 plane1 city1)"]
15 -> 16[label = "refuel-inv( plane1 city1 fl1 fl2)"]
16 -> 203[label = "refuel-end( plane1 city1 fl1 fl2)"]
16 -> 92[label = "debark-end( person1 plane1 city1)"]
16 -> 10[label = "board-start( person1 plane1 city1)"]
16 -> 19[label = "board-end( person1 plane1 city1)"]
16 -> 33[label = "debark-start( person1 plane1 city1)"]
16 -> 12[label = "board-inv( person1 plane1 city1)"]
146 -> 168[label = "debark-end( person1 plane1 city0)"]
146 -> 78[label = "refuel-inv( plane1 city0 fl1 fl2)"]
146 -> 28[label = "refuel-start( plane1 city0 fl0 fl1)"]
146 -> 0[label = "refuel-end( plane1 city0 fl1 fl2)"]
146 -> 39[label = "refuel-inv( plane1 city0 fl0 fl1)"]
402 -> 411[label = "fly-end( plane1 city1 city0 fl2 fl1)"]
19 -> 60[label = "refuel-inv( plane1 city1 fl0 fl1)"]
19 -> 27[label = "refuel-start( plane1 city1 fl0 fl1)"]
19 -> 27[label = "debark-start( person1 plane1 city1)"]
19 -> 44[label = "refuel-inv( plane1 city1 fl1 fl2)"]
20 -> 28[label = "refuel-start( plane1 city0 fl0 fl1)"]
406 -> 307[label = "refuel-start( plane1 city1 fl0 fl1)"]
24 -> 33[label = "refuel-start( plane1 city1 fl1 fl2)"]
24 -> 256[label = "refuel-inv( plane1 city1 fl0 fl1)"]
24 -> 27[label = "debark-start( person1 plane1 city1)"]
281 -> 38[label = "debark-inv( person1 plane1 city1)"]
281 -> 307[label = "debark-start( person1 plane1 city1)"]
281 -> 9[label = "fly-start( plane1 city1 city0 fl1 fl0)"]
665 -> 406[label = "zoom-end( plane1 city0 city1 fl2 fl1 fl0)"]
27 -> 41[label = "refuel-inv( plane1 city1 fl0 fl1)"]
27 -> 38[label = "debark-inv( person1 plane1 city1)"]
411 -> 316[label = "refuel-start( plane1 city0 fl1 fl2)"]
411 -> 436[label = "debark-start( person1 plane1 city0)"]
411 -> 65[label = "fly-start( plane1 city0 city1 fl1 fl0)"]
28 -> 146[label = "debark-inv( person1 plane1 city0)"]
28 -> 39[label = "refuel-inv( plane1 city0 fl0 fl1)"]
412 -> 622[label = "refuel-inv( plane1 city0 fl1 fl2)"]
412 -> 63[label = "refuel-start( plane1 city0 fl1 fl2)"]
287 -> 316[label = "refuel-start( plane1 city0 fl1 fl2)"]
287 -> 191[label = "board-start( person1 plane1 city0)"]
287 -> 355[label = "fly-start( plane1 city0 city1 fl1 fl0)"]
33 -> 81[label = "debark-inv( person1 plane1 city1)"]
33 -> 44[label = "refuel-inv( plane1 city1 fl1 fl2)"]
38 -> 13[label = "refuel-inv( plane1 city1 fl0 fl1)"]
38 -> 6[label = "debark-end( person1 plane1 city1)"]
38 -> 27[label = "refuel-start( plane1 city1 fl0 fl1)"]
39 -> 50[label = "refuel-end( plane1 city0 fl0 fl1)"]
39 -> 168[label = "debark-end( person1 plane1 city0)"]
39 -> 217[label = "board-inv( person1 plane1 city0)"]
168 -> 78[label = "refuel-inv( plane1 city0 fl1 fl2)"]
168 -> 231[label = "refuel-start( plane1 city0 fl0 fl1)"]
168 -> 191[label = "board-start( person1 plane1 city0)"]
168 -> 257[label = "refuel-inv( plane1 city0 fl0 fl1)"]
41 -> 81[label = "debark-inv( person1 plane1 city1)"]
41 -> 6[label = "refuel-end( plane1 city1 fl0 fl1)"]
41 -> 27[label = "debark-start( person1 plane1 city1)"]
553 -> 342[label = "refuel-inv( plane1 city0 fl1 fl2)"]
553 -> 711[label = "board-inv( person1 plane1 city0)"]
44 -> 58[label = "refuel-end( plane1 city1 fl1 fl2)"]
44 -> 81[label = "debark-inv( person1 plane1 city1)"]
44 -> 33[label = "debark-start( person1 plane1 city1)"]
684 -> 694[label = "debark-end( person1 plane1 city0)"]
50 -> 63[label = "refuel-start( plane1 city0 fl1 fl2)"]
50 -> 65[label = "fly-start( plane1 city0 city1 fl1 fl0)"]
50 -> 316[label = "debark-start( person1 plane1 city0)"]
307 -> 256[label = "refuel-inv( plane1 city1 fl0 fl1)"]
307 -> 333[label = "debark-inv( person1 plane1 city1)"]
436 -> 461[label = "debark-inv( person1 plane1 city0)"]
694 -> 553[label = "board-start( person1 plane1 city0)"]
441 -> 653[label = "zoom-start( plane1 city0 city1 fl2 fl1 fl0)"]
441 -> 466[label = "fly-start( plane1 city0 city1 fl2 fl1)"]
58 -> 72[label = "zoom-start( plane1 city1 city0 fl2 fl1 fl0)"]
58 -> 33[label = "debark-start( person1 plane1 city1)"]
58 -> 101[label = "fly-start( plane1 city1 city0 fl2 fl1)"]
60 -> 77[label = "refuel-end( plane1 city1 fl0 fl1)"]
60 -> 27[label = "debark-start( person1 plane1 city1)"]
316 -> 342[label = "refuel-inv( plane1 city0 fl1 fl2)"]
316 -> 412[label = "debark-inv( person1 plane1 city0)"]
63 -> 78[label = "refuel-inv( plane1 city0 fl1 fl2)"]
63 -> 146[label = "debark-inv( person1 plane1 city0)"]
191 -> 78[label = "refuel-inv( plane1 city0 fl1 fl2)"]
191 -> 39[label = "refuel-inv( plane1 city0 fl0 fl1)"]
191 -> 217[label = "board-inv( person1 plane1 city0)"]
65 -> 80[label = "fly-inv( plane1 city0 city1 fl1 fl0)"]
325 -> 351[label = "board-end( person1 plane1 city1)"]
711 -> 716[label = "board-end( person1 plane1 city0)"]
72 -> 88[label = "zoom-inv( plane1 city1 city0 fl2 fl1 fl0)"]
203 -> 116[label = "board-start( person1 plane1 city1)"]
203 -> 229[label = "zoom-start( plane1 city1 city0 fl2 fl1 fl0)"]
203 -> 101[label = "fly-start( plane1 city1 city0 fl2 fl1)"]
716 -> 2[label = "fly-start( plane1 city0 city1 fl2 fl1)"]
716 -> 436[label = "debark-start( person1 plane1 city0)"]
77 -> 33[label = "refuel-start( plane1 city1 fl1 fl2)"]
77 -> 27[label = "debark-start( person1 plane1 city1)"]
77 -> 93[label = "fly-start( plane1 city1 city0 fl1 fl0)"]
333 -> 33[label = "refuel-start( plane1 city1 fl1 fl2)"]
333 -> 619[label = "debark-end( person1 plane1 city1)"]
461 -> 486[label = "debark-end( person1 plane1 city0)"]
78 -> 168[label = "debark-end( person1 plane1 city0)"]
78 -> 0[label = "refuel-end( plane1 city0 fl1 fl2)"]
78 -> 553[label = "board-start( person1 plane1 city0)"]
78 -> 146[label = "debark-inv( person1 plane1 city0)"]
78 -> 217[label = "board-inv( person1 plane1 city0)"]
590 -> 412[label = "board-end( person1 plane1 city0)"]
80 -> 97[label = "fly-end( plane1 city0 city1 fl1 fl0)"]
81 -> 92[label = "debark-end( person1 plane1 city1)"]
81 -> 281[label = "refuel-end( plane1 city1 fl0 fl1)"]
81 -> 16[label = "refuel-inv( plane1 city1 fl1 fl2)"]
466 -> 491[label = "fly-inv( plane1 city0 city1 fl2 fl1)"]
342 -> 441[label = "refuel-end( plane1 city0 fl1 fl2)"]
342 -> 191[label = "board-start( person1 plane1 city0)"]
342 -> 590[label = "board-inv( person1 plane1 city0)"]
88 -> 106[label = "zoom-end( plane1 city1 city0 fl2 fl1 fl0)"]
217 -> 243[label = "board-end( person1 plane1 city0)"]
92 -> 13[label = "refuel-inv( plane1 city1 fl0 fl1)"]
92 -> 116[label = "board-start( person1 plane1 city1)"]
92 -> 72[label = "zoom-start( plane1 city1 city0 fl2 fl1 fl0)"]
92 -> 124[label = "refuel-inv( plane1 city1 fl1 fl2)"]
92 -> 101[label = "fly-start( plane1 city1 city0 fl2 fl1)"]
93 -> 111[label = "fly-inv( plane1 city1 city0 fl1 fl0)"]
351 -> 72[label = "zoom-start( plane1 city1 city0 fl2 fl1 fl0)"]
351 -> 33[label = "debark-start( person1 plane1 city1)"]
351 -> 376[label = "fly-start( plane1 city1 city0 fl2 fl1)"]
97 -> 116[label = "refuel-start( plane1 city1 fl0 fl1)"]
97 -> 7[label = "board-start( person1 plane1 city1)"]
355 -> 380[label = "fly-inv( plane1 city0 city1 fl1 fl0)"]
101 -> 120[label = "fly-inv( plane1 city1 city0 fl2 fl1)"]
229 -> 255[label = "zoom-inv( plane1 city1 city0 fl2 fl1 fl0)"]
486 -> 553[label = "board-start( person1 plane1 city0)"]
486 -> 65[label = "fly-start( plane1 city0 city1 fl1 fl0)"]
231 -> 257[label = "refuel-inv( plane1 city0 fl0 fl1)"]
106 -> 28[label = "refuel-start( plane1 city0 fl0 fl1)"]
106 -> 63[label = "debark-start( person1 plane1 city0)"]
491 -> 77[label = "fly-end( plane1 city0 city1 fl2 fl1)"]
619 -> 633[label = "refuel-inv( plane1 city1 fl0 fl1)"]
622 -> 63[label = "debark-start( person1 plane1 city0)"]
111 -> 106[label = "fly-end( plane1 city1 city0 fl1 fl0)"]
243 -> 78[label = "refuel-inv( plane1 city0 fl1 fl2)"]
243 -> 316[label = "refuel-start( plane1 city0 fl1 fl2)"]
243 -> 63[label = "debark-start( person1 plane1 city0)"]
243 -> 385[label = "refuel-inv( plane1 city0 fl0 fl1)"]
116 -> 136[label = "refuel-inv( plane1 city1 fl0 fl1)"]
116 -> 325[label = "board-inv( person1 plane1 city1)"]
120 -> 50[label = "fly-end( plane1 city1 city0 fl2 fl1)"]
376 -> 402[label = "fly-inv( plane1 city1 city0 fl2 fl1)"]
633 -> 7[label = "board-start( person1 plane1 city1)"]
124 -> 203[label = "refuel-end( plane1 city1 fl1 fl2)"]
124 -> 10[label = "board-start( person1 plane1 city1)"]
380 -> 406[label = "fly-end( plane1 city0 city1 fl1 fl0)"]
255 -> 20[label = "zoom-end( plane1 city1 city0 fl2 fl1 fl0)"]
}
