digraph fsa{
rankdir=LR
graph [bgcolor=white];
start [shape=none]
node [shape = doublecircle]; 0 1 3 5 4 9 29 44 62 82 106 45 3 8 14 28 43 2 4 6 11 19 30 45 3 8 5 13 35 1 3 5 7 13 22 28 7 13 35 22 9 54 7 13 22 29 72 93 11 19 30 48 66 140 164 2 4 7 13 9 29 44 62 82 106 134 159 90 110 139 164 189 213 52 70 90 110 2 4 6 11 19 30 48 66 86 110 135 139 185 5 110 135 139 185 43 3 8 14 1 3 8 14 22 28 7 67 87 61 54 4 9 29 44 62 82 106 155 166 2 4 7 13 1 3 8 5 13 22 28 7 13 35 51 62 11 19 138 176 199 223 247 271 19 138 1 3 5 4 1 3 5 7 13 35 51 62 82 19 138 163 48 204 176 199 138 163 48 66 86 110 2 4 7 9 13 36 52 70 90 110 139 164 189 213 185 261 284 30 45 3 8 5 13 35 1 3 5 4 9 29 53 71 48 66 140 164 189 67 87 61 54 72 93 11 2 4 7 9 13 36 52 70 92 19 138 166 163 48 204 159 223 247 2 4 370 9 54 72 53 71 48 66 140 164 2 4 7 13 22 9 54 72 93 11 19 30 45 3 5 4 2 4 6 11 19 30 45 3 5 7 13 35 51 62 11 19 138 176 199 0 1 3 5 7 13 22 28 43 6 11 19 30 45 3 5 7 13 22 28 43 2 4 9 7 13 36 52 70 92 66 86 110 139 164 243 130 204 176 334 354 5 185 261 135 139 185 43 61 54 72 2 4 9 7 13 22 28 7 13 36 61 54 1 3 5 7 13 35 51 62 82 19 138 163 48 204 176 199 138 166 1 3 5 7 13 22 28 7 13 22 35 54 6 11 19 30 45 3 8 5 13 35 51 62 82 106 1 3 5 7 13 22 28 7 13 22 35 9 54 7 13 36 1 3 5 4 9 7 13 36 61 54 7 13 1 3 5 7 13 22 28 7 13 22 35 9 54 7 13 36 61 54 52 70 92 66 140 164 243 130 2 4 7 13 22 9 54 72 67 87 61 54 52 70 92 66 140 164 1 3 8 5 13 35 51 62 82 19 138 176 199 223 247 271 19 138 1 3 8 5 13 22 28 7 13 35 51 62 82 106 134 92 138 166 163 48 1 3 5 4 9 29 53 71 90 110 139 164 135 67 87 61 54 72 93 11 19 30 48 66 140 164 1 3 8 5 13 35 9 29 44 62 1 3 8 5 13 22 28 43 6 11 19 30 48 66 140 164 243 130 204 176 1 3 5 4 6 11 19 30 48 66 86 110 139 164 135 67 87 61 54 7 13 36 1 3 8 14 28 43 61 36 105 130 19 138 204 176 223 247 134 92 138 166 2 4 7 13 9 29 44 62 82 106 155 166 205 229 185 261 28 43 135 139 185 261 135 139 185 261 6 11 19 30;
start->0
0 -> 1[label = "zoom-start( plane1 city0 city1 fl2 fl1 fl0)"]
0 -> 2[label = "fly-start( plane1 city0 city1 fl2 fl1)"]
1 -> 3[label = "zoom-end( plane1 city0 city1 fl2 fl1 fl0)"]
2 -> 4[label = "fly-end( plane1 city0 city1 fl2 fl1)"]
130 -> 204[label = "refuel-start( plane1 city0 fl0 fl1)"]
130 -> 19[label = "debark-start( person1 plane1 city0)"]
3 -> 5[label = "refuel-start( plane1 city1 fl0 fl1)"]
3 -> 8[label = "board-start( person1 plane1 city1)"]
4 -> 9[label = "refuel-start( plane1 city1 fl1 fl2)"]
4 -> 7[label = "board-start( person1 plane1 city1)"]
4 -> 370[label = "debark-start( person1 plane1 city1)"]
4 -> 6[label = "fly-start( plane1 city1 city0 fl1 fl0)"]
5 -> 110[label = "debark-end( person1 plane1 city1)"]
5 -> 7[label = "board-start( person1 plane1 city1)"]
5 -> 4[label = "refuel-end( plane1 city1 fl0 fl1)"]
5 -> 13[label = "board-end( person1 plane1 city1)"]
5 -> 185[label = "debark-start( person1 plane1 city1)"]
261 -> 28[label = "refuel-start( plane1 city1 fl0 fl1)"]
261 -> 135[label = "board-start( person1 plane1 city1)"]
261 -> 6[label = "fly-start( plane1 city1 city0 fl1 fl0)"]
261 -> 284[label = "fly-start( plane1 city1 city0 fl2 fl1)"]
6 -> 11[label = "fly-end( plane1 city1 city0 fl1 fl0)"]
134 -> 159[label = "debark-end( person1 plane1 city0)"]
134 -> 92[label = "refuel-start( plane1 city0 fl1 fl2)"]
7 -> 9[label = "refuel-start( plane1 city1 fl1 fl2)"]
7 -> 67[label = "refuel-start( plane1 city1 fl0 fl1)"]
7 -> 13[label = "board-end( person1 plane1 city1)"]
135 -> 67[label = "refuel-start( plane1 city1 fl1 fl2)"]
135 -> 139[label = "board-end( person1 plane1 city1)"]
8 -> 5[label = "refuel-start( plane1 city1 fl0 fl1)"]
8 -> 14[label = "board-end( person1 plane1 city1)"]
9 -> 29[label = "refuel-end( plane1 city1 fl1 fl2)"]
9 -> 54[label = "debark-end( person1 plane1 city1)"]
9 -> 7[label = "board-start( person1 plane1 city1)"]
9 -> 13[label = "board-end( person1 plane1 city1)"]
138 -> 176[label = "refuel-end( plane1 city0 fl0 fl1)"]
138 -> 1[label = "zoom-start( plane1 city0 city1 fl2 fl1 fl0)"]
138 -> 166[label = "refuel-end( plane1 city0 fl1 fl2)"]
138 -> 204[label = "refuel-start( plane1 city0 fl0 fl1)"]
138 -> 163[label = "board-start( person1 plane1 city0)"]
11 -> 19[label = "refuel-start( plane1 city0 fl0 fl1)"]
139 -> 164[label = "refuel-end( plane1 city1 fl0 fl1)"]
139 -> 185[label = "debark-start( person1 plane1 city1)"]
140 -> 164[label = "fly-end( plane1 city0 city1 fl2 fl1)"]
13 -> 36[label = "refuel-end( plane1 city1 fl1 fl2)"]
13 -> 9[label = "refuel-start( plane1 city1 fl1 fl2)"]
13 -> 35[label = "refuel-end( plane1 city1 fl0 fl1)"]
13 -> 22[label = "debark-start( person1 plane1 city1)"]
14 -> 28[label = "refuel-start( plane1 city1 fl0 fl1)"]
14 -> 22[label = "debark-start( person1 plane1 city1)"]
271 -> 19[label = "debark-start( person1 plane1 city0)"]
19 -> 30[label = "refuel-end( plane1 city0 fl0 fl1)"]
19 -> 138[label = "debark-end( person1 plane1 city0)"]
22 -> 29[label = "refuel-end( plane1 city1 fl1 fl2)"]
22 -> 9[label = "refuel-start( plane1 city1 fl1 fl2)"]
22 -> 28[label = "debark-end( person1 plane1 city1)"]
22 -> 35[label = "refuel-end( plane1 city1 fl0 fl1)"]
155 -> 166[label = "refuel-end( plane1 city0 fl1 fl2)"]
28 -> 7[label = "board-start( person1 plane1 city1)"]
28 -> 43[label = "refuel-end( plane1 city1 fl0 fl1)"]
284 -> 30[label = "fly-end( plane1 city1 city0 fl2 fl1)"]
29 -> 72[label = "debark-end( person1 plane1 city1)"]
29 -> 44[label = "zoom-start( plane1 city1 city0 fl2 fl1 fl0)"]
29 -> 53[label = "fly-start( plane1 city1 city0 fl2 fl1)"]
30 -> 48[label = "refuel-start( plane1 city0 fl1 fl2)"]
30 -> 45[label = "fly-start( plane1 city0 city1 fl1 fl0)"]
159 -> 223[label = "board-start( person1 plane1 city0)"]
159 -> 90[label = "fly-start( plane1 city0 city1 fl1 fl0)"]
35 -> 9[label = "refuel-start( plane1 city1 fl1 fl2)"]
35 -> 54[label = "debark-end( person1 plane1 city1)"]
35 -> 22[label = "debark-start( person1 plane1 city1)"]
35 -> 51[label = "fly-start( plane1 city1 city0 fl1 fl0)"]
163 -> 48[label = "board-end( person1 plane1 city0)"]
36 -> 105[label = "zoom-start( plane1 city1 city0 fl2 fl1 fl0)"]
36 -> 61[label = "debark-start( person1 plane1 city1)"]
36 -> 52[label = "fly-start( plane1 city1 city0 fl2 fl1)"]
164 -> 189[label = "refuel-start( plane1 city1 fl1 fl2)"]
164 -> 135[label = "board-start( person1 plane1 city1)"]
164 -> 243[label = "fly-start( plane1 city1 city0 fl1 fl0)"]
166 -> 205[label = "zoom-start( plane1 city0 city1 fl2 fl1 fl0)"]
166 -> 2[label = "fly-start( plane1 city0 city1 fl2 fl1)"]
166 -> 163[label = "board-start( person1 plane1 city0)"]
43 -> 61[label = "refuel-start( plane1 city1 fl1 fl2)"]
43 -> 3[label = "debark-end( person1 plane1 city1)"]
43 -> 135[label = "board-start( person1 plane1 city1)"]
43 -> 6[label = "fly-start( plane1 city1 city0 fl1 fl0)"]
44 -> 62[label = "zoom-end( plane1 city1 city0 fl2 fl1 fl0)"]
45 -> 3[label = "fly-end( plane1 city0 city1 fl1 fl0)"]
48 -> 66[label = "refuel-end( plane1 city0 fl1 fl2)"]
48 -> 204[label = "debark-start( person1 plane1 city0)"]
176 -> 199[label = "refuel-start( plane1 city0 fl1 fl2)"]
176 -> 223[label = "board-start( person1 plane1 city0)"]
176 -> 334[label = "fly-start( plane1 city0 city1 fl1 fl0)"]
51 -> 62[label = "fly-end( plane1 city1 city0 fl1 fl0)"]
52 -> 70[label = "fly-end( plane1 city1 city0 fl2 fl1)"]
53 -> 71[label = "fly-end( plane1 city1 city0 fl2 fl1)"]
54 -> 72[label = "refuel-end( plane1 city1 fl1 fl2)"]
54 -> 7[label = "board-start( person1 plane1 city1)"]
54 -> 4[label = "refuel-end( plane1 city1 fl0 fl1)"]
54 -> 6[label = "fly-start( plane1 city1 city0 fl1 fl0)"]
54 -> 52[label = "fly-start( plane1 city1 city0 fl2 fl1)"]
185 -> 261[label = "debark-end( person1 plane1 city1)"]
185 -> 5[label = "refuel-start( plane1 city1 fl0 fl1)"]
185 -> 43[label = "refuel-end( plane1 city1 fl0 fl1)"]
61 -> 36[label = "refuel-end( plane1 city1 fl1 fl2)"]
61 -> 54[label = "debark-end( person1 plane1 city1)"]
189 -> 213[label = "refuel-end( plane1 city1 fl1 fl2)"]
189 -> 67[label = "board-start( person1 plane1 city1)"]
62 -> 82[label = "refuel-start( plane1 city0 fl0 fl1)"]
62 -> 11[label = "debark-start( person1 plane1 city0)"]
66 -> 86[label = "zoom-start( plane1 city0 city1 fl2 fl1 fl0)"]
66 -> 140[label = "fly-start( plane1 city0 city1 fl2 fl1)"]
67 -> 87[label = "board-end( person1 plane1 city1)"]
70 -> 92[label = "refuel-start( plane1 city0 fl1 fl2)"]
70 -> 90[label = "fly-start( plane1 city0 city1 fl1 fl0)"]
71 -> 48[label = "refuel-start( plane1 city0 fl1 fl2)"]
71 -> 90[label = "fly-start( plane1 city0 city1 fl1 fl0)"]
199 -> 138[label = "debark-end( person1 plane1 city0)"]
199 -> 0[label = "refuel-end( plane1 city0 fl1 fl2)"]
199 -> 223[label = "board-start( person1 plane1 city0)"]
72 -> 67[label = "board-start( person1 plane1 city1)"]
72 -> 93[label = "zoom-start( plane1 city1 city0 fl2 fl1 fl0)"]
72 -> 53[label = "fly-start( plane1 city1 city0 fl2 fl1)"]
204 -> 176[label = "refuel-end( plane1 city0 fl0 fl1)"]
204 -> 159[label = "debark-end( person1 plane1 city0)"]
205 -> 229[label = "zoom-end( plane1 city0 city1 fl2 fl1 fl0)"]
334 -> 354[label = "fly-end( plane1 city0 city1 fl1 fl0)"]
82 -> 106[label = "refuel-end( plane1 city0 fl0 fl1)"]
82 -> 19[label = "debark-start( person1 plane1 city0)"]
213 -> 185[label = "debark-start( person1 plane1 city1)"]
213 -> 52[label = "fly-start( plane1 city1 city0 fl2 fl1)"]
86 -> 110[label = "zoom-end( plane1 city0 city1 fl2 fl1 fl0)"]
87 -> 61[label = "debark-start( person1 plane1 city1)"]
90 -> 110[label = "fly-end( plane1 city0 city1 fl1 fl0)"]
92 -> 138[label = "debark-end( person1 plane1 city0)"]
92 -> 66[label = "refuel-end( plane1 city0 fl1 fl2)"]
92 -> 19[label = "debark-start( person1 plane1 city0)"]
93 -> 11[label = "zoom-end( plane1 city1 city0 fl2 fl1 fl0)"]
223 -> 247[label = "board-end( person1 plane1 city0)"]
354 -> 5[label = "refuel-start( plane1 city1 fl0 fl1)"]
229 -> 185[label = "debark-start( person1 plane1 city1)"]
105 -> 130[label = "zoom-end( plane1 city1 city0 fl2 fl1 fl0)"]
106 -> 155[label = "refuel-start( plane1 city0 fl1 fl2)"]
106 -> 45[label = "fly-start( plane1 city0 city1 fl1 fl0)"]
106 -> 134[label = "debark-start( person1 plane1 city0)"]
110 -> 135[label = "board-start( person1 plane1 city1)"]
110 -> 139[label = "refuel-start( plane1 city1 fl0 fl1)"]
370 -> 9[label = "refuel-start( plane1 city1 fl1 fl2)"]
243 -> 130[label = "fly-end( plane1 city1 city0 fl1 fl0)"]
247 -> 271[label = "refuel-end( plane1 city0 fl1 fl2)"]
247 -> 2[label = "fly-start( plane1 city0 city1 fl2 fl1)"]
247 -> 134[label = "debark-start( person1 plane1 city0)"]
}
