digraph fsa{
rankdir=LR
graph [bgcolor=white];
start [shape=none]
node [shape = doublecircle]; 0 1 3 5 6 12 20 41 8 17 32 26 20 41 8 17 37 54 72 160 187 57 65 1 3 6 5 12 20 41 4 8 17 26 37 57 65 87 118 1 3 5 12 20 6 41 8 17 32 1 3 6 5 12 32 47 65 87 21 118 164 191 217 54 4 7 13 2 4 7 13 21 33 48 0 2 4 7 13 21 33 51 69 92 117 23 20 41 8 17 32 26 37 2 4 7 13 21 33 48 0 1 3 1 3 6 4 8 17 26 37 54 72 140 13 21 33 51 69 92 117 23 4 1 3 6 5 12 32 20 41 9 72 140 13 21 33 48 0 2 4 9 72 140 13 21 33 48 0 2 4 7 13 21 33 51 69 92 117 23 4 195 9 41 72 160 187 57 65 21 33 51 69 1 3 6 5 12 32 47 65 87 118 143 156 183 222 248 274 51 69 92 32 1 3 5 12 23 20 41 4 8 17 26 37 55 33 249 204 118 156 183 48 0 389 400 409 248 274 400 409 2 4 1 3 5 12 23 4 9 20 41 8 17 37 57 65 87 21 118 164 191 217 2 4 8 9 12 37 54 72 55 33 48 0 1 3 6 5 12 32 20 41 2 4 9 5 12 37 55 33 51 69 92 32 26 37 54 72 160 187 1 3 5 6 12 32 47 65 87 118 143 164 156 183 204 279 304 326 20 41 2 4 7 13 21 33 51 69 5 12 20 6 41 8 17 20 32 41 8 9 12 37 1 3 6 5 12 20 41 4 7 13 21 33 48 0 2 4 7 13 21 33 51 69 5 12 23 4 2 4 8 9 12 37 57 65 87 118 143 164 204 156 183 0 1 3 6 5 12 20 41 8 17 32 20 41 7 13 21 33 48 0 1 3 5 6 12 20 41 8 17 32 26 37 57 65 87 118 143 164 204 279 380 217 54 4 1 3 5 12 20 6 41 8 17 32 20 41 8 9 12 37 57 65 87 118 143 156 183 222 2 4 8 17 26 20 41 8 17 37 57 65 87 118 143 156 183 222 51 69 2 4 8 17 20 41 7 13 21 33 2 4 7 13 21 33 48 0 2 4 9 5 12 37 54 72 140 13 2 4 8 17 26 37 57 65 87 118 156 183 48 13 21 33 1 3 5 6 12 20 41 4 9 72 140 13 21 33 51 69 2 4 7 13 21 33 51 69 5 6 12 20 41 4 9 72 160 187 213 222 51 69 1 3 5 12 20 6 41 4 8 9 12 37 1 3 6 4 9 5 12 20 41 72 160 187 213 222 204 279 304 326 20 41 9 72 55 33 51 69 5 12 1 3 5 12 23 20 41 8 17 32 20 41 9 5 12 37 54 72 160 187 20 41 55 33;
start->0
0 -> 389[label = "debark-end( person1 plane1 city0)"]
0 -> 1[label = "zoom-start( plane1 city0 city1 fl2 fl1 fl0)"]
0 -> 2[label = "fly-start( plane1 city0 city1 fl2 fl1)"]
1 -> 3[label = "zoom-end( plane1 city0 city1 fl2 fl1 fl0)"]
2 -> 4[label = "fly-end( plane1 city0 city1 fl2 fl1)"]
3 -> 5[label = "board-start( person1 plane1 city1)"]
3 -> 6[label = "refuel-start( plane1 city1 fl0 fl1)"]
4 -> 9[label = "refuel-start( plane1 city1 fl1 fl2)"]
4 -> 8[label = "board-start( person1 plane1 city1)"]
4 -> 195[label = "debark-start( person1 plane1 city1)"]
4 -> 7[label = "fly-start( plane1 city1 city0 fl1 fl0)"]
5 -> 6[label = "refuel-start( plane1 city1 fl0 fl1)"]
5 -> 12[label = "board-end( person1 plane1 city1)"]
389 -> 400[label = "board-start( person1 plane1 city0)"]
6 -> 41[label = "debark-end( person1 plane1 city1)"]
6 -> 5[label = "board-start( person1 plane1 city1)"]
6 -> 4[label = "refuel-end( plane1 city1 fl0 fl1)"]
6 -> 12[label = "board-end( person1 plane1 city1)"]
7 -> 13[label = "fly-end( plane1 city1 city0 fl1 fl0)"]
8 -> 9[label = "refuel-start( plane1 city1 fl1 fl2)"]
8 -> 17[label = "board-end( person1 plane1 city1)"]
9 -> 72[label = "refuel-end( plane1 city1 fl1 fl2)"]
9 -> 41[label = "debark-end( person1 plane1 city1)"]
9 -> 5[label = "board-start( person1 plane1 city1)"]
9 -> 12[label = "board-end( person1 plane1 city1)"]
9 -> 20[label = "debark-start( person1 plane1 city1)"]
12 -> 37[label = "refuel-end( plane1 city1 fl1 fl2)"]
12 -> 23[label = "refuel-start( plane1 city1 fl0 fl1)"]
12 -> 32[label = "refuel-end( plane1 city1 fl0 fl1)"]
12 -> 20[label = "debark-start( person1 plane1 city1)"]
140 -> 13[label = "zoom-end( plane1 city1 city0 fl2 fl1 fl0)"]
13 -> 21[label = "refuel-start( plane1 city0 fl0 fl1)"]
143 -> 164[label = "refuel-end( plane1 city0 fl0 fl1)"]
143 -> 156[label = "board-start( person1 plane1 city0)"]
400 -> 409[label = "board-end( person1 plane1 city0)"]
17 -> 37[label = "refuel-end( plane1 city1 fl1 fl2)"]
17 -> 26[label = "refuel-start( plane1 city1 fl1 fl2)"]
17 -> 32[label = "refuel-end( plane1 city1 fl0 fl1)"]
17 -> 20[label = "debark-start( person1 plane1 city1)"]
274 -> 400[label = "board-start( person1 plane1 city0)"]
274 -> 51[label = "fly-start( plane1 city0 city1 fl1 fl0)"]
20 -> 41[label = "debark-end( person1 plane1 city1)"]
20 -> 6[label = "refuel-start( plane1 city1 fl0 fl1)"]
20 -> 32[label = "refuel-end( plane1 city1 fl0 fl1)"]
21 -> 33[label = "refuel-end( plane1 city0 fl0 fl1)"]
21 -> 118[label = "debark-end( person1 plane1 city0)"]
23 -> 4[label = "refuel-end( plane1 city1 fl0 fl1)"]
23 -> 20[label = "debark-start( person1 plane1 city1)"]
279 -> 380[label = "zoom-start( plane1 city0 city1 fl2 fl1 fl0)"]
279 -> 304[label = "fly-start( plane1 city0 city1 fl2 fl1)"]
409 -> 2[label = "fly-start( plane1 city0 city1 fl2 fl1)"]
409 -> 248[label = "debark-start( person1 plane1 city0)"]
26 -> 37[label = "refuel-end( plane1 city1 fl1 fl2)"]
26 -> 20[label = "debark-start( person1 plane1 city1)"]
156 -> 183[label = "board-end( person1 plane1 city0)"]
32 -> 26[label = "refuel-start( plane1 city1 fl1 fl2)"]
32 -> 41[label = "debark-end( person1 plane1 city1)"]
32 -> 20[label = "debark-start( person1 plane1 city1)"]
32 -> 47[label = "fly-start( plane1 city1 city0 fl1 fl0)"]
160 -> 187[label = "board-end( person1 plane1 city1)"]
33 -> 48[label = "refuel-start( plane1 city0 fl1 fl2)"]
33 -> 51[label = "fly-start( plane1 city0 city1 fl1 fl0)"]
33 -> 249[label = "debark-start( person1 plane1 city0)"]
164 -> 204[label = "refuel-start( plane1 city0 fl1 fl2)"]
164 -> 156[label = "board-start( person1 plane1 city0)"]
164 -> 191[label = "fly-start( plane1 city0 city1 fl1 fl0)"]
37 -> 57[label = "zoom-start( plane1 city1 city0 fl2 fl1 fl0)"]
37 -> 54[label = "debark-start( person1 plane1 city1)"]
37 -> 55[label = "fly-start( plane1 city1 city0 fl2 fl1)"]
41 -> 72[label = "refuel-end( plane1 city1 fl1 fl2)"]
41 -> 9[label = "refuel-start( plane1 city1 fl1 fl2)"]
41 -> 8[label = "board-start( person1 plane1 city1)"]
41 -> 4[label = "refuel-end( plane1 city1 fl0 fl1)"]
41 -> 7[label = "fly-start( plane1 city1 city0 fl1 fl0)"]
41 -> 55[label = "fly-start( plane1 city1 city0 fl2 fl1)"]
47 -> 65[label = "fly-end( plane1 city1 city0 fl1 fl0)"]
48 -> 13[label = "debark-end( person1 plane1 city0)"]
48 -> 0[label = "refuel-end( plane1 city0 fl1 fl2)"]
304 -> 326[label = "fly-end( plane1 city0 city1 fl2 fl1)"]
51 -> 69[label = "fly-end( plane1 city0 city1 fl1 fl0)"]
54 -> 72[label = "debark-end( person1 plane1 city1)"]
54 -> 4[label = "refuel-end( plane1 city1 fl0 fl1)"]
55 -> 33[label = "fly-end( plane1 city1 city0 fl2 fl1)"]
183 -> 222[label = "refuel-end( plane1 city0 fl0 fl1)"]
183 -> 204[label = "refuel-start( plane1 city0 fl1 fl2)"]
183 -> 0[label = "refuel-end( plane1 city0 fl1 fl2)"]
183 -> 48[label = "debark-start( person1 plane1 city0)"]
57 -> 65[label = "zoom-end( plane1 city1 city0 fl2 fl1 fl0)"]
187 -> 57[label = "zoom-start( plane1 city1 city0 fl2 fl1 fl0)"]
187 -> 20[label = "debark-start( person1 plane1 city1)"]
187 -> 213[label = "fly-start( plane1 city1 city0 fl2 fl1)"]
191 -> 217[label = "fly-end( plane1 city0 city1 fl1 fl0)"]
65 -> 21[label = "refuel-start( plane1 city0 fl0 fl1)"]
65 -> 87[label = "debark-start( person1 plane1 city0)"]
195 -> 9[label = "refuel-start( plane1 city1 fl1 fl2)"]
69 -> 92[label = "refuel-start( plane1 city1 fl0 fl1)"]
69 -> 5[label = "board-start( person1 plane1 city1)"]
326 -> 20[label = "debark-start( person1 plane1 city1)"]
72 -> 160[label = "board-start( person1 plane1 city1)"]
72 -> 140[label = "zoom-start( plane1 city1 city0 fl2 fl1 fl0)"]
72 -> 55[label = "fly-start( plane1 city1 city0 fl2 fl1)"]
204 -> 118[label = "debark-end( person1 plane1 city0)"]
204 -> 279[label = "refuel-end( plane1 city0 fl1 fl2)"]
204 -> 156[label = "board-start( person1 plane1 city0)"]
213 -> 222[label = "fly-end( plane1 city1 city0 fl2 fl1)"]
87 -> 118[label = "debark-end( person1 plane1 city0)"]
87 -> 21[label = "refuel-start( plane1 city0 fl0 fl1)"]
217 -> 54[label = "refuel-start( plane1 city1 fl0 fl1)"]
92 -> 117[label = "board-start( person1 plane1 city1)"]
92 -> 32[label = "refuel-end( plane1 city1 fl0 fl1)"]
222 -> 204[label = "refuel-start( plane1 city0 fl1 fl2)"]
222 -> 248[label = "debark-start( person1 plane1 city0)"]
222 -> 51[label = "fly-start( plane1 city0 city1 fl1 fl0)"]
117 -> 23[label = "board-end( person1 plane1 city1)"]
118 -> 164[label = "refuel-end( plane1 city0 fl0 fl1)"]
118 -> 143[label = "refuel-start( plane1 city0 fl0 fl1)"]
118 -> 156[label = "board-start( person1 plane1 city0)"]
248 -> 274[label = "debark-end( person1 plane1 city0)"]
249 -> 204[label = "refuel-start( plane1 city0 fl1 fl2)"]
380 -> 217[label = "zoom-end( plane1 city0 city1 fl2 fl1 fl0)"]
}
